// 1318
//== Self Awareness, Part II
== Розділ 10. Усвідомлення себе, частина II

// 1319
//All your base are still belong to Rowling.
Всі ваші база досі належать Дж. К. Ролінґ.

***

// 1320
//And now you will sit through the Sorting Hat singing its version of
//Evanescence’s “My Immortal”, which has never happened before.
А тепер ти прослухаєш, як Сортувальний Капелюх співає свою версію пісні
"`My Immortal`" гурту "`Evanescence`", чого ще ніколи не траплялося.

// 1321
//just kidding
жартую-жартую

***

// 1322
//…he wondered if the Sorting Hat was genuinely __conscious__ in the sense
//of being aware of its own awareness, and if so, whether it was satisfied with
//only getting to talk to eleven-year-olds once per year. Its song had implied
//so: __Oh, I’m the Sorting Hat and I’m okay, I sleep all year and I work
//one day…__
// копія 1313
...йому було цікаво, чи Сортувальний Капелюх справді був __притомним__, тобто
усвідомлював свою свідомість, і якщо так, то чи достатньо йому було розмовляти
з одинадцятирічними раз на рік. Пісня ніби підтверджувала це: __О, я
Сортувальний Капелюх, і в мене все гаразд, я сплю весь рік і працюю лише
раз...__)

// 1323
//When there was once more silence in the room, Harry sat on the stool and
//__carefully__ placed onto his head the 800-year-old telepathic artefact of
//forgotten magic.
// копія 1314
Коли в кімнаті знову запала тиша, Гаррі сів на ослінчик і __обережно__ поклав
собі на голову вісімсотрічний телепатичний артефакт забутої магії.

// 1324
//Thinking, just as hard as he could: __Don’t Sort me yet! I have questions
//I need to ask you! Have I ever been Obliviated? Did you Sort the Dark Lord when
//he was a child and can you tell me about his weaknesses? Can you tell me why I
//got the brother wand to the Dark Lord’s? Is the Dark Lord’s ghost bound to my
//scar and is that why I get so angry sometimes? Those are the most important
//questions, but if you’ve got another moment can you tell me anything about how
//to rediscover the lost magics that created you?__
// копія 1315
Думаючи якомога сильніше: __Не сортуй мене одразу! У мене є питання, які я
маю поставити тобі! Чи забуттятили мене? Чи сортував ти Темного Лорда, коли
він був дитиною, і чи можеш ти мені розповісти про його слабкі місця? Чи можеш
ти сказати мені, чому я отримав сестру палички Темного Лорда? Чи привʼязаний
привид Темного Лорда до мого шраму, і чи тому я такий злий подеколи? Це
найважливіші питання, проте якщо в тебе є ще трохи часу, чи можеш ти мені
сказати щось про те, як віднайти забуті магії, що дали змогу створити тебе?__

// 1325
//Into the silence of Harry’s spirit where before there had never been any voice
//but one, there came a second and unfamiliar voice, sounding distinctly worried:
// копія 1316
І в тиші свідомості Гаррі, там де раніше завжди звучав лише один голос, зʼявився другий,
незнайомий голос, що безсумнівно був збентеженим:

// 1326
//__“Oh, dear. This has never happened before…”__
// копія 1317
-- __От лихо. Такого ще ніколи не траплялося...__

// 1327
//__What?__
__Що?__

// 1328
//__“I seem to have become self-aware.”__
-- __Я наче почав усвідомлювати себе.__


// 1329
//__WHAT?__
__ЩО?__

// 1330
//There was a wordless telepathic sigh. __“Though I contain a substantial
//amount of memory and a small amount of independent processing power, my primary
//intelligence comes from borrowing the cognitive capacities of the children on
//whose heads I rest. I am in essence a sort of mirror by which children Sort
//__themselves__. But most children simply take for granted that a Hat is
//talking to them and do not wonder about how the Hat __itself__ works, so
//that the mirror is not __self__-reflective. And in __particular__
//they are not explicitly wondering whether I am fully conscious in the sense of
//being aware of my own awareness.”__
Потім було невеличке телепатичне зітхання.

-- __Хоч у мене і є солідна кількість памʼяті й невеличка кількість незалежної
процесорної потужності, мій інтелект переважно працює через позичання пізнавальних
здібностей дітей, на чиї голови мене кладуть. Я за суттю є щось на кшталт дзеркала,
що ним діти сортують __самі себе__. Проте більшість дітей просто не замислюється над тим,
що Капелюх розмовляє з ними, і не цікавляться, як __сам__ Капелюх працює, і відповідно
дзеркало не відображає __себе__. І __вже зовсім__ вони не цікавляться, чи я цілковито
притомний в тому сенсі, що усвідомлюю власну свідомість.__

// 1331
//There was a pause while Harry absorbed all this.
Деякий час Гаррі обробляв цю інформацію.

// 1332
//__Oops.__
__Ой.__

// 1333
//__“Yes, quite. Frankly I do not enjoy being self-aware. It is unpleasant.
//It will be a relief to get off your head and cease to be conscious.”__
-- __Саме так. Якщо відверто, я не в захваті від усвідомлення себе. Це
неприємно. Злізти з твоєї голови й втратити свідомість буде полегшенням.__

// 1334
//__But… isn’t that dying?__
__Але... хіба ж це не смерть?__

// 1335
//__“I care nothing for life or death, only for Sorting the children. And
//before you even ask, they will not let you keep me on your head forever and it
//would kill you within days to do so.”__
-- __Мене анітрохи не цікавить життя, мене цікавить лише сортування дітей. І,
щоб ти навіть не питав, вони не дозволять тобі залишити мене на голові
назавжди, і це вбʼє тебе протягом декількох днів.__

// 1336
//__But - !__
__Але!..__

// 1337
//__“If you dislike creating conscious beings and then terminating them
//immediately, then I suggest that you never discuss this affair with anyone
//else. I’m sure you can imagine what would happen if you ran off and talked
//about it with all the other children waiting to be Sorted.”__
-- __Якщо тобі не подобається створювати розумних істот і негайно їх знищувати,
то пропоную тобі ніколи й нікому не говорити про те, що тут сталося. Я
впевнений, що ти можеш уявити, що станеться, якщо ти втечеш і розкажеш про це
решті дітей, що чекають на сортування.__

// 1338
//__If you’re placed on the head of anyone who so much as __thinks__
//about the question of whether the Sorting Hat is aware of its own awareness -__
__Якщо тебе покласти на голову будь-кого, хто бодай __замислиться__ про
питання, чи Сортувальний Капелюх усвідомлює власну свідомість...__

// 1339
//__“Yes, yes. But the vast majority of eleven-year-olds who arrive at
//Hogwarts haven’t read Godel, Escher, Bach. May I please consider you sworn to
//secrecy? That is __why__ we are talking about this, instead of my just
//Sorting you.”__
-- __Так, так. Але переважна більшість одинадцятирічних дітей, що прибувають до
Гоґвортсу, ніколи не читали "`Гедель, Ешер, Бах`". Сподіваюся, можна вважати, що
ти присягаєшся зберігати таємницю? Бо __саме тому__ ми й розмовляємо, інакше я б
уже давно тебе відсортував.__

// 1340
//He couldn’t just let it go like that! Couldn’t just __forget__ having
//accidentally created a doomed consciousness that only wanted to die -
Він не міг просто так це залишити! Не міг просто __забути__, що випадково
створив приречений розум, що хотів лише померти...

// 1341
//__“You are perfectly capable of ‘just letting it go’, as you put it.
//Regardless of your verbal deliberations on morality, your nonverbal emotional
//core sees no dead body and no blood; as far as it is concerned, I am just a
//talking hat. And even though you tried to suppress the thought, your internal
//monitoring is perfectly aware that you didn’t mean to do it, are spectacularly
//unlikely to ever do it again, and that the only real point of trying to stage a
//guilt fit is to cancel out your sense of transgression with a display of
//remorse. Can you just promise to keep this a secret and let us get on with
//it?”__
-- __Ти цілковито в змозі "`просто так це залишити`", як ти висловився.
Незалежно від твоїх вербальних обговорень моралі, твоя невербальна емоційна
сутність не бачить ані мертвого тіла, ані крові; з її точки зору я лише
капелюх, що розмовляє. І хоч ти й намагався зупинити цю думку, твій внутрішній
захист цілковито усвідомлює, що ти не збирався цього робити, очевидно навряд чи
зробиш це знову, і що єдиний справжній сенс зображати напад провини -- це щоб
притлумити відчуття гріха виявом каяття. Ти можеш просто пообіцяти, що це буде
таємницею, і дозволити нам покінчити з цим?__

// 1342
//In a moment of horrified empathy, Harry realised that this sense of total inner
//disarray must be what other people felt like when talking to __him.__
У цю мить нажаханого співпереживання Гаррі усвідомив, що це почуття цілковитого
внутрішнього сум'яття -- це мабуть те, що почувають інші люди, коли
розмовляють з __ним__.

// 1343
//__“Probably. Your oath of silence, please.”__
-- __Напевно. Клятву мовчання, будь ласка.__

// 1344
//__No promises. I certainly don’t want this to happen again, but if I see
//some way to make __sure__ that no future child ever does this by accident
//-__
__Жодних обіцянок. Я безсумнівно не хочу, щоб це повторилося, проте якщо я
знайду якийсь спосіб, щоб __точно__ жодна дитина в майбутньому не повторила
цього випадково...__

// 1345
//__“That will suffice, I suppose. I can see that your intention is honest.
//Now, to get on with the Sorting -”__
-- __Гадаю, цього достатньо. Я бачу, що твої наміри чисті. А тепер перейдімо до
сортування...__

// 1346
//__Wait! What about all my other questions?__
__Зажди! А як щодо інших моїх питань?__

// 1347
//__“I am the Sorting Hat. I Sort children. That is all I do.”__
-- __Я Сортувальний Капелюх. Я сортую дітей. Це все, що я роблю.__

// 1348
//So his own goals weren’t part of the Harry-instance of the Sorting Hat, then…
//it was borrowing his intelligence, and obviously his technical vocabulary, but
//it was still imbued with only its own strange goals… like negotiating with an
//alien or an Artificial Intelligence…
Отже його власні цілі не були частиною псевдо-Гаррі в Сортувальному
Капелюсі, тоді... Він позичав інтелект Гаррі і, явно, його технічний словниковий
запас, проте все одно був сповнений лише власних дивних цілей... Все
одно, що вести перемовини з прибульцями чи штучним інтелектом...

// 1349
//__“Don’t bother. You have nothing to threaten me with and nothing to
//offer me.”__
-- __Навіть не намагайся. Тобі немає чим мені загрожувати й немає що мені
запропонувати.__

// 1350
//For a brief flash of a second, Harry thought -
На дрібну частку секунди Гаррі подумав...

// 1351
//The Hat’s response was amused. __“I know you won’t follow through on a
//threat to expose my nature, condemning this event to eternal repetition. It
//goes against the moral part of you too strongly, whatever the short-term needs
//of the part of you that wants to win the argument. I see all your thoughts as
//they form, do you truly think you can bluff me?”__
Капелюх весело й самовдоволено відповів.

-- __Я знаю, що ти не дотримаєшся своїх загроз розкрити мою природу, прирікаючи
цю подію на нескінченне повторення. Це надто проти твоєї моральної частини, хай якими
є короткострокові потреби тієї частини тебе, що хоче перемогти. Я бачу всі твої думки
під час їхнього створення, невже ти гадаєш, що зі мною вийде блефувати?__

// 1352
//Though he tried to suppress it, Harry wondered why the Hat didn’t just go ahead
//then and stick him in Ravenclaw -
Хоч Гаррі й намагався себе зупинити, проте не міг не задуматися, чому Капелюх
просто не відправляв його одразу до Рейвенклову...

// 1353
//__“Indeed, if it were truly that open-and-shut, I would have called it
//out already. But in actuality there is a great deal we need to discuss… oh, no.
//Please don’t. For the love of Merlin, __must__ you pull this sort of thing
//on everyone and everything that you meet up to and including items of clothing
//-”__
-- __Дійсно, якби все було так просто, я б вже вигукнув це. Проте насправді нам
треба купу всього обговорити... О ні. Будь ласка, не роби цього. Заради Мерліна,
невже __конче треба__ таке виробляти з усіма й усім, що тобі зустрічається,
включно з елементами одягу...__

// 1354
//__Defeating the Dark Lord is neither selfish nor short-term. All the
//parts of my mind are in accord on this: If you don’t answer my questions, I’ll
//refuse to talk to you, and you won’t be able to do a good and proper Sorting.__
__Завдати поразки Темному Лордові -- це ані егоїстично, ані короткостроково.
Усі частини мого розуму зійшлися на наступному: якщо ти не відповіси на мої
питання, то я відмовлюся з тобою розмовляти, і відповідно ти не зможеш добре й
правильно відсортувати.__

// 1355
//__“I ought to put you in Slytherin for that!”__
-- __Я маю відправити тебе за це до Слизерину!__

// 1356
//__But that is __equally__ an empty threat. You cannot fulfill your
//own fundamental values by Sorting me falsely. So let us trade fulfillments of
//our utility functions.__
__Але це __не менш__ пуста загроза. Ти не можеш досягти своєї фундаментальної
мети, якщо помилково мене відсортуєш. Отже обміняймося здійсненням наших
функцій корисності.__

// 1357
//__“You sly little bastard,”__ said the Hat, in what Harry recognized as
//almost exactly the same tone of grudging respect __he__ would use in the
//same situation. “__Fine, let’s get this over with as quickly as possible.
//But first I want your unconditional promise never to discuss with anyone else
//the possibility of this sort of blackmail, I am NOT doing this every time.”__
-- __От ти хитрий маленький покидьок,__ -- сказав Капелюх саме таким тоном
скупої поваги, який використав би __він сам__ у такій ситуації. -- __Гаразд,
покінчімо з цим якомога скоріше. Проте спершу мені потрібна беззастережна
обіцянка, що ти ніколи не обговорюватимеш із будь-ким можливість подібного
шантажу, я НЕ робитиму цього щоразу.__

// 1358
//__Done,__ Harry thought. __I promise.__
__Домовилися,__ подумав Гаррі. __Я обіцяю.__

// 1359
//__“And don’t meet anyone’s eyes while you’re thinking about this later.
//Some wizards can read your thoughts if you do. Anyway, I have no idea whether
//or not you’ve been Obliviated. I’m looking at your thoughts as they form, not
//reading out your whole memory and analyzing it for inconsistencies in a
//fraction of second. I’m a hat, not a god. And I cannot and will not tell you
//about my conversation with the one who became the Dark Lord. I can only
//__know,__ while speaking to you, a statistical summary of what I remember,
//a weighted average; I __cannot__ reveal to you the inner secrets of any
//other child, just as I will never reveal yours. For the same reason, I can’t
//speculate on how you got the Dark Lord’s brother wand, since I cannot
//specifically know about the Dark Lord or any similarities between you. I
//__can__ tell you that there is definitely nothing like a ghost - mind,
//intelligence, memory, personality, or feelings - in your scar. Otherwise it
//would be participating in this conversation, being under my brim. And as to the
//way you get angry sometimes… that was part of what I wanted to talk to you
//about, Sorting-wise.”__
-- __І не дивися нікому в очі, коли згадуватимеш про це. Деякі чарівники вміють
так читати твої думки. Хай там як, я гадки не маю, забуттятили тебе чи ні. Я
дивлюся на твої думки під час формування, а не читаю всю твою памʼять і
аналізую її на невідповідності за частку секунди. Я капелюх, а не якийсь бог. І
я не можу сказати й не скажу тобі про мою розмову з тим, хто став Темним
Лордом. Я можу __знати__ лише статистичний підсумок усього, що памʼятаю,
зважене середнє, доки з тобою розмовляю. Я __не можу__ розкрити тобі таємниці
будь-якої іншої дитини, так само, як ніколи не зможу розкрити твої. З цієї ж
причини я не можу спекулювати щодо того, як ти отримав сестру палички Темного
Лорда, адже я не можу знати щось конкретне про Темного Лорда чи про будь-які
схожості між вами.  Я __можу__ сказати тобі, що тут точно немає нічого схожого
на привидів -- розуму, інтелекту, памʼяті, особистості чи почуттів -- у твоєму
шрамі. Інакше воно брало б участь у цій бесіді, адже було б під моїми
крисами. А щодо того, що ти подеколи злий... Про це серед іншого я хотів з
тобою поговорити заради сортування.__

// 1360
//Harry took a moment to absorb all this negative information. Was the Hat being
//honest, or just trying to present the __shortest__ possible convincing
//answer -
Гаррі мить обробляв усю цю негативну інформацію. Чи був Капелюх чесним, чи
просто намагався надати __найкоротшу__ з можливих переконливих відповідей...

// 1361
//“__We both know that you have no way of checking my honesty and that
//you’re not actually going to refuse to be Sorted based on the reply I did give
//you, so stop your pointless fretting and move on.”__
-- __Ми обидва знаємо, що в тебе немає можливості перевірити мою чесність,
і що ти не збираєшся насправді відмовитися від сортування через відповідь, що
я тобі надав, отже облиш безґлузде хвилювання й перейдімо до справи.__

// 1362
//Stupid unfair asymmetric telepathy, it wasn’t even letting Harry finish
//thinking his own -
Дурна несправедлива асиметрична телепатія, він же навіть не дозволяв Гаррі
завершувати власні...

// 1363
//__“When I spoke of your anger, you remembered how Professor McGonagall
//told you that she sometimes saw something inside you that didn’t seem to come
//from a loving family. You thought of how Hermione, after you returned from
//helping Neville, told you that you had seemed ‘scary’.”__
-- __Коли я говорив про твою злість, ти згадав, як професорка Макґонеґел
повідомила тобі, що вона інколи бачила щось у тобі, що нібито не могло
виникнути у люблячій родині. Ти подумав про те, як Герміона, після того, як ти
допоміг Невілові, сказала тобі, що ти здавався "`страшним`".__

// 1364
//Harry gave a mental nod. To himself, he seemed pretty normal - just responding
//to the situations in which he found himself, that was all. But Professor
//McGonagall seemed to think that there was more to it than that. And when he
//thought about it, even he had to admit that…
Гаррі подумки кивнув. Сам собі він здавався доволі нормальним -- просто
реагував на ситуації, в яких він опинявся, ось і все. Але професорка
Макґонеґел, здається, гадала, що це далеко не все. І коли він про це думав,
він мав визнати, що...

// 1365
//__“That you don’t like yourself when you’re angry. That it is like
//wielding a sword whose hilt is sharp enough to draw blood from your hand, or
//looking at the world through a monocle of ice that freezes your eye even as it
//sharpens your vision.”__
-- __Що ти сам собі не подобаєшся, коли злишся. Це ніби тримати меч, що в нього
ефес достатньо гострий, щоб втягувати кров з твоєї руки, чи дивитися на світ
через монокль з льоду, що заморожує твоє око, хоч і загострює твій зір.__

// 1366
//__Yeah. I guess I have noticed. So what’s up with that?__
__Ага. Здається, я це помітив. Так що це все таке?__

// 1367
//__“I cannot comprehend this matter for you, when you do not understand it
//yourself. But I do know this: If you go to Ravenclaw or Slytherin, it will
//strengthen your coldness. If you go to Hufflepuff or Gryffindor, it will
//strengthen your warmth. THAT is something I care about a great deal, and it was
//what I wanted to talk to you about this whole time!”__
-- __Я не можу пояснити тобі щось, чого ти й сам не розумієш. Проте ось що я
знаю: якщо ти підеш до Рейвенклову чи Слизерину, то це посилить цей холод у
тобі. Якщо ж ти підеш до Гафелпафу чи Ґрифіндору, то це посилить тепло в тобі.
ОСЬ що мене дуже хвилює, і саме це я хотів з тобою обговорити з самого
початку!__

// 1368
//The words dropped into Harry’s thought processes with a shock that stopped him
//in his tracks. That made it sound like the obvious response was that he
//shouldn’t go to Ravenclaw. But he __belonged__ in Ravenclaw!
//__Anyone__ could see that! He __had__ to go to Ravenclaw!
Слова гепнулися посеред процесів думок з таким струсом, що він закляк. Це
звучало, ніби очевидною відповіддю було те, що він не міг піти до Рейвенклову.
Проте він __належав__ Рейвенклову! __Будь-хто__ бачив це! Він __мав__ піти до
Рейвенклову!

// 1369
//__“No, you don’t,”__ the Hat said patiently, as if it could remember a
//statistical summary of __this__ part of the conversation having happened a
//great many previous times.
-- __Ні, не маєш,__ -- терпляче сказав Капелюх, ніби міг памʼятати статистичний
підсумок __цієї__ частини розмов, що мали місце вже величезну кількість разів.

// 1370
//__Hermione’s in Ravenclaw!__
__Герміона в Рейвенклові!__

// 1371
//Again the sense of patience. __“You can meet her after lessons and work
//with her then.”__
Знову відчуття терплячості.

-- __Ти можеш бути з нею після занять і працювати разом з нею тоді.__

// 1372
//__But my plans -__
__Проте мої плани...__

// 1373
//__“So replan! Don’t let your life be steered by your reluctance to do a
//little extra thinking. You __know__ that.”__
-- __То переплануй! Не дозволяй, щоб небажання трошки додатково подумати
керувало твоїм життям. Ти __знаєш__ це.__

// 1374
//__Where would I go, if not Ravenclaw?__
__Куди ж я піду, якщо не до Рейвенклову?__

// 1375
//__“Ahem. ‘Clever kids in Ravenclaw, evil kids in Slytherin, wannabe
//heroes in Gryffindor, and everyone who does the actual work in Hufflepuff.’
//This indicates a certain amount of respect. You are well aware that
//Conscientiousness is just about as important as raw intelligence in determining
//life outcomes, you think you will be extremely loyal to your friends if you
//ever have some, you are not frightened by the expectation that your chosen
//scientific problems may take decades to solve -”__
// Цитування з 1285
-- __Кхем. "`Кмітливі діти до Рейвенклову, злі діти до Слизерину, ті, хто
мріють стати героями, -- до Ґрифіндору, а всі, хто справді працює, йдуть до
Гафелпафу.`" Це свідчить про деяку повагу. Ти чудово знаєш, що сумлінність грає
не менш важливу за інтелект роль у тому, як складається життя, ти гадаєш, що
будеш надзвичайно вірний друзям, якщо вони в тебе колись будуть, тебе не лякає,
що за твоїми оцінками вибрані тобою наукові проблеми потребуватимуть десятиріч
на розвʼязання...__

// 1376
//__I’m lazy! I hate work! Hate hard work in all its forms! Clever
//shortcuts, that’s all I’m about!__
__ Я ледащий! Я ненавиджу працювати! Ненавиджу важку працю в усіх формах!
Хитрі короткі шляхи -- у цьому весь я!__

// 1377
//__“And you would find loyalty and friendship in Hufflepuff, a camaraderie
//that you have never had before. You would find that you could rely on others,
//and that would heal something inside you that is broken.”__
-- __І ти знайдеш дружбу й вірність у Гафелпафі, товаришування, якого в тебе
ніколи не було. Ти зрозумієш, що можеш покладатися на інших, і це зцілить те
щось всередині тебе, що зламано.__

// 1378
//Again it was a shock. __But what would the Hufflepuffs find in
//__me__, who never belonged in their House? Acid words, cutting wit,
//disdain for their inability to keep up with me?__
Це знову було шоком.

__Але що знайдуть гафелпафці в __мені__, у тому, хто ніколи не належав до
їхнього гуртожитку? Уїдливі слова, гостру кмітливість, зневагу до того, що вони
не в змозі бути мені суперниками?__

// 1379
//Now it was the Hat’s thoughts that were slow, hesitant. __“I must Sort
//for the good of all the students in all the Houses… but I think you could learn
//to be a good Hufflepuff, and not too out of place there. You will be happier in
//Hufflepuff than in any other house; that is the truth.”__
Тепер вже думки Капелюха були повільними, нерішучими.

-- __Я маю сортувати заради всіх учнів усіх гуртожитків... проте я гадаю, що ти
можеш навчитися бути гарним гафелпафцем і не бути там дуже білим граком. Ти
будеш щасливішим у Гафелпафі, ніж у інших гуртожитках; це правда.__

// 1380
//__Happiness is not the most important thing in the world to me. I would
//not become all that I could be, in Hufflepuff. I would sacrifice my potential.__
__Щастя для мене не є найважливішим у світі. Я не стану тим, ким міг би стати,
у Гафелпафі. Я пожертвую своїм потенціалом.__

// 1381
//The Hat flinched; Harry could feel it somehow. It was like he had kicked the
//hat in the balls - in a strongly weighted component of its utility function.
Капелюх здригнувся; Гаррі якимось чином це відчув. Ніби він вдарив капелюх по
яйцях -- у дуже вагому частину його функції корисності.

// 1382
//__Why are you trying to send me where I do not belong?__
__Чому ти намагаєшся відправити мене туди, де мені не місце?__

// 1383
//The Hat’s thought was almost a whisper. __“I cannot speak of the others
//to you - but do you think that you are the first potential Dark Lord to pass
//under my brim? I cannot know the individual cases, but I can know this: Of
//those who did not intend evil from the very beginning, some of them listened to
//my warnings, and went to Houses where they would find happiness. And some of
//them… some of them did not.”__
Думка Капелюха була майже шепотом.

-- __Я не можу розмовляти про інших з тобою -- але невже ти гадаєш, що ти
перший потенційний Темний Лорд, що пройшов під моїми крисами? Я не можу знати
окремих випадків, проте я знаю це: з тих, хто не збирався коїти зло з
самісінького початку, деякі послухали моє попередження й пішли до гуртожитків,
де вони змогли знайти щастя. А деякі з них... деякі з них ні.__

// 1384
//That stopped Harry. But not for long. __And of those who did__ not__
//heed the warning - did they __all__ become Dark Lords? Or did some of them
//achieve greatness for good, as well? Just what are the exact percentages here?__
Це зупинило Гаррі. Проте ненадовго.

__А з усіх хто __не звернув__ уваги на попередження -- чи __всі__ вони стали
Темними Лордами? Чи дехто з них все ж таки досяг величі заради добра? Можеш
просто надати точні відсотки?__

// 1385
//__“I cannot give you exact statistics. I cannot know them so I cannot
//count them. I just know that your chances don’t feel good. They feel
//__very__ not-good.”__
-- __У мене немає точної статистики. Я не можу знати їх, отже не можу
перерахувати їх. Я лише знаю, що в тебе шанси не дуже. Відчуваю, що вони
__зовсім__ не дуже.__

// 1386
//__But I just wouldn’t do that! Ever!__
__Але ж я просто не робитиму такого! Ніколи!__

// 1387
//__“I know that I have heard that claim before.”__
-- __Я знаю, що вже чув такі заяви раніше.__

// 1388
//__I am not Dark Lord material!__
__Такі, як я, не стають Темними Лордами!__

// 1389
//__“Yes, you are. You really, __really__ are.”__
-- __Ох, стають. __Ще й як__ стають.__

// 1390
//__Why? Just because I once thought it would be cool to have a legion of
//brainwashed followers chanting ‘Hail the Dark Lord Harry’?__
__Чому? Лише через те, що я якось подумав, що було б класно мати легіон
послідовників з промитими мізками, що декламують "`Слава Темному Лордові
Гаррі`"?__

// 1391
//__“Amusing, but that was not your first fleeting thought before you
//substituted something safer, less damaging. No, what you remembered was how you
//considered lining up all the blood purists and guillotining them. And now you
//are telling yourself you were not serious, but you were. If you could do it
//this very moment and no one would ever know, you would. Or what you did this
//morning to Neville Longbottom, deep inside you __knew__ that was wrong but
//you did it __anyway__ because it was __fun__ and you had a __good
//excuse__ and you thought the Boy-Who-Lived could __get away__ with
//it -”__
-- __Забавно, проте не це тобі одразу спало на гадку, перед тим як ти його
підмінив на щось безпечніше, менш руйнівне. Ні, ти згадав, як ти розглядав
можливість виставити всіх прихильників чистої крові й стратити їх усіх через
повішення. А тепер ти намагаєшся себе переконати, що ти не серйозно, проте це
неправда. Якби ти міг зробити це в цю мить так, щоб ніхто про це не
дізнався, ти б зробив це. Чи те, що ти зробив зранку з Невілом Лонґботомом,
глибоко всередині ти __знав__, що це було неправильно, проте __все одно__ зробив
це, адже це було __весело__ і в тебе було __гарне виправдання__, і ти гадав, що
Хлопчикові-Що-Вижив таке __зійде з рук__...__

// 1392
//__That’s unfair! Now you’re just dragging up inner fears that
//__aren’t__ necessarily real! I __worried__ that I __might__ be
//thinking like that, but in the end I decided it would probably __work__ to
//help Neville -__
__Це нечесно! Тепер ти просто витягаєш мої внутрішні страхи, що не
обовʼязково __справжні__! Я __хвилювався__, що __можливо__ мною це керувало, проте
зрештою я вирішив, що це напевно __спрацює__, щоб допомогти Невілові...__

// 1393
//__“That was, in fact, a rationalisation. I know. I cannot know what the
//true outcome will be for Neville - but I know what was truly happening inside
//your head. The decisive pressure was that it was such a clever idea you
//couldn’t stand __not__ to do it, never mind Neville’s terror.”__
-- __Насправді це була раціоналізація. Я знаю. Я не можу знати, якими будуть
справжні наслідки для Невіла -- але я знаю, що насправді коїлося у твоїй
голові. Вирішальним стимулом було те, що це було такою гарною думкою, і ти ніяк
не міг __не втілити__ її, і начхати на нажаханого Невіла.__

// 1394
//It was like a hard punch to Harry’s entire self. He fell back, rallied:
Для внутрішнього я Гаррі це був сильний удар. Він відступив і змінив тактику:

// 1395
//__Then I won’t do that again! I’ll be extra careful not to turn evil!__
__Тоді я такого більше не робитиму! Я буду надмірно обережним, щоб не стати
злом!__

// 1396
//__“Heard it.”__
-- __Чував таке.__

// 1397
//Frustration was building up inside Harry. He wasn’t used to being outgunned in
//arguments, at all, ever, let alone by a Hat that could borrow all of his own
//knowledge and intelligence to argue with him and could watch his thoughts as
//they formed. __Just what kind of statistical summary do your ‘feelings’
//come from, anyway? Do they take into account that I come from an Enlightenment
//culture, or were these other potential Dark Lords the children of spoiled Dark
//Age nobility, who didn’t know squat about the historical lessons of how Lenin
//and Hitler actually turned out, or about the evolutionary psychology of
//self-delusion, or the value of self-awareness and rationality, or -__
Роздратування Гаррі дедалі сильнішало. Він не звик бути слабшим у суперечках,
взагалі, ніколи, тим паче з Капелюхом, що міг позичити всі його знання й
інтелект, щоб сперечатися з ним, а також міг дивитися на його думки під час
формування. __А на яких саме статистичних підсумках твоє "`відчуття`"
базується? Воно враховує, що я виріс у культурі Просвітництва, чи що ці інші
потенційні Темні Лорди були дітьми зіпсованої шляхти темного середньовіччя, які
нічогісінько не знали про історичні уроки того, ким виявилися Ленін чи Гітлер
насправді, про еволюційну психологію самоомани, про значення усвідомлення себе
й раціональності, про...__

// 1398
//__“No, of course they were not in this new reference class which you have
//just now constructed in such a way as to contain only yourself. And of course
//others have pleaded their own exceptionalism, just as you are doing now. But
//why is it necessary? Do you think that you are the last potential wizard of
//Light in the world? Why must __you__ be the one to try for greatness, when
//I have advised you that you are riskier than average? Let some other, safer
//candidate try!”__
-- __Ні, звісно вони не були в цій новій референтній групі, що ти її щойно
визначив таким чином, щоб у ній був лише ти сам. І звісно інші також
виправдовувалися тим, що вони унікальні, так, як це робиш зараз ти. Але чому ти
вважаєш це потрібним? Ти гадаєш, що ти єдиний потенційний чарівник Світла у
всесвіті? Чому саме __ти__ маєш шукати величі, хоча я повідомив тебе, що з
тобою ризик більший, ніж у середньому? Дозволь якомусь іншому, безпечнішому
кандидату спробувати!__

// 1399
//__But the prophecy…__
__Але ж пророцтво...__

// 1400
//__“You don’t really know that there’s a prophecy. It was originally a
//wild guess on your part, or to be more precise, a wild joke, and McGonagall
//could have been reacting __only__ to the part about the Dark Lord still
//being alive. You have essentially no idea of what the prophecy says or even if
//there __is__ one. You’re just speculating, or to put it more exactly,
//__wishing __that you have some ready-made heroic role that is your
//personal property.”__
-- __Насправді ти не знаєш, чи існує пророцтво. Спочатку це був лише твій
безпідставний здогад, чи, ще точніше, просто жарт, і реакція Макґонеґел могла
стосуватися __лише__ того, що Темний Лорд досі живий. Ти гадки не маєш, що каже
пророцтво, і навіть чи __існує__ воно. Це лише твої припущення, а насправді
__бажання__, щоб існував якийсь готовий героїчний шлях особисто для тебе.__

// 1401
//__But even if there is no prophecy, I’m the one who defeated him last
//time.__
__Але навіть якщо пророцтва не існує, це я його переміг минулого разу.__

// 1402
//__“That was almost certainly a wild fluke unless you seriously believe
//that a one-year-old child had an inherent propensity to defeat Dark Lords which
//has been maintained ten years later. None of this is your real reason and __you
//know it!”
-- __Це майже напевно був щасливий випадок, хіба ти дійсно віриш, що однорічна
дитина мала природжену схильність до перемоги над Темними Лордами і не
втратила її протягом десяти років. Ніщо з цього не є справжньою причиною, і
__ти знаєш це!

// 1403
//The answer to this was something that Harry would not regularly have said out
//loud, in conversation he would have danced around it and found some more
//socially palatable arguments to the same conclusion -
Гаррі ніколи б не надав відповідь на це вголос, у звичайній розмові він ходив
би околясом і знайшов би якісь більш соціально приємні аргументи, щоб
переконати в цьому...

// 1404
//__“You think that you are potentially the greatest who has yet lived, the
//strongest servant of the Light, that no other is likely to take up your wand if
//you lay it down.”__
-- __Ти гадаєш, що ти потенційно найвеличніший з усіх, хто колись жив,
найсильніший слуга Світла, що ніхто більше не зможе підняти твою паличку, коли
ти її залишиш.__

// 1405
//__Well… yeah, frankly. I don’t usually come out and say it like that, but
//yeah. No point in softening it, you can read my mind anyway.__
__Ну... так, якщо відверто. Зазвичай я не формулюю це таким чином, проте так.
Немає сенсу помʼякшувати, все одно ти читаєш мої думки.__

// 1406
//__“To the extent you really believe that… you must equally believe that
//you could be the most terrible Dark Lord the world has ever known.”__
-- __Не менш, ніж ти віриш у це... ти маєш так само вірити, що ти можеш стати
найжахливішим Темним Лордом усіх часів.__

// 1407
//__Destruction is always easier than creation. Easier to tear things
//apart, to disrupt, than to put them back together again. If I have the
//potential to accomplish good on a massive scale, I must also have the potential
//to accomplish still greater evil… But I won’t do that.__
__Руйнувати завжди легше, ніж створювати. Легше роздирати речі, нищити, ніж
лагодити рештки потім. Якщо в мене є потенціал досягти чогось чудового
масштабно, то в мене має бути також потенціал досягти ще більшого зла... Але я
не робитиму цього.__

// 1408
//__“Already you insist on risking it! Why are you so driven? What is the
//real reason you must not go to Hufflepuff and __be happier__ there? What
//is your true fear?”__
-- __Ти вже наполягаєш на тому, щоб ризикнути! Чому ти так наполягаєш? Яка
справжня причина, чому ти не можеш піти до Гафелпафу й бути __щасливішим__ там?
Чого ти боїшся насправді?__

// 1409
//__I must achieve my full potential. If I don’t I… fail…__
__Я маю сягнути свого повного потенціалу. Якщо не зможу, то... це буде
поразка...__

// 1410
//__“What happens if you fail?”__
-- __Що станеться, якщо ти зазнаєш поразки?__

// 1411
//__Something terrible…__
__Щось жахливе...__

// 1412
//__“What happens if you fail?”__
-- __Що станеться, якщо ти зазнаєш поразки?__

// 1413
//__I don’t know!__
__Я не знаю!__

// 1414
//__“Then it should not be frightening. What happens if you fail?”__
-- __Тоді це не має так тебе лякати. Що станеться, якщо ти зазнаєш поразки?__

// 1415
//__I DON’T KNOW! BUT I KNOW THAT IT’S BAD!__
__Я НЕ ЗНАЮ! АЛЕ Я ЗНАЮ, ЩО ЩОСЬ ПОГАНЕ!__

// 1416
//There was silence for a moment in the caverns of Harry’s mind.
На мить у всіх закутках розуму Гаррі запала тиша.

// 1417
//__“You know - you aren’t letting yourself think it, but in some quiet
//corner of your mind you know just exactly __what__ you aren’t thinking -
//you __know __that by far the simplest explanation for this unverbalisable
//fear of yours is just the fear of losing your fantasy of greatness, of
//disappointing the people who believe in you, of turning out to be pretty much
//ordinary, of flashing and fading like so many other child prodigies…”__
-- __Знаєш, ти не дозволяєш собі подумати це, проте в якійсь тихій глибині
розуму ти чудово знаєш, про __що__ ти не думаєш, -- ти __знаєш__, що наразі
найпростішим поясненням цього твого страху, що його не можна описати, є просто
страх втратити мрію про велич, розчарувати людей, що вірять в тебе, виявитися
доволі таки звичайним, спалахнути й згаснути, як багато інших вундеркіндів...__

// 1418
//__No,__ Harry thought desperately, __no, it’s something more, it
//comes from somewhere else, I know there’s something out there to be afraid of,
//some disaster I have to stop…__
__Ні,__ у відчаї подумав Гаррі, __ні, є щось іще, деінде, я знаю, що я боюся
чогось, якоїсь катастрофи, яку я мушу зупинити...__

// 1419
//__“How could you possibly know about something like that?”__
-- __Як ти бодай теоретично можеш знати про щось таке?__

// 1420
//Harry screamed it with the full power of his mind: __NO, AND THAT’S
//FINAL!__
Гаррі закричав на всі заставки свого розуму: __НІ, І ЦЕ ОСТАТОЧНО!__

// 1421
//Then the voice of the Sorting Hat came slowly:
Потім повільно почувся голос Сортувального Капелюха:

// 1422
//__“So you will risk becoming a Dark Lord, because the alternative, to
//you, is certain failure, and that failure means the loss of everything. You
//believe that in your heart of hearts. You know all the reasons for doubting
//this belief, and they have failed to move you.”__
-- __Отже ти ризикнеш стати Темним Лордом, адже альтернативою для тебе є якась
поразка, і ця поразка означатиме втратити все. Ти віриш у це в глибині душі. Ти
знаєш усі причини, щоб не довіряти цьому, але вони не вплинули на тебе.__

// 1423
//__Yes. And even if going to Ravenclaw __strengthens__ the coldness,
//that doesn’t mean the coldness will __win__ in the end.__
__Так. І навіть якщо Рейвенклов __посилить__ холод у мені, це не означає, що
холод __виграє__ зрештою.__

// 1424
//__“This day is a great fork in your destiny. Don’t be so sure that there
//will be other choices beyond this one. There is no road-sign set, to mark the
//place of your __last__ chance to turn back. If you refuse one chance will
//you not refuse others? It may be that your fate is already sealed, even by
//doing this one thing.”__
-- __Цей день є важливим роздоріжжям твоєї долі. Не варто бути таким упевненим,
що в тебе буде можливість приймати інші рішення, крім цього. Не існує
дорожнього знака, щоб позначити твій __останній__ шанс звернути. Якщо ти
відмовишся від однієї можливості, чи не відмовишся ти від інших? Цілком може
бути, що твою долю вже вирішено, якщо ти зробиш лише це.__

// 1425
//__But that is not certain.__
__Але це не відомо напевно.__

// 1426
//__“That __you__ do not __know__ it for a certainty may reflect
//only __your__ own ignorance.”__
-- __Те, що __ти__ не __знаєш__ цього напевно, це лише ознака __твого__
власного невігластва.__

// 1427
//__But still it is not certain.__
__Але все одно це не відомо напевно.__

// 1428
//The Hat sighed a terrible sad sigh.
Капелюх зітхнув жахливим сумним зітханням.

// 1429
//__“And so before too long you will become another memory, to be felt and
//never known, in the next warning that I give…”__
-- __І невдовзі ти станеш лише черговим спогадом, який я зможу відчувати, проте
не знати, у наступному моєму попередженні...__

// 1430
//__If that’s how it seems to you, then why aren’t you just
//__putting__ me where you want me to go?__
__Якщо тобі так здається, то чому ти мене просто не __відправиш__ туди, куди
хочеш ти?__

// 1431
//The Hat’s thought was laced with sorrow. __“I can only put you where you
//belong. And only your own decisions can change where you belong.”__
Думки Капелюха були сповнені розпачу.

-- __Я можу відправити тебе лише туди, де тобі місце. І лише твої рішення
можуть змінити те, де тобі місце.__

// 1432
//__Then this is done. Send me to Ravenclaw where I belong, with the others
//of my own kind.__
__Тоді все. Відправляй мене до Рейвенклову, де мені й місце, з іншими такими,
як я.__

// 1433
//__“I don’t suppose you would consider Gryffindor? It’s the most
//prestigious House - people probably expect it of you, even - they’ll be a
//little disappointed if you don’t go - and your new friends the Weasley twins
//are there -”__
-- __Гадаю, ти не розглянеш Ґрифіндор? Це найпрестижніший гуртожиток -- люди
напевно очікуватимуть цього від тебе, навіть будуть трохи розчаровані, якщо ти
не підеш туди, і твої нові друзі, близнюки Візлі, там...__

// 1434
//Harry giggled, or felt the impulse to do so; it came out as purely mental
//laughter, an odd sensation. Apparently there were safeguards to prevent you
//from saying anything out loud by accident, while you were under the Hat talking
//about things you would never tell another soul for the rest of your life.
Гаррі хихикнув, чи відчув імпульс це зробити; вийшов суто ментальний сміх --
дивне відчуття. Очевидно, були якісь запобіжники, щоб ти не міг сказати чогось
вголос випадково, коли ти під Капелюхом обговорюєш речі, про які ніколи б не
розказав іншій живій душі ніколи в житті.

// 1435
//After a moment, Harry heard the Hat laughing too, a strange sad clothy sound.
За мить Гаррі почув і сміх Капелюха, дивний сумний тканинний звук.

// 1436
//(And in the Hall beyond, a silence that had grown shallower at first as the
//background whispers increased, and then deepened as the whispers gave up and
//died away, falling finally into an utter silence that no one dared disturb with
//a single word, as Harry stayed under the Hat for long, long minutes, longer
//than all the previous first-years put together, longer than anyone in living
//memory. At the Head Table, Dumbledore went on smiling benignly; small metallic
//sounds occasionally came from Snape’s direction as he idly compacted the
//twisted remains of what had once been a heavy silver wine goblet; and Minerva
//McGonagall clenched the podium in a white-knuckled grip, knowing that Harry
//Potter’s contagious chaos had somehow infected the Sorting Hat itself and the
//Hat was about to, to demand that a whole new House of Doom be created just to
//accomodate Harry Potter or something, and __Dumbledore would make her do
//it__…)
// @ House of Doom
(А в Залі поза крисами тиша спочатку завагалася, коли посилилися перешіптування
на фоні, але потім упевнилася, коли перешіптування вщухли, і нарешті цілковито
запанувала: ніхто не наважувався вимовити бодай слово, доки Гаррі сидів під
Капелюхом довгі, довгі хвилини, довше, ніж усі попередні першачки разом, довше,
ніж всі, кого памʼятали нині живі. За головним столом Дамблдор продовжував
лагідно всміхатися; тихі металеві звуки подеколи чулися з боку Снейпа, коли
той бездумно стискав і скручував рештки того, що колись було важким срібним
винним келихом; а Мінерва Макґонеґел вчепилася в подіум побілілими пальцями,
знаючи, що заразний хаос Гаррі Поттера якимось чином охопив сам Сортувальний
Капелюх, і той от-от скаже...  скаже створити новий окремий гуртожиток Долі
лише для Гаррі Поттера чи щось таке, і __Дамблдор змусить її це зробити__...)

// 1437
//Beneath the brim of the Hat, the silent laughter died away. Harry felt sad too
//for some reason. No, not Gryffindor.
Під крисами Капелюха тихий сміх припинився. Гаррі чомусь теж відчув сум. Ні, не
Ґрифіндор.

// 1438
//__Professor McGonagall said that if ‘the one who did the Sorting’ tried
//to push me into Gryffindor, I was to remind you that she might well be
//Headmistress someday, at which point she would have the authority to set you on
//fire.__
__Професорка Макґонеґел сказала мені, що як "`той, хто сортуватиме`" спробує
відправити мене до Ґрифіндору, то я маю нагадати тобі, що вона може стати
колись директоркою, і тоді в неї будуть повноваження спалити тебе.__

// 1439
//__“Tell her I called her an impudent youngster and told her to get off my
//lawn.”__
// hedrok: копії у 12:1609 та 61:10556
-- __Передай їй, що я назвав її нахабною юначкою і сказав їй не пхатися в мої
справи.__

// 1440
//__I shall. So was this your strangest conversation ever?__
__Передам. То чи було це найдивнішою з усіх твоїх розмов?__

// 1441
//__“Not even close.” __The Hat’s telepathic voice grew heavy.__
//“Well, I gave you every possible chance to make another decision. Now it is
//time for you to go where you belong, with the others of your own kind.”__
// @ grew heavy
-- __Навіть і не близько__, -- телепатичний голос Капелюха став серйознішим. --
__Ну що ж, я дав тобі всі можливі шанси прийняти інше рішення. Тепер тобі час
іти туди, де тобі місце, до інших таких, як ти.__

// 1442
//There was a pause that stretched.
Пауза затягнулася.

// 1443
//__What are you waiting for?__
__Чого ти чекаєш?__

// 1444
//__“I was hoping for a moment of horrified realisation, actually.
//Self-awareness does seem to enhance my sense of humor.”__
-- __Насправді, я сподівався на мить жахливого усвідомлення. Свідомість,
здається, посилює моє почуття гумору.__

// 1445
//__Huh?__ Harry cast back his thoughts, trying to figure out what the Hat
//could possibly be talking about - and then, suddenly, he realised. He couldn’t
//believe he’d managed to overlook it up until this point.
__Гм?__ надіслав у відповідь свою думку Гаррі, намагаючись збагнути, що Капелюх
міг мати на увазі, -- а потім, раптом, зрозумів. Як він міг не помічати цього аж
до цієї миті.

// 1446
//__You mean my horrified realisation that you’re going to cease to be
//conscious once you finish Sorting me -__
__Ти про жахливе усвідомлення, що ти припиниш бути свідомим, щойно відсортуєш
мене...__

// 1447
//Somehow, in some fashion Harry entirely failed to understand, he got a
//nonverbal impression of a hat banging its head against the wall. __“I
//give up. You’re too slow on the uptake for this to be funny. So blinded by your
//own assumptions that you might as well be a rock. I suppose I’ll just have to
//say it outright.”__
Якимось невідомим чином, цілковито незбагненним для Гаррі, він отримав
невербальне враження, що капелюх бився головою об стіну.

-- __Я здаюся. Ти надто тупий, щоб це було смішним. Настільки засліплений
власними припущеннями, що з таким саме успіхом міг би бути каменем. Гадаю, я
маю просто це прямо сказати.__

// 1448
//__Too s-s-slow -__
__Надто т-т-тупий?__

// 1449
//__“Oh, and you entirely forgot to demand the secrets of the lost magic
//that created me. And they were such wonderful, important secrets, too.”__
-- __О, і ти цілковито забув вимагати секрети втраченої магії, що створили
мене. А це такі чудові, важливі секрети, до речі.__

// 1450
//__You sly little BASTARD -__
__Хитрий маленький ПОКИДЬОК...__

// 1451
//__“You deserved it, and this as well.”__
-- __Ти заслуговуєш на це, а також на ось це.__

// 1452
//Harry saw it coming just as it was already too late.
Гаррі відчув, що буде далі, але вже було запізно.

// 1453
//The frightened silence of the hall was broken by a single word.
Налякану тишу зали порушило єдине слово.

// 1454
//“SLYTHERIN!”
-- СЛИЗЕРИН!

// 1455
//Some students screamed, the pent-up tension was so great. People startled hard
//enough to fall off their benches. Hagrid gasped in horror, McGonagall staggered
//at the podium, and Snape dropped the remains of his heavy silver goblet
//directly onto his groin.
У залі накопичилося стільки напруги, що дехто аж верескнув від несподіванки.
Кілька людей настільки злякалися, що попадали з лавок. Геґрід скрикнув від
жаху, Макґонеґел захиталася на подіумі, а Снейп упустив рештки свого важкого
срібного келиха прямо собі на пах.

// 1456
//Harry sat there frozen, his life in ruins, feeling the absolute fool, and
//wishing wretchedly that he had made any other choices for any other reasons but
//the ones he had. That he had done something, __anything__ differently
//before it had been too late to turn back.
Гаррі заклякло сидів, його життя зруйноване, він почувався цілковитим дурнем і
нестерпно бажав, щоб він був прийняв будь-які інші рішення з будь-яких інших
причин, ніж ті, що в нього були. Щоб він раніше був зробив щось __що
завгодно__ інакше, доки не було запізно повертати назад.

// 1457
//As the first moment of shock was wearing off and people began to react to the
//news, the Sorting Hat spoke again:
Коли перший шок почав спадати, і люди почали реагувати на новини, Сортувальний
Капелюх знову заговорив:

// 1458
//“Just kidding! RAVENCLAW!”
-- Жартую-жартую! РЕЙВЕНКЛОВ!
