// 2055
//== The Unknown and the Unknowable
// hedrok: тут використано саме unicode символ наголосу, бо інакше виникають
// проблеми з меню чи назвою розділу.
== Розділ 14. Не пі́знане й непізна́нне

// 2056
//Melenkurion abatha! Duroc minas mill J. K. Rowling!
//Ikakok: https://en.wikipedia.org/wiki/The_Chronicles_of_Thomas_Covenant, на укр. не переклали.
Меленкуріон абатха! Дурок мінас міл Дж. К. Ролінґ!

***

// 2057
//__There were mysterious questions, but a mysterious answer was a
//contradiction in terms.__
__Існують загадкові питання, проте загадкова відповідь -- це явне протиріччя.__

***

// 2058
//“Come in,” said Professor McGonagall’s muffled voice.
// Копія 2053
-- Заходьте, -- сказав приглушений голос професорки Макґонеґел.

// 2059
//Harry did so.
Гаррі зайшов.

// 2060
//The office of the Deputy Headmistress was clean and well-organised; on the wall
//immediately adjacent to the desk was a maze of wooden cubbyholes of all shapes
//and sizes, most with several parchment scrolls thrust into them, and it was
//somehow very clear that Professor McGonagall knew exactly what every cubbyhole
//meant, even if no one else did. A single parchment lay on the actual desk,
//which was, aside from that, clean. Behind the desk was a closed door barred
//with several locks.
// Ikakok: про загугліть cubbyholes і гляньте зображення, прямого перекладу не знайшов.
Кабінет заступниці директора був чистим і добре організованим; на стіні одразу поруч
зі столом був цілісінький лабіринт із дерев`'яних комірок-заглиблень усіх форм та розмірів.
Більшість була заповнена сувоями пергаменту, і якимось чином було зрозуміло,
що професорка Макґонеґел чітко знала призначення кожної комірки, навіть якщо
ніхто інший цього не знав. А на самому столі лежав єдиний пергамент і більше нічого.
Позаду столу були двері, зачинені на кілька замків.

// 2061
//Professor McGonagall was sitting on a backless stool behind the desk, looking
//puzzled - her eyes had widened, with perhaps a slight note of apprehension, as
//she saw Harry.
Професорка Макґонеґел сиділа на табуреті за столом, виглядаючи здивовано -- її очі
були розширилися, коли вона побачила Гаррі, і в них з'явилася нотка тривоги.

// 2062
//“Mr. Potter?” said Professor McGonagall. “What is this about?”
-- Містере Поттер? -- сказала професорка Макґонеґел. -- Ви чогось хотіли?

// 2063
//Harry’s mind went blank. He’d been instructed by the game to come here, he had
//been expecting __her__ to have something in mind…
Гаррі остаточно розгубився. Гра скерувала його до кабінету професорки Макґонеґел, він очікував,
що __вона__ буде щось знати...

// 2064
//“Mr. Potter?” said Professor McGonagall, starting to look slightly annoyed.
-- Містере Поттер? -- сказала Макґонеґел, вона починала виглядати трохи роздратовано.

// 2065
//Thankfully, Harry’s panicking brain remembered at this point that he
//__did__ have something he’d been planning to discuss with Professor
//McGonagall. Something important and well worth her time.
На щастя, в цей момент панікуючий мозок Гаррі згадав, що він __мав__ дещо, про що він планував
поговорити з професоркою Макґонеґел. Дещо важливе та точно варте її часу.

// 2066
//“Um…” Harry said. “If there are any spells you can cast to make sure no one’s
//listening to us…”
-- Ем... -- сказав Гаррі. -- Якщо ви можете застосувати якісь закляття, щоб переконатися, що нас
ніхто не підслуховує...

// 2067
//Professor McGonagall stood up from her chair, firmly closed the outer door, and
//began taking out her wand and saying spells.
Професорка Макґонеґел підвелася, щільно зачинила зовнішні двері та, діставши паличку,
почала вимовляти закляття.

// 2068
//It was at this point that Harry realised he was faced with a priceless and
//possibly irreplaceable opportunity to offer Professor McGonagall a Comed-Tea
//and he couldn’t believe he was seriously thinking that and it would be fine the
//soda would vanish after a few seconds and he told that part of himself to
//__shut up.__
І в цей момент Гаррі усвідомив, що зараз перед ним безцінна та, ймовірно, неповторна можливість
запропонувати професорці Макґонеґел пирсконаду, і він не міг повірити, що думає зараз про це, і все буде гаразд --
напій же зникне через кілька секунд, і він наказав тій частині себе __замовкнути.__

// 2069
//It did, and Harry began to organise mentally what he was going to say. He
//hadn’t planned to have this discussion __quite __so soon, but so long as
//he was here…
Вона так і зробила, після чого Гаррі почав ментально впорядковувати все, що він хотів
сказати. Він не планував цієї розмови __настільки__ швидко, але оскільки він вже тут...

// 2070
//Professor McGonagall finished a spell that sounded a lot older than Latin, and
//then she sat down again.
Професорка Макґонеґел завершила промовляти заклинання, яке звучало значно старішим за латину,
після чого знову сіла.

// 2071
//“All right,” she said in a quiet voice. “No one’s listening.” Her face was
//rather tight.
-- Гаразд, -- тихо сказала вона. -- Ніхто не підслуховує.

Її лице було доволі напруженим.

// 2072
//__Oh, right, she’s expecting me to blackmail her for information about
//the prophecy. __
__Ох, точно, вона очікує, що я зараз шантажуватиму її заради інформації про пророцтво.__

// 2073
//Eh, Harry’d get around to that some other day.
Ех, іншим разом.

// 2074
//“It’s about the Incident with the Sorting Hat,” Harry said. (Professor
//McGonagall blinked.) “Um… I think there’s an extra spell on the Sorting Hat,
//something that the Sorting Hat itself doesn’t know about, something that
//triggers when the Sorting Hat says Slytherin. I heard a message that I’m pretty
//sure Ravenclaws aren’t supposed to hear. It came the moment the Sorting Hat was
//off my head and I felt the connection break. It sounded like a hiss and like
//English at the same time,” there was a sharp intake of breath from McGonagall,
//“and it said: Salutations from Slytherin to Slytherin, if you would seek my
//secrets, speak to my snake.”
-- Я хотів поговорити про випадок із Сортувальним Капелюхом, -- сказав Гаррі.
(Професорка Макґонеґел лише кліпнула очима.) -- Мм... Я думаю, на Сортувальному
Капелюсі є інше закляття, щось, про що Сортувальний Капелюх і сам не знає,
щось, що спрацьовує, коли Сортувальний Капелюх каже "`Слизерин`". Я чув послання, яке,
я певен, рейвенкловці не повинні чути. Воно прозвучало в мить, коли Сортувальний Капелюх
більше не був у мене на голові, і я відчув, що зв`'язок перервався. Воно звучало наче
шипіння змії й звичайна мова водночас, -- професорка Макґонеґел глибоко вдихнула.
// послання - копія з 1618 без шипіння
// @ Salutations - Воно має бути унікальним, але не надто дивним, щоб це не кидалося в очі
-- Послання казало: Салют від слизеринця слизеринцю, якщо шукатимеш моїх секретів,
поговори з моєю змією.

// 2075
//Professor McGonagall sat there with her mouth open, staring at Harry as if he’d
//grown another two heads.
Професорка Макґонеґел сиділа з відкритим ротом, витріщаючись на Гаррі, ніби він
відростив собі ще дві голови.

// 2076
//“So…” Professor McGonagall said slowly, as though she couldn’t believe the
//words that were coming out of her own lips, “you decided to come to me right
//away and tell me about it.”
-- Отже... -- повільно вимовила вона, наче й сама не вірила тому, що говорили її уста.
-- Ви одразу вирішили прийти до мене й усе мені розказати.

// 2077
//“Well, yes, of course,” Harry said. There was no need to admit how long it had
//taken him to actually think of that. “As opposed to, say, trying to research it
//myself, or telling any of the other children.”
-- Ну, так, звісно, -- сказав Гаррі. Не було потреби визнавати, скільки часу йому знадобилося,
щоб це придумати. -- На противагу, наприклад, спробі дослідити це самому, чи розказати іншим дітям.

// 2078
//“I… see,” Professor McGonagall said. “And if, perhaps, you were to discover the
//entrance to Salazar Slytherin’s legendary Chamber of Secrets, an entrance that
//you and you alone could open…”
-- Ясно... І якщо, припустимо, ви знайдете вхід до легендарної Таємної кімнати
Салазара Слизерина, вхід, який ви й лише ви можете відкрити...

// 2079
//“I would close the entrance and report to you at once so that a team of
//experienced magical archaeologists could be assembled,” Harry said promptly.
//“Then I would open up the entrance again and they would go in very carefully to
//make sure that there was nothing dangerous. I might go in later to look around,
//or if they needed me to open up something else, but it would be after the area
//had been declared clear and they had photographs of how everything looked
//before people started tromping around their priceless historical site.”
-- Я закрию вхід і одразу повідомлю вас, щоб команда досвідчених чарівників-археологів
мала час на збори, -- не задумуючись відповів Гаррі. -- Тоді я відкрию
вхід знову, щоб вони могли дуже обережно зайти та переконатися, що там немає нічого небезпечного.
Я можу зайти пізніше, щоб роздивитися все, чи якщо їм буде потрібно, щоб я ще щось
відкрив, але лише після того, як територію оголосять безпечною, і пофотографують,
як все виглядало до того, як люди почали вештатися й топтатися по їхній безцінній
історичній пам`'ятці.

// 2080
//Professor McGonagall sat there with her mouth open, staring at him like he’d
//just turned into a cat.
Професорка Макґонеґел сиділа з відкритим ротом, витріщаючись на Гаррі, ніби він
щойно перетворився на кота.

// 2081
//“It’s obvious if you’re not a Gryffindor,” Harry said kindly.
-- Це очевидно, якщо ти не з Ґрифіндору, -- м`'яко сказав Гаррі.

// 2082
//“I think,” Professor McGonagall said in a rather choked voice, “that you
//__far__ underestimate the rarity of common sense, Mr. Potter.”
-- Думаю, ви __занадто__ недооцінюєте рідкісність здорового ґлузду,
містере Поттер, -- сказала професорка Макґонеґел дещо придушеним голосом.

// 2083
//That sounded about right. Although… “A Hufflepuff would’ve said the same
//thing.”
В цьому був сенс. Хоча...

-- Гафелпафець сказав би те саме.

// 2084
//McGonagall paused, struck. “__That’s__ true.”
Макґонеґел вражено завмерла.

-- Це __правда__.

// 2085
//“Sorting Hat offered me Hufflepuff.”
-- Сортувальний Капелюх пропонував мені Гафелпаф.

// 2086
//She blinked at him as though she couldn’t believe her own ears. “Did it
//__really?__”
Вона кліпнула очима у відповідь, наче не могла повірити власним вухам.

-- Він таке пропонував? __Справді?__

// 2087
//“Yes.”
-- Так.

// 2088
//“Mr. Potter,” McGonagall said, and now her voice was low, “five decades ago was
//the last time a student died within the walls of Hogwarts, and I am now certain
//that five decades ago was the last time someone heard that message.”
// hedrok: "five decades ago" 065:11705
-- Містере Поттер, -- сказала Макґонеґел, цього разу тихо, -- п`'ять десятиліть тому
в Гоґвортсі востаннє загинув учень, і тепер я впевнена, що це повідомлення востаннє 
чули п`'ять десятиліть тому.

// 2089
//A chill went through Harry. “Then I will be __very__ sure to take no
//action __whatsoever__ on this matter without consulting you, Professor
//McGonagall.” He paused. “And may I suggest that you get together the best
//people you can find and see if it’s possible to get that extra spell off the
//Sorting Hat… and if you can’t do that, maybe put on __another__ spell, a
//Quietus that briefly activates just as the Hat is being removed from a
//student’s head, that might work as a patch. There, no more dead students.”
//Harry nodded in satisfaction.
У Гаррі побігли мурашки по тілу.

-- Тоді я __справді__ постараюся __нічогісінько__ не робити щодо цього питання без консультації
з вами, професорко Макґонеґел, -- Гаррі зробив невелику паузу.
-- Чи можу я запропонувати вам зібрати найкращих людей, яких ви лише зможете знайти, і
подивитися, чи можливо зняти те додаткове заклинання з Сортувального Капелюха... А якщо не вийде,
можливо, варто додати __ще одне__ заклинання -- Квіетус, що активується на кілька
секунд одразу після того, як Капелюха знято з голови, така латка може спрацювати. І
більше жодних мертвих учнів.

Гаррі задоволено кивнув головою.

// 2090
//Professor McGonagall looked even more stunned, if such a thing were imaginable.
//“I cannot __possibly__ award you enough points for this without giving the
//House Cup to Ravenclaw outright.”
Професорка Макґонеґел виглядала ще більш шоковано, якщо це взагалі було можливо.

-- Я __в принципі__ не можу нарахувати вам достатньо очок за це, одразу ж не віддавши
кубка гуртожитків Рейвенклову.

// 2091
//“Um,” Harry said. “Um. I’d rather not earn __that__ many House points.”
-- Ем, мм... Я волів би не отримувати __стільки__ очок, якщо ваша ласка.

// 2092
//Now Professor McGonagall was giving him a strange look. “Why not?”
Тепер професорка Макґонеґел дивно подивилася на нього.

-- Чому ні?

// 2093
//Harry was having a little difficulty putting it into words. “Because it would
//be just too sad, you know? Like… like back when I was still trying to go to
//school in the Muggle world, and whenever there was a group project, I’d go
//ahead and do the whole thing myself because the others would only slow me down.
//I’m fine with earning lots of points, more than anyone else even, but if I earn
//enough to be decisive in winning the House Cup just by myself, then it’s like
//I’m carrying House Ravenclaw on my back and that’s too sad.”
Гаррі було трішки складно пояснити це словами.

//@then it’s like I’m carrying House Ravenclaw on my back
-- Тому, що це буде аж надто сумно, розумієте? Наче... наче коли я ще пробував відвідувати
маґлівські школи, і коли нам задавали груповий проект, то я просто брав і робив його
самотужки, бо інші лише гальмували мене. Я не проти заробляти багато очок, навіть
більше за інших, але якщо я отримаю достатньо, щоб лише своїми силами вирішити долю
// чому горб: http://slovopedia.org.ua/49/53395/357055.html
кубка гуртожитків, тоді видаватиметься, ніби я тримаю гуртожиток Рейвенклов на своєму горбі,
а це надто сумно.

// 2094
//“I see…” McGonagall said hesitantly. It was apparent that this way of thinking
//had never occurred to her. “Suppose I only awarded you fifty points, then?”
-- Розумію... -- вагаючись сказала Макґонеґел. Було очевидно, що такий погляд
на речі ніколи не спадав їй на думку. -- А якщо я нагороджу вас п`'ятдесятьма
очками, як вам таке?

// 2095
//Harry shook his head again. “It’s not fair to the other children if I earn lots
//of points for grownup things that I can be part of and they can’t. How is Terry
//Boot supposed to earn fifty points for reporting a whisper he heard from the
//Sorting Hat? It wouldn’t be fair at all.”
Гаррі знову похитав головою.

-- Буде несправедливо щодо інших дітей, якщо я отримаю багато очок за ті дорослі справи,
частиною яких вони не можуть бути. Як Террі Бут може отримати п`'ятдесят
очок лише за інформацію про шепіт, який він почув з Сортувального Капелюха? Це було б
зовсім несправедливо.

// 2096
//“I see why the Sorting Hat offered you Hufflepuff,” said Professor McGonagall.
//She was eyeing him with a strange respect.
-- Тепер я розумію, чому Сортувальний Капелюх запропонував вам Гафелпаф, -- сказала
професорка Макґонеґел, вона дивилася на Гаррі з дивною повагою.

// 2097
//That made Harry choke up a bit. He’d honestly thought he wasn’t worthy of
//Hufflepuff. That the Sorting Hat had just been trying to shove him anywhere but
//Ravenclaw, into a House whose virtues he didn’t have…
Це змусило Гаррі почуватися трішки незручно. Він був чесно вважав, що він не гіден Гафелпафу.
Що Сортувальний Капелюх просто намагався відсортувати його куди завгодно, аби не в Рейвенклов,
відсортувати в гуртожиток, чиїх чеснот він не мав...

// 2098
//Professor McGonagall was smiling now. “And if I tried to give you __ten__
//points…?”
Професорка Макґонеґел почала усміхатися.

-- А якщо я спробую дати вам __десять__ очок?..

// 2099
//“Are you going to explain where those ten points came from, if anyone asks?
//There might be a lot of Slytherins, and I don’t mean the children at Hogwarts,
//who would be really __really__ angry if they knew about the spell being
//taken off the Sorting Hat and found out I was involved. So I think that
//absolute secrecy is the better part of valour. No need to thank me, ma’am,
//virtue is its own reward.”
//discretion is better part of valour - з Шекспіра, Генріх IV, ч1, дія 5, сцена 4
//Український переклад Дмитра Паламарчука: "Найкраща частина хоробрості - розважливість"
-- А ви пояснюватимете, звідки ці десять очок взялися, якщо хтось запитає? Багато слизеринців,
і я маю на увазі не дітей у Гоґвортсі, можуть дуже, __дуже__ розізлитись, якщо дізнаються,
що з Сортувального Капелюха прибрали закляття, і що я до цього причетний. Тому я вважаю,
що найкраща частина хоробрості -- цілковита таємність. Не потрібно мені дякувати, мем,
доброчесності не треба нагороди.

// 2100
//“So it is,” Professor McGonagall said, “but I do have a very special something
//else to give you. I see that I have greatly wronged you in my thoughts, Mr.
//Potter. Please wait here.”
-- Хай буде так, проте я маю дещо дуже особливе для вас. Тепер я розумію, що несправедливо
погано думала про вас, містере Поттер. Зачекайте тут, будь ласка.

// 2101
//She got up, went over to the locked back door, waved her wand, and a sort of
//blurry curtain sprang up around her. Harry could neither see nor hear what was
//going on. It was a few minutes later that the blur vanished and Professor
//McGonagall was standing there, facing him, with the door behind her looking as
//though it hadn’t ever been opened.
Вона підвелася та підійшла до зачинених дверей, у відповідь на помах палички її огорнула
розмита завіса. Гаррі не міг ані бачити, ані чути того, що відбувалося. За кілька хвилин завіса
зникла й показала професорку Макґонеґел, що стояла там та дивилася в бік Гаррі. Зачинені двері
позаду неї виглядали так, ніби їх ніхто й не відчиняв ніколи.

// 2102
//And Professor McGonagall held out in one hand a necklace, a thin golden chain
//bearing in its center a silver circle, within which was the device of an
//hourglass. In her other hand was a folded pamphlet. “This is for you,” she
//said.
В одній руці професорка Макґонеґел тримала кулон: тонкий золотий ланцюжок зі
срібним обідком посередині. Всередині обідка був закріплений пісочний
годинник. В іншій руці вона тримала складену брошуру.

-- Це для вас.

// 2103
//Wow! He was going to get some sort of neat magical item as a quest reward!
//Apparently that business with refusing offers of monetary rewards until you got
//a magic item actually worked in real life, not just computer games.
Ого! Він отримає якийсь прикольний магічний прилад як нагороду за квест! Скидалося на те,
що стратегія відмовлятися від грошових винагород, аж доки не отримаєш магічний предмет,
насправді працювала і в реальному житті -- а не лише в комп`'ютерних іграх.

// 2104
//Harry accepted his new necklace, smiling. “What is it?”
Гаррі, усміхаючись, прийняв свій новий кулон.

-- Що це таке?

// 2105
//Professor McGonagall took a breath. “Mr. Potter, this is an item which is
//ordinarily lent only to children who have already shown themselves to be highly
//responsible, in order to help them with difficult class schedules.” McGonagall
//hesitated, as though about to add something else. “I __must__ emphasise,
//Mr. Potter, that this item’s true nature is __secret __and that you
//must__ not__ tell any of the other students about it, or let them see you
//using it. If that’s not acceptable to you, then you can give it back now.”
Професорка Макґонеґел набрала повітря.

-- Містере Поттер, цю річ зазвичай дають лише дітям, які довели, що вони
надзвичайно відповідальні, задля допомоги зі складним розкладом шкільних занять,
-- Макґонеґел завагалася, ніби хотіла додати ще щось. -- Я __змушена__ наголосити,
містере Поттер, що справжня природа цього предмета -- __секрет__, і ви __мусите__
зберігати її в таємниці від решти учнів та не допускати, щоб вони бачили, як ви
користуєтеся цим. Якщо це неприпустимо для вас, тоді поверніть це, будь ласка, назад.

// 2106
//“I can keep secrets,” Harry said. “So what does it do?”
-- Я вмію зберігати таємниці, -- сказав Гаррі. -- То що воно робить?

// 2107
//“So far as the other students are concerned, this is a Spimster wicket and it
//is used to treat a rare, non-contagious magical ailment called Spontaneous
//Duplication. You wear it under your clothes, and while you have no reason to
//show it to anyone, you also have no reason to treat it as an awful secret.
//Spimster wickets are not interesting. Do you understand, Mr. Potter?”
// @Spimster wicket
-- Для інших учнів це спімстерівські дверцята, які використовуються для лікування
рідкісного, не заразного магічного захворювання, що називається спонтанне дублювання.
Їх носять під одягом, і хоча у вас немає причин комусь їх показувати, немає й причин
ставитися до цього, як до страшного секрету. Спімстерівські дверцята нецікаві. Це
зрозуміло, містере Поттер?

// 2108
//Harry nodded, his smile widening. He sensed the work of a __competent
//__Slytherin. “And what does it __really__ do?”
Гаррі кивнув, ширше усміхаючись. Він відчував роботу __компетентного__ слизеринця.

-- А що воно __насправді__ робить?

// 2109
//“It’s a Time-Turner. Each spin of the hourglass sends you one hour back in
//time. So if you use it to go back two hours every day, you should always be
//able to get to sleep at the same time.”
-- Це часоворот. Кожен оберт пісочного годинника відправляє вас на годину назад
у минуле. Тому, якщо ви користуватиметеся ним, щоб подорожувати на дві години назад
щодня, ви завжди зможете засинати приблизно в той самий час.

// 2110
//Harry’s suspension of disbelief blew completely out the window.
//https://gitlab.com/hpimr/hpimr/issues/123
Гаррін стан "`призупинення недовіри`" як вітром здуло.

// 2111
//__You’re giving me a time machine to treat my sleep disorder.__
__Ви даєте мені машину часу як засіб від розладу сну.__

// 2112
//__You’re giving me a TIME MACHINE to treat my SLEEP DISORDER.__
__Ви даєте мені МАШИНУ ЧАСУ як засіб від РОЗЛАДУ СНУ.__

// 2113
//__YOU’RE **GIVING ME A TIME MACHINE** IN ORDER TO **TREAT MY
//SLEEP DISORDER**.__
__ВИ **ДАЄТЕ МЕНІ МАШИНУ ЧАСУ** ЯК **ЗАСІБ ВІД РОЗЛАДУ СНУ**.__

// 2114
//“Ehehehehhheheh…” Harry’s mouth said. He was now holding the necklace away from
//him as though it were a live bomb. Well, no, not as if it were a live bomb,
//that didn’t __begin__ to describe the severity of the situation. Harry
//held the necklace away from him as though it were a time machine.
-- Ехехехехххехех... -- сказав Гаррі. Тепер він тримав кулон подалі від себе,
наче це була бомба. Тобто, ні, не наче це була бомба, це навіть __близько__
не пояснювало серйозність ситуації. Гаррі тримав кулон подалі від себе, наче це
була машина часу.

// 2115
//__Say, Professor McGonagall, did you know that time-reversed ordinary
//matter looks just like antimatter? Why yes it does! Did you know that one
//kilogram of antimatter encountering one kilogram of matter will annihilate in
//an explosion equivalent to 43 million tons of TNT? Do you realise that I myself
//weigh 41 kilograms and that the resulting blast would leave A GIANT SMOKING
//CRATER WHERE THERE USED TO BE SCOTLAND?__
__Скажіть, професорко Макґонеґел, вам відомо, що повернута в часі звичайна матерія
не відрізняється від антиматерії? А так воно і є! Вам відомо, що кілограм
антиматерії та кілограм матерії при контакті анігілюються у вибухові з потужністю
сорок три мільйони тонн у тротиловому еквіваленті? Чи усвідомлюєте ви, що я важу сорок один кілограм,
і відповідний вибух залишить ГІГАНТСЬКИЙ КРАТЕР З ДИМОМ НА МІСЦІ ШОТЛАНДІЇ?__

// 2116
//“Excuse me,” Harry managed to say, “but this sounds really really
//__really REALLY DANGEROUS!__” Harry’s voice didn’t quite rise to a shriek,
//he couldn’t possibly scream loud enough to do this situation justice so there
//was no point in trying.
-- Перепрошую, -- спромігся сказати Гаррі. -- Але це звучить дуже дуже __дуже
ДУЖЕ НЕБЕЗПЕЧНО__!

Гаррін голос не піднявся аж до вереску, він теоретично не міг кричати достатньо
гучно, щоб передати всю серйозність ситуації, тому не варто було навіть пробувати.

// 2117
//Professor McGonagall looked upon him with tolerant affection. “I’m glad you’re
//taking this seriously, Mr. Potter, but Time-Turners aren’t __that__
//dangerous. We wouldn’t give them to children if they were.”
Професорка Макґонеґел дивилася на нього з виразом поблажливої симпатії.

-- Я рада, що ви поставилися до цього серйозно, містере Поттер, але часовороти не
__настільки__ небезпечні. Якби вони були -- ми б не давали їх дітям.

// 2118
//“Really,” Harry said. “Ahahahaha. Of course you wouldn’t give time machines to
//children if they were dangerous, what __was__ I thinking? So just to be
//clear, sneezing on this device will __not__ send me into the Middle Ages
//where I will run over Gutenberg with a horse cart and prevent the
//Enlightenment? Because, you know, I hate it when that happens to me.”
-- Справді, -- сказав Гаррі. -- Ахахахаха. Звісно ви б не давали дітям машини часу,
якби ті були небезпечними, про __що__ я думав? Тому просто щоб прояснити, випадковий
пчих на цей прилад __не відправить__ мене в Середньовіччя, де я переїду Гутенберга
возом і перешкоджу Просвітництву? Бо, знаєте, ненавиджу коли таке зі мною
трапляється.

// 2119
//McGonagall’s lips were twitching in that way she had when she was trying not to
//smile. She offered Harry the pamphlet she was holding, but Harry was carefully
//holding out the necklace with both hands and staring at the hourglass to make
//sure it wasn’t about to turn. “Don’t worry,” McGonagall said after a momentary
//pause, when it became clear that Harry wasn’t going to move, “that can’t
//possibly happen, Mr. Potter. The Time-Turner cannot be used to move more than
//six hours backwards. It can’t be used more than six times in any day.”
Куточки губ Макґонеґел смикалися, як і завжди, коли вона стримувала усмішку.
Вона простягнула Гаррі брошуру, яку вона тримала, але Гаррі обережно тримав кулон
обома руками й не зводив погляду з пісочного годинника, уважно слідкуючи, чи той от-от
не крутнеться.

-- Не хвилюйтеся, -- сказала Макґонеґел після невеликої паузи, коли стало
зрозуміло, що Гаррі навіть не збирався ворушитись,
-- це неможливо, містере Поттер. Часоворот не може повернутися в минуле більш ніж на шість
годин. Його не можна використати більш ніж шість разів за день.

// 2120
//“Oh, good, very good, that. And if someone bumps into me the Time-Turner will
//__not__ break and will __not__ trap the whole castle of Hogwarts in
//an endlessly repeating loop of Thursdays.”
-- Ух, чудово, це просто чудово. І якщо хтось наштовхнеться на мене, то часоворот __не
зламається__ та __не занапастить__ цілісінький замок Гоґвортс у вічний цикл четвергів. 

// 2121
//“Well, they __can__ be fragile…” said McGonagall. “And I do think I’ve
//heard about strange things happening if they’re broken. But nothing like
//__that!__”
-- Ну, вони __можуть__ бути ламкими... І, думаю, я чула про дивні речі, що траплялися,
коли їх ламали. Але нічого __такого__!

// 2122
//“Perhaps,” Harry said when he could speak again, “you ought to provide your
//time machines with some sort of __protective shell__, rather than
//__leaving the glass exposed__, so as to __prevent that from
//happening__.”
-- Можливо, -- сказав Гаррі, коли знову зміг говорити, -- вам варто було б оснастити
свої машини часу чимось на кшталт __захисного корпусу__, а не __лишати скло незахищеним__,
для того, щоб __запобігти таким випадкам__.

// 2123
//McGonagall looked quite struck. “That’s an excellent idea, Mr. Potter. I shall
//inform the Ministry of it.”
Макґонеґел виглядала враженою.

-- Це прекрасна ідея, містере Поттер. Я повинна повідомити про неї міністерство.

// 2124
//__That’s it, it’s official now, they’ve ratified it in Parliament,
//everyone in the wizarding world is completely stupid.__
__Усе, годі, тепер це офіційно, вони ратифікували це в парламенті, всі в чарівному
світі безпробудно тупі.__

// 2125
//“And while I hate to get all __PHILOSOPHICAL,__” Harry desperately tried
//to lower his voice to something under a shriek, “has anyone thought about the
//__IMPLICATIONS__ of going back six hours and doing something that changes
//time which would pretty much __DELETE ALL THE PEOPLE AFFECTED
//__and__ REPLACE THEM WITH DIFFERENT VERSIONS -__”
-- І хоча я й ненавиджу __ПОРИНАТИ У ФІЛОСОФСТВУВАННЯ__, -- Гаррі відчайдушно
намагався знизити свій голос до чогось тихішого ніж вереск. -- Чи подумав хтось про
__НАСЛІДКИ__ подорожі в часі на шість годин назад і зміни в минулому чогось, що
повпливає на власне час, що, по суті, __ЗІТРЕ ВСІХ ЗАДІЯНИХ ЛЮДЕЙ__ і __ЗАМІНИТЬ ЇХ ІНШИМИ
ВЕРСІЯМИ__...

// 2126
//“Oh, you can’t __change__ time!” Professor McGonagall interrupted. “Good
//heavens, Mr. Potter, do you think these would be allowed students if
//__that__ was possible? What if someone tried to change their test scores?”
-- О, час не можна __змінити__! -- перебила професорка Макґонеґел. -- Господи,
містере Поттер, невже ви думаєте, що учням це б дозволили, якби __таке__ було можливим?
Що, як хтось спробував би змінити результати власного іспиту?

// 2127
//Harry took a moment to process this. His hands relaxed, just a little, from
//their white grip on the hourglass chain. Like he wasn’t holding a time machine,
//just a live nuclear warhead.
Гаррі взяв паузу, щоб це обмізкувати. Його руки розслабили, зовсім трішки,
свою мертву хватку золотого ланцюжка. Ніби він тримав не машину часу, а просто
ядерну боєголовку.

// 2128
//“So…” Harry said slowly. “People just find that the universe… happens to be
//self-consistent, somehow, even though it has time-travel in it. If I and my
//future self interact then I’ll see the same thing as both of me, even though,
//on my own first run through, my future self is already acting in full knowledge
//of things that, from my own perspective, haven’t happened yet…” Harry’s voice
//trailed off into the inadequacy of English.
//@trailed off into the inadequacy of English.
-- Тож... -- повільно вимовив Гаррі. -- Люди просто дізналися, що всесвіт... якимось
чином не містить протиріч, незважаючи на те, що він містить подорожі в часі. Якщо я
та майбутній-я взаємодіятимемо, то я побачу те саме, що й обоє мене, незважаючи на те,
що під час першого проходження майбутній-я вже діятиме зі знанням того, що, з моєї
власної точки зору, ще не відбулося...

Голос Гаррі плавно скотився до нерозбірливих мовних конструкцій.

// 2129
//“Correct, I think,” said Professor McGonagall. “Although wizards __are__
//advised to avoid being seen by their past selves. If you’re attending two
//classes at the same time and you need to cross paths with yourself, for
//example, the first version of you should step aside and close his eyes at a
//known time - you have a watch already, good - so that the future you can pass.
//It’s all there in the pamphlet.”
-- Думаю, правильно, -- відповіла професорка Макґонеґел. -- Хоча чарівникам __таки радять__
уникати бути поміченими минулими ними. Якщо у вас два уроки в той самий час, і вам
потрібно перетнути шляхи із самим собою, наприклад, перша версія вас повинна відійти
в сторону й заплющити очі у відомий час -- у вас вже є годинник, добре -- тоді майбутній
ви зможе пройти. Це все є в брошурі.

// 2130
//“Ahahahaa. And what happens when someone __ignores__ that advice?”
-- Ахахахаа. І що стається, коли хтось __ігнорує__ цю пораду?

// 2131
//Professor McGonagall pursed her lips. “I understand that it can be quite
//disconcerting.”
Професорка Макґонеґел стиснула губи.

-- Наскільки я розумію, це може бути трохи некомфортно.

// 2132
//“And it doesn’t, say, create a paradox that destroys the universe.”
-- І це, скажімо, не створює парадокс, що знищить всесвіт.

// 2133
//She smiled tolerantly. “Mr. Potter, I think I’d remember hearing if
//__that__ had ever happened.”
Вона доброзичливо посміхнулася.

-- Містере Поттер, гадаю, я б запам`'ятала, якби __таке__ коли-небудь сталося.

// 2134
//“__THAT IS NOT REASSURING! HAVEN’T YOU PEOPLE EVER HEARD OF THE ANTHROPIC
//PRINCIPLE? AND WHAT IDIOT EVER BUILT ONE OF THESE THINGS FOR THE FIRST TIME?__”
-- __ЦЕ НЕ ЗАСПОКОЮЄ! ЧИ ВИ, ЛЮДИ, НІКОЛИ НЕ ЧУЛИ ПРО АНТРОПНИЙ ПРИНЦИП? І ЯКИЙ ІДІОТ
ВПЕРШЕ ЗБУДУВАВ ОДНУ З ЦИХ ШТУК?__

// 2135
//Professor McGonagall actually laughed. It was a pleasant, glad sound that
//seemed surprisingly out of place on that stern face. “You’re having another
//‘you turned into a cat’ moment, aren’t you, Mr. Potter. You probably don’t want
//to hear this, but it’s quite endearingly cute.”
Професорка Макґонеґел неочікувано розсміялася. Це був приємний, гарний сміх, що
здавався на диво недоречним на її суворому обличчі.

-- У вас зараз ще одна "`ви перетворилися на кицьку`" реакція, чи не так, містере Поттер?
Скоріш за все ви не хочете цього чути, але це чаруюче мило.

// 2136
//“Turning into a cat doesn’t even __BEGIN__ to compare to this. You know
//right up until this moment I had this awful suppressed thought somewhere in the
//back of my mind that the only remaining answer was that my whole universe was a
//computer simulation like in the book __Simulacron 3__ but now __even
//that is ruled out __because this little toy __ISN’T TURING COMPUTABLE!__ A
//Turing machine could simulate going back into a defined moment of the past and
//computing a different future from there, an oracle machine could rely on the
//halting behavior of lower-order machines, but what you’re saying is that
//reality somehow self-consistently computes in one sweep using information that
//hasn’t… happened… yet…”
-- Перетворення на кицьку навіть __БЛИЗЬКО__ не можна порівнювати з цим. Знаєте, до цієї
миті десь на закутках моєї свідомості завжди снувала придушена думка, що єдина можлива
відповідь полягає в тому, що мій всесвіт -- лише комп`'ютерна симуляція, як у книжці
__Симулякрон-3__, та тепер __навіть цей варіант доведеться відкинути__, бо ця маленька іграшка
__НЕ ОБЧИСЛЮВАНА ЗА ТЮРІНГОМ__! Машина Тюрінга здатна симулювати перехід до визначеного минулого
стану і розрахувати нове майбутнє з цієї точки, машина оракул могла б базуватися на
переривчастій поведінці машин нижчого порядку, але ви кажете, що реальність без протиріч
обчислюється за один захід з урахуванням подій, які... ще... не відбулися...

// 2137
//Realisation struck Harry a pile-driver blow.
// @pile-driver Або ж можна прямий переклад, "палебійна установка", чи "копер"
Усвідомлення вразило Гаррі наче удар гідравлічним молотом.

// 2138
//It all made sense now. It all __finally__ made sense.
Все стало на свої місця. Все __врешті__ стало на свої місця.

// 2139
//“__SO THAT’S HOW THE COMED-TEA WORKS!__ Of __course!__ The spell
//doesn’t __force__ funny events to happen, it just makes you __feel
//an impulse to drink __right before funny things are going to happen anyway! I’m
//such a fool, I should have realised when I felt the impulse to drink the
//Comed-Tea before Dumbledore’s second speech, __didn’t__ drink it, and then
//choked on my own saliva instead - drinking the Comed-Tea doesn’t cause the
//comedy, the comedy causes you to drink the Comed-Tea! I saw the two events were
//correlated and assumed the Comed-Tea had to be the cause and the comedy had to
//be the effect because I thought temporal order restrained causation and causal
//graphs had to be acyclic BUT IT ALL MAKES SENSE ONCE YOU DRAW THE CAUSAL ARROWS
//GOING __BACKWARDS IN TIME!__”
-- __ТО ОСЬ ЯК ПРАЦЮЄ ПИРСКОНАД!__ __Ну звісно!__ Закляття не __спричиняє__ кумедні моменти
в реальності, воно просто змушує тебе __відчути порив випити__ одразу перед тим,
як кумедний момент все одно станеться! Я такий дурень, я мав це усвідомити, коли відчув
жагу випити пирсконаду перед другою промовою Дамблдора, __не випив__, і натомість
похлинувся власною слиною -- випитий пирсконад не спричиняє ситуацій, в результаті яких ти
пирскаєш, такі ситуації спричиняють бажання випити пирсконаду! Я побачив кореляцію між двома
подіями і припустив, що пирсконад повинен бути причиною, а кумедний момент має бути наслідком,
адже я вважав, що темпоральний порядок обмежує причинно-наслідкові графи, робить їх ациклічними,
АЛЕ ВСЕ СТАЄ НА СВОЇ МІСЦЯ, ВАРТО ТІЛЬКИ НАМАЛЮВАТИ СТРІЛКИ ПОДІЙ, ЩО __ЙДУТЬ НАЗАД У ЧАСІ__!

// 2140
//Realisation struck Harry the __second__ pile-driver.
Усвідомлення вразило Гаррі наче __другий__ удар гідравлічним молотом.

// 2141
//This one he managed to keep quiet, making only a small strangling sound like a
//dying kitten as he realised who’d put the note on his bed this morning.
Цього разу він спромігся промовчати, видавши лише тихий придушений звук, як помираюче
кошеня, коли усвідомив, хто поклав був йому зранку записку на ліжко.

// 2142
//Professor McGonagall’s eyes were alight. “After you graduate, or possibly even
//before, you really __must__ teach some of these Muggle theories at
//Hogwarts, Mr. Potter. They sound quite fascinating, even if they’re all wrong.”
Очі професорки Макґонеґел запалали.

-- Після того як закінчите школу, чи, можливо, навіть раніше, ви справді __повинні__ повикладати
деякі з цих маґлівських теорій в Гоґвортсі, містере Поттер. Вони звучать захоплююче,
навіть якщо всі вони неправильні.

// 2143
//“Glehhahhh…”
-- Глеххаххх...

// 2144
//Professor McGonagall offered him a few more pleasantries, demanded a few more
//promises to which Harry nodded, said something about not talking to snakes
//where anyone could hear him, reminded him to read the pamphlet, and then
//somehow Harry found himself standing outside her office with the door closed
//firmly behind him.
Професорка Макґонеґел сказала йому ще декілька люб`'язностей, домоглася ще кількох
обіцянок, на які Гаррі покивав у відповідь, сказала щось про те, щоб він не розмовляв зі
зміями там, де хтось може це почути, нагадала йому прочитати брошуру, після чого Гаррі
якимось чином усвідомив, що опинився ззовні її кабінету, зі щільно зачиненими за спиною
дверима.

// 2145
//“Gaahhhrrrraa…” Harry said.
-- Гаахххррррааа... -- сказав Гаррі.

// 2146
//Why yes his mind __was__ blown.
Саме так, йому __зірвало дах__.

// 2147
//Not least by the fact that, if not for the Prank, he might well have never
//obtained a Time-Turner in the first place.
//@in the first place
Не в останню чергу тому, що якби не цей розіграш, він міг взагалі не отримати часоворот, 
без якого, в свою чергу, він би не міг здійснити розіграш.

// 2148
//Or would Professor McGonagall have given it to him anyway, only later in the
//day, whenever he got around to asking about his sleep disorder or telling her
//about the Sorting Hat’s message? And would he, at that time, have wanted to
//pull a prank on himself which would have led to him getting the Time-Turner
//__earlier?__ So that the only __self-consistent__ possibility was the
//one in which the Prank started before he even woke up in the morning…?
Чи професорка Макґонеґел віддала б йому часоворот у будь-якому випадку, просто пізніше цього ж
дня, коли він зустрівся б з нею, щоб запитати про свій розлад сну чи розказати про
повідомлення Сортувального Капелюха? І чи захотів би він у той момент розіграти самого
себе, що в результаті привело б до отримання ним часовороту __раніше__? Таким чином, єдина
несуперечна можливість була та, що розіграш почався ще до того, як він прокинувся?..

// 2149
//Harry found himself considering, for the first time in his life, that the
//answer to his question might be literally __inconceivable.__ That since
//his own brain contained neurons that only ran forwards in time, there was
//__nothing__ his brain could do, no operation it could perform, which was
//conjugate to the operation of a Time Turner.
//спряженою - http://pirus.org/content/лінійні-функціонали-спряжені-простори
Гаррі зловив себе на роздумах, що вперше в житті відповідь на його запитання могла
виявитися буквально __незбагненною__. Оскільки його мозок містив нейрони, що могли
рухатися лише вперед у часі, не було __нічого__, що його мозок міг вдіяти, жодної
операції, яку він міг провести, яка була б спряженою до операцій часовороту.

// 2150
//Up until this point Harry had lived by the admonition of E. T. Jaynes that if
//you were ignorant about a phenomenon, that was a fact about your own state of
//mind, not a fact about the phenomenon itself; that your uncertainty was a fact
//about you, not a fact about whatever you were uncertain about; that ignorance
//existed in the mind, not in reality; that a blank map did not correspond to a
//blank territory. There were mysterious questions, but a mysterious answer was a
//contradiction in terms. A phenomenon could be mysterious __to__ some
//particular person, but there could be no phenomena mysterious of themselves. To
//worship a sacred mystery was just to worship your own ignorance.
Донині Гаррі жив згідно застережень Е. Т. Джейнса: якщо ти не розумієш
феномену, то це факт про твій стан свідомості, а не факт про власне
феномен; твоя невпевненість -- це факт про тебе, а не про хай там про що ти
невпевнений; невідомість існує в свідомості, не в реальності; пуста карта
не відповідає пустій території. __Існують загадкові питання, проте загадкова 
відповідь -- це явне протиріччя.__ Феномен може бути загадковим для якоїсь конкретної
__особи__, але не існує загадкових для самих себе феноменів. Поклонятися священній загадці
-- це просто поклонятися власному невігластву.

// 2151
//So Harry had looked upon magic and refused to be intimidated. People had no
//sense of history, they learned about chemistry and biology and astronomy and
//thought that these matters had always been the proper meat of science, that
//they had __never been__ mysterious. The stars had once been mysteries.
//Lord Kelvin had once called the nature of life and biology - the response of
//muscles to human will and the generation of trees from seeds - a mystery
//“infinitely beyond” the reach of science. (Not just a little beyond, mind you,
//but __infinitely__ beyond. Lord Kelvin certainly had felt a huge emotional
//charge from __not knowing something__.) Every mystery ever solved had been
//a puzzle from the dawn of the human species right up until someone solved it.
Тому Гаррі дивився був на магію та відмовлявся лякатися. Люди не відчувають історію,
ми вивчаємо хімію, біологію й астрономію та вважаємо, що всі ці речі завжди були
частиною науки, що вони ніколи __не були__ загадковими. Зірки колись були таємницями.
Лорд Кельвін якось назвав природу життя та біологію -- відповіддю м`'язів на людську
волю, а ріст дерев з насіння -- загадкою "`нескінченно за межами`" досяжності науки.
(Не просто трішки за межами, варто звернути увагу, а __нескінченно__ за межами. Лорд
Кельвін, безсумнівно, дуже емоційно сприймав був те, що він __чогось не знає__.)
Кожна загадка, яку коли-небудь вирішили, була головоломкою від світанку людства й
аж до моменту, коли хтось її розгадав.

// 2152
//Now, for the first time, he was up against the prospect of a mystery that was
//threatening to be __permanent__. If Time didn’t work by acyclic causal
//networks then Harry didn’t understand what was meant by cause and effect; and
//if Harry didn’t understand causes and effects then he didn’t understand what
//sort of stuff reality might be made of instead; and it was entirely possible
//that his human mind never __could__ understand, because his brain was made
//of __old-fashioned linear-time neurons,__ and this had turned out to be an
//impoverished subset of reality.
Тепер, вперше, йому зустрілася загадка, що перспективно могла залишитися нею
назавжди. Якщо час працював не через ациклічні причинно-наслідкові мережі, тоді Гаррі
не розумів, що означають причини та наслідки; якщо Гаррі не розумів причин і наслідків,
то він не розумів, з якого тіста зліплена реальність; і було цілком можливо, що його
людський розум ніколи й не __зможе__ зрозуміти, бо його мозок зроблений зі __старомодних,
лінійно-часових нейронів__, а це, як виявляється, жалюгідна підмножина цілої реальності.

// 2153
//On the plus side, the Comed-Tea, which had once seemed all-powerful and
//all-unbelievable, had turned out to have a much simpler explanation. Which he’d
//missed __merely__ because the truth was completely outside his hypothesis
//space or anything that his brain had evolved to comprehend. But now he actually
//__had__ figured it, probably. Which was sort of encouraging. Sort of.
Але були й гарні новини, пирсконад, що колись здавався всемогутнім і неймовірним,
виявляється, мав значно простіше пояснення. Яке він був проґавив __всього лиш__ через те,
що правда була цілковито поза його простором гіпотез та всім, для осягнення чого його
мозок еволюціонував. Та тепер він справді це __зрозумів__, скоріше за все. Що було свого роду
заохоченням. Свого роду.

// 2154
//Harry glanced down at his watch. It was nearly 11AM, he’d gotten to sleep last
//night at 1AM, so in the natural state of affairs he’d go to sleep tonight at
//3AM. So to go to sleep at 10PM and wake up at 7AM, he should go back five hours
//total. Which meant that if he wanted to get back to his dorm at around 6AM,
//before anyone was awake, he’d better hurry up and…
Гаррі поглянув на годинник. Була майже одинадцята ранку, минулої ночі він заснув
близько першої, тому при нормальному перебігу подій сьогодні він засне близько третьої. Тому, щоб заснути
о десятій вечора й прокинутися о сьомій ранку, йому потрібно повернутися назад на п`'ять годин.
Це означало, що якщо він хоче повернутися до свого гуртожитку о шостій ранку, тобто до того,
як хто-небудь прокинеться, йому варто було поквапитися і...

// 2155
//Even in __retrospect__ Harry didn’t understand how he’d pulled off
//__half__ the stuff involved in the Prank. Where had the __pie__ come
//from?
Навіть __оглядаючись назад__ Гаррі не розумів, як йому вдалося зробити __половину__
з того, що відбулося в розіграші. Звідки взагалі взявся __пиріг__?

// 2156
//Harry was starting to seriously fear time travel.
Гаррі всерйоз починав боятися подорожей в часі.

// 2157
//On the other hand, he had to admit that it __had__ been an irreplaceable
//opportunity. A prank you could only pull on yourself once in a lifetime, within
//six hours of when you first found out about Time-Turners.
З іншого боку, він не міг не визнати, що це __справді__ була неповторна нагода. Розіграш,
який можливо було втнути над собою лише раз у житті, в межах шести годин відколи ти
дізнався про часовороти.

// 2158
//In fact that was even __more__ puzzling, when Harry thought about it. Time
//had presented him with the finished Prank as a __fait accompli,__ and yet
//it was, quite clearly, his own handiwork. Concept and execution and writing
//style. Every last part, even the ones he still didn’t understand.
Насправді, це плутало __ще більше__, варто було Гаррі про це замислитися. Час обдарував
його готовим розіграшем у вигляді __доконаного факту__, та проте було цілком ясно,
що це його власна робота. Концепт, виконання, авторський стиль. Кожнісінька деталь, навіть ті,
яких він досі не розумів.

// 2159
//Well, time was a-wasting and there were at most thirty hours in a day. Harry
//did know __some__ of what he had to do, and he might figure out the rest,
//like the pie, while he was working. There was no point putting it off. He
//couldn’t exactly accomplish anything stuck here in the __future.__
Ну що ж, час не стоїть на місці, а в добі було не більше тридцяти годин. Гаррі знав __дещо__
з того, що він мав зробити, а з рештою, на кшталт пирога, він розбереться поки працюватиме.
Не було причин відкладати. Він не міг нічого досягти, застрягши у __майбутньому__.

***

// 2160
//Five hours earlier, Harry was sneaking into his dorm with his robes pulled up
//over his head as a thin sort of disguise, just in case someone was already up
//and about and saw him at the same time as Harry lying in his bed. He didn’t
//want to have to explain to anyone about his little medical problem with
//Spontaneous Duplication.
П`'ятьма годинами раніше Гаррі крався у власний гуртожиток, натягнувши мантію на
голову -- хоч якесь маскування на випадок, якщо раптом хтось
вже прокинувся та побачить одночасно і його, і Гаррі в ліжку. Йому не хотілося
нікому пояснювати про свою дрібну проблему зі спонтанним дублюванням.

// 2161
//Fortunately it seemed that everyone was still asleep.
На щастя, видавалося, що всі досі спали.

// 2162
//And there also seemed to be a box, wrapped in red and green paper with a bright
//golden ribbon, lying next to his bed. The perfect, stereotypical image of a
//Christmas present, although it wasn’t Christmas.
Також видавалося, що поруч з його ліжком лежала коробка. Загорнута в червоний та зелений папір,
з яскраво-золотим бантом -- це був ідеальний, стереотипний образ різдвяного подарункa. От тільки
до Різдва ще далеко.

// 2163
//Harry crept in as softly as he could manage, just in case someone had their
//Quieter turned down low.
Гаррі підкрадався так м`'яко, як тільки міг, на випадок, якщо чийсь квіетор було виставлено
на низьку потужність.

// 2164
//There was an envelope attached to the box, closed by plain clear wax without a
//seal impressed.
До коробки було прикріплено конверт, запечатаний звичайнісіньким простим воском без
жодних відтисків.

// 2165
//Harry carefully pried the envelope open, and took out the letter inside.
Гаррі обережно відкрив конверт і витягнув листа.

// 2166
//The letter said:
У листі було написано:

// 2167
//__This is the Cloak of Invisibility of Ignotus Peverell, passed down
//through his descendants the Potters. Unlike lesser cloaks and spells it has the
//power to keep you hidden, not merely invisible. Your father lent it to me to
//study shortly before he died, and I confess that I have received much good use
//of it over the years.__
__Це Плащ невидимості Іґнотуса Певерела, родинна реліквія його нащадків, Поттерів.
На відміну від заклять і простіших плащів, він має силу заховати тебе, а не просто
зробити невидимим. Твій батько позичив його мені для вивчення незадовго до своєї смерті,
і, мушу визнати, за ці роки він ставав мені в пригоді багато разів.__

// 2168
//__In the future I shall have to get along with Disillusionment, I fear.
//It is time the Cloak was returned to you, its heir. I had thought to make this
//a Christmas present, but it wished to come back to your hand before then. It
//seems to expect you to have need of it. Use it well.__
//"Користуйся ним з розумом" - канон.
__Боюся, що в майбутньому мені доведеться обходитися закляттям розілюзнення. Плащу час повернутися
до тебе -- його спадкоємця. Я думав був зробити це різдвяним подарунком, але він побажав
повернутися у твої руки раніше. Схоже, він думає, що потрібен тобі. Користуйся ним з розумом.__

// 2169
//__No doubt you are already thinking of all manner of wonderful pranks, as
//your father committed in his day. If his full misdeeds were known, every woman
//in Gryffindor would gather to desecrate his grave. I shall not try to stop
//history from repeating, but be MOST careful not to reveal yourself. If
//Dumbledore saw a chance to possess one of the Deathly Hallows, he would never
//let it escape his grasp until the day he died.__
// є копія частина останнього речення в 17:2777
__Безсумнівно, ти вже думаєш про найрізноманітніші чудові розіграші, як і твій тато
у свій час. Якби всі його проступки стали відомі, всі жінки Ґрифіндору зібралися б, щоб
осквернити його могилу. Я не пробуватиму зупинити історію від повторень, але будь ДУЖЕ
обережним, щоб ніхто тебе не розкрив. Якщо Дамблдор побачить шанс заволодіти однією зі
Смертельних реліквій, то зробить усе, щоб до самісінької смерті вона належала лише йому.__

// 2170
//__A Very Merry Christmas to you.__
// "Бажаю тобі чудового-пречудового Різдва." - канон.
__Бажаю тобі чудового-пречудового Різдва.__

// 2171
//The note was unsigned.
Записка була без підпису.

***

// 2172
//“Hold on,” Harry said, pulling up short as the other boys were about to leave
//the Ravenclaw dorm. “Sorry, there’s something else I’ve got to do with my
//trunk. I’ll be along to breakfast in a couple of minutes.”
-- Стривайте, -- зупинився Гаррі, коли інші хлопці вже майже вийшли з рейвенкловської
спальні. -- Вибачте, але я ще маю деякі справи з валізою, я прийду до сніданку за
кілька хвилин.

// 2173
//Terry Boot scowled at Harry. “You’d better not be planning to go through any of
//our things.”
Террі Бут нахмурився.

-- Краще тобі не ритися в наших речах.

// 2174
//Harry held up one hand. “I swear that I intend to do nothing of the sort to any
//of your things, that I only intend to access objects that I myself own, that I
//have no pranking or otherwise questionable intentions towards any of you, and
//that I do not anticipate those intentions changing before I get to breakfast in
//the Great Hall.”
Гаррі підняв одну руку.

-- Я присягаюся, що не планую робити нічого подібного з жодними вашими речами,
що всі речі, з якими я планую мати справу, належать мені, я не готую жодних розіграшів
і не маю інших сумнівних намірів щодо жодного з вас, і я не очікую, що мої наміри зміняться
раніше, ніж я прийду на сніданок у Великій залі.

// 2175
//Terry frowned. “Wait, is that -”
Террі Бут насупився.

-- Чекай-но, а це...

// 2176
//“Don’t worry,” said Penelope Clearwater, who was there to guide them. “There
//were no loopholes. Well-worded, Potter, you should be a lawyer.”
-- Не хвилюйся, -- втрутилась Пенелопа Клірвотер, що супроводжувала їх. -- Там не було
жодних лазівок. Чудово сформульовано, Поттере, тобі треба бути юристом.

// 2177
//Harry Potter blinked at that. Ah, yes, Ravenclaw __prefect.__ “Thank you,”
//he said. “I think.”
Гаррі Поттер покліпав на це. Ах, точно -- __староста__ Рейвенклову.

-- Дякую. Мабуть.

// 2178
//“When you try to find the Great Hall, you will get lost.” Penelope stated this
//in the tones of a flat, unarguable fact. “As soon as you do, ask a portrait how
//to get to the first floor. Ask another portrait the __instant__ you
//suspect you might be lost again. __Especially__ if it seems like you’re
//going up higher and higher. If you are higher than the whole castle ought to
//be, __stop__ and wait for search parties. Otherwise we shall see you again
//four months later and you will be five months older and dressed in a loincloth
//and covered in snow and __that’s if you stay inside the castle.__”
-- Коли спробуєш знайти Велику залу, ти заблукаєш, -- Пенелопа сказала це як
беззаперечний факт. -- Щойно це станеться, запитай у портрета, як дістатися
першого поверху. Запитай в іншого портрета __одразу ж__ як запідозриш, що заблукав
знову. __Особливо__ якщо здається, що ти йдеш вище й вище. Якщо ти вище, ніж замок
в принципі повинен бути заввишки, -- __зупинись__ і дочекайся пошукових груп. Інакше ми
побачимо тебе через чотири місяці, старшим на п`'ять місяців, покритого снігом та з самою
лише пов`'язкою на стегнах, __і це якщо ти залишишся в замку__.

// 2179
//“Understood,” said Harry, swallowing hard. “Um, shouldn’t you tell students all
//that sort of stuff right away?”
-- Зрозумів, -- відповів Гаррі, важко ковтнувши. -- Амм, а ви не повинні розказувати
учням про такі речі одразу?

// 2180
//Penelope sighed. “What, __all__ of it? That would take weeks. You’ll pick
//it up as you go along.” She turned to go, followed by the other students. “If I
//don’t see you at breakfast in thirty minutes, Potter, I’ll start the search.”
Пенелопа зітхнула.

-- Що, __все одразу__? Це зайняло б тижні. Ти сам про все з часом дізнаєшся, -- вона
повернулася, щоб вийти, за нею слідували інші учні. -- Поттере, якщо я не побачу тебе
на сніданку через тридцять хвилин, я почну пошуки.

// 2181
//Once everyone was gone, Harry attached the note to his bed - he’d already
//written it and all the other notes, working in his cavern level before everyone
//else woke up. Then he carefully reached inside the Quietus field and pulled the
//Cloak of Invisibility off Harry-1‘s still-sleeping form.
Щойно всі пішли, Гаррі прикріпив записку до свого ліжка -- він вже написав
її раніше, як і решту записок, сидячи в себе в підвальному рівні, ще до того, як 
всі попрокидалися. Після чого він обережно потягнувся рукою в поле квіетора та 
стягнув Плащ невидимості з тіла досі сплячого Гаррі-1.

// 2182
//And just for the sake of mischief, Harry put the Cloak into Harry-1‘s pouch,
//knowing it would thereby already be in his own.
І, просто заради пустощів, Гаррі поклав плащ в капшучок Гаррі-1, знаючи, що таким чином
він уже буде лежати в його власному.

***

// 2183
//“I can see that the message is passed on to Cornelion Flubberwalt,” said the
//painting of a man with aristocratic airs and, in fact, a perfectly normal nose.
//“But might I ask where it came from __originally?__”
-- Я розумію, що повідомлення адресоване Корнеліону Флабберволту, -- сказала картина,
на якій був зображений чоловік з аурою аристократа, і, насправді, абсолютно звичайним носом.
-- Чи можу я поцікавитися, яке його __походження__?

// 2184
//Harry shrugged with artful helplessness. “I was told that it was spoken by a
//hollow voice that belled forth from a gap within the air itself, a gap that
//opened upon a fiery abyss.”
Гаррі знизав плечима зі щирою безпорадністю.

-- Мені було сказано, що його промовив безпристрасний голос, що наче дзвін
прозвучав з прогалини в повітрі, прогалини, за якою виднілась вогняна безодня.

***

// 2185
//“Hey!” Hermione said in tones of indignation from her place on the other side
//of the breakfast table. “That’s __everyone’s__ dessert! You can’t just
//take one whole pie and put it in your pouch!”
-- Гей! -- вигукнула Герміона сповненим обурення голосом, зі свого місця з іншої сторони
сніданкового столу. -- Це десерт __для всіх__! Ти не можеш просто забрати цілий пиріг
собі до капшучка!

// 2186
//“I’m not taking one pie, I’m taking two. Sorry everyone, gotta run now!” Harry
//ignored the cries of outrage and left the Great Hall. He needed to arrive at
//Herbology class a little early.
-- Я не беру цілий пиріг, я беру цілих два. Вибачте всі, мушу бігти! -- Гаррі проігнорував
обурені крики й покинув Велику Залу. Він мусив якнайшвидше дістатися класу з гербалогії.

***

// 2187
//Professor Sprout eyed him sharply. “And how do __you__ know what the
//Slytherins are planning?”
Професорка Спраут пильно на нього дивилася.

-- А звідки __вам__ відомо, що планують слизеринці?

// 2188
//“I can’t name my source,” Harry said. “In fact I have to ask you to pretend
//that this conversation never happened. Just act like you happened across them
//naturally while you were on an errand, or something. I’ll run on ahead as soon
//as Herbology gets out. I think I can distract the Slytherins until you get
//there. I’m not easy to scare or bully, and I don’t think they’ll dare to
//seriously hurt the Boy-Who-Lived. Though… I’m not asking you to run in the
//hallways, but I would appreciate it if you didn’t dawdle along the way.”
-- Я не можу назвати вам своє джерело, -- сказав Гаррі. -- Якщо чесно, я хочу попросити
вас вдати, що цієї розмови ніколи не було. Просто поводьтеся наче ви натрапили на них
випадково, коли йшли у своїх справах чи ще кудись. Я поспішу туди щойно закінчиться
гербалогія. Думаю, я зможу відволікти слизеринців, аж доки ви не дійдете туди. Мене не легко
залякати чи поглумитися з мене, і не думаю, що вони наважаться завдати серйозної шкоди
Хлопчикові-Що-Вижив. Не зрозумійте неправильно... Я не прошу вас бігати коридорами, але
буду дуже вдячним, якщо ви не зволікатимете по дорозі.

// 2189
//Professor Sprout looked at him for a long moment, then her expression softened.
//“Please be careful with yourself, Harry Potter. And… thank you.”
Професорка Спраут уважно подивилася на Гаррі, після чого її погляд пом`'якшав.

-- Будь ласка, будьте обережні, Гаррі Поттере. І... Дякую.

// 2190
//“Just be sure not to be late,” Harry said. “And remember, when you get there,
//you weren’t expecting to see me and this conversation never happened.”
-- Просто переконайтеся, що ви не запізнитесь, -- сказав Гаррі. -- І пам`'ятайте,
коли ви дійдете туди, ви не очікуєте побачити мене й цієї розмови ніколи не було.

***

// 2191
//It was horrible, watching himself yank Neville out of the circle of Slytherins.
//Neville had been right, he’d used too much force, way too much force.
Це було жахливо -- дивитися, як ти висмикуєш Невіла з кола слизеринців. Невіл був правий,
він був використав забагато сили, занадто багато сили.

// 2192
//“Hello,” Harry Potter said coldly. “I’m the Boy-Who-Lived.”
-- Привіт, -- холодно сказав Гаррі Поттер. -- Я Хлопчик-Що-Вижив.

// 2193
//Eight first-year boys, mostly the same height. One of them had a scar on his
//forehead and he wasn’t acting like the others.
Вісім першокласників, хлопчиків переважно однакового зросту. Один з них мав шрам на чолі,
і він поводився не так, як інші.

//Уривок вірша Р. Бернса "До воші, поміченої в церкві на шляпці однієї леді"
//переклад Миколи Лукаша та Василя Мисика
// 2194
//__Oh wad some power the giftie gie us__
__Якби ж ми глянути могли__

// 2195
//__To see oursel’s as others see us!__
__На себе збоку! От коли__

// 2196
//__It wad frae monie a blunder free us,__
__Ми б наші примхи всі збули__

// 2197
//__And foolish notion -__
__Дурні, порожні__ -- 

// 2198
//Professor McGonagall was right. The Sorting Hat was right. It was clear once
//you saw it from the outside.
Професорка Макґонеґел була права. Сортувальний Капелюх був правий. Це ставало очевидним,
варто лише було подивитися зі сторони.

// 2199
//There was something wrong with Harry Potter.
З Гаррі Поттером щось було не так.
