// 3345
//== Delayed Gratification
== Розділ 19. Відкладена винагорода

***

// 3346
//Blood for the blood god! Skulls for J. K. Rowling!
Кров для бога крові! Черепи для Джоан Ролінґ!

***

// 3347
//Draco had a stern expression on his face, and his green-trimmed robes somehow
//looked far more formal, serious, and well-turned-out than the same exact robes
//as worn by the two boys behind him.
Суворий вираз застиг на обличчі Драко, а його облямована зеленим мантія чомусь
виглядала більш офіційною, солідною і взагалі кращою, ніж такі самі мантії на
двох хлопцях позаду нього.

// 3348
//“Talk,” said Draco.
-- Розказуй, -- промовив Драко.

// 3349
//“Yeah! Talk!”
-- Так! Розказуй!

// 3350
//“You heard da boss! Talk!”
-- Ти чув боса! Давай розказуй!

// 3351
//“You two, on the other hand, __shut up.__”
-- А ви двоє, тим часом, __замовкніть__.

// 3352
//The last session of classes on Friday was about to start, in that vast
//auditorium where all four Houses learned Defense, er, Battle Magic.
От-от повинні були розпочатися останні два уроки п`'ятниці, в просторій аудиторії, де
всі чотири гуртожитки вивчали захист... тобто бойову магію.

// 3353
//The last session of classes on Friday.
Останні два уроки п`'ятниці.

// 3354
//Harry was hoping that this class would be non-stressful, and that the brilliant
//Professor Quirrell would realize this was perhaps not the best time to single
//out Harry for anything. Harry had recovered a little, but…
Гаррі сподівався, що цей урок пройде спокійно, і що геніальний професор Квірел мабуть
розуміє -- зараз не найкращий час, щоб виділяти Гаррі серед решти. Гаррі дещо оклигав
після попередніх подій, проте...

// 3355
//…but just in case, it was probably best to get in a bit of stress relief first.
...добре було б трохи заспокоїтися та відпочити, про всяк випадок.

// 3356
//Harry leaned back in his chair and bestowed a look of great solemnity upon
//Draco and his minions.
Гаррі відкинувся на спинку стільця та урочисто поглянув на Драко та його посіпак.

// 3357
//“You ask, what is our aim?” Harry declaimed. “I can answer in one word. It is
//victory. Victory at all costs - Victory in spite of all terrors - Victory,
//however long and hard the road may be, for without victory there is no -”
// @ це цитата з промови Вінстона Черчілля "Піт, кров та сльози", 1940, самоперекладено
-- Ви питаєте, яка наша мета? -- проголосив Гаррі. -- Я відповім вам одним
словом -- перемога. Перемога будь-якою ціною. Перемога не зважаючи на всі
жахіття. Перемога, хай яким довгим та тяжким буде шлях, бо без перемоги не... 

// 3358
//“__Talk about Snape,__” Draco hissed. ”__What did you do?__”
-- __Розказуй про Снейпа__, -- зашипів Драко. -- __Що ти зробив?__

// 3359
//Harry wiped away the fake solemnity and gave Draco a more serious look.
Гаррі відкинув вдавану маску урочистості та серйозніше поглянув на Драко.

// 3360
//“You saw it,” Harry said. “Everyone saw it. I snapped my fingers.”
-- Ти сам бачив, -- сказав Гаррі. -- Всі це бачили. Я клацнув пальцями.

// 3361
//“__Harry! Stop teasing me!__”
-- __Гаррі! Перестань дражнити мене!__

// 3362
//So he’d been promoted to __Harry__ now. Interesting. And in fact Harry was
//fairly sure that he was meant to notice that, and feel bad if he didn’t respond
//somehow…
Отже його підвищили до __Гаррі__. Цікаво. Гаррі був майже певен, що це було сказано
з розрахунку на те, що він зверне увагу й почуватиметься погано, якщо хоч якось
не відповість на це...

// 3363
//Harry tapped his ears and gave a significant glance at the minions.
Гаррі помацав вухо та значуще поглянув на двох поплічників Мелфоя.

// 3364
//“They won’t talk,” said Draco.
-- Вони мовчатимуть, -- сказав Драко.

// 3365
//“Draco,” Harry said, “I’m going to be one hundred percent honest here and say
//that yesterday I was not particularly impressed with Mr. Goyle’s cunning.”
-- Драко, -- сказав Гаррі, -- я буду відвертим на сто відсотків: вчора мене не
дуже вразили розумові здібності містера Ґойла.

// 3366
//Mr. Goyle winced.
Містер Ґойл здригнувся.

// 3367
//“Me neither,” said Draco. “I explained to him that I ended up owing you a favor
//because of it.” (Mr. Goyle winced again.) “But there __is__ a big
//difference between that sort of mistake and being indiscreet. That really is
//something they’ve been trained from childhood to understand.”
-- Мене також, -- відповів Драко. -- Я пояснив йому, що через це завинив тобі послугу.
(Містер Ґойл знову здригнувся.) -- Проте, існує __велика__ різниця між подібною
помилкою і балакучістю. Це справді те, чого їх вчили розуміти ще змалку.

// 3368
//“All right then,” Harry said. He lowered his voice, even though the background
//noises had gone to blurs in Draco’s presence. “I deduced one of Severus’s
//secrets and did a bit of blackmail.”
-- Ну гаразд, -- погодився Гаррі. Навколишні звуки злилися у нечіткий гамір у присутності
Драко, проте Гаррі все одно заговорив тихіше. -- Я розгадав один із секретів
Северуса і вдався до невеличкого шантажу.

// 3369
//Draco’s expression hardened. “Good, now tell me something you didn’t tell in
//strict confidence to the idiots in Gryffindor, meaning that was the story you
//__wanted__ to get all over the school.”
Обличчя Драко посуворішало.

-- Добре, а тепер розкажи мені щось, чого нема в тій великій таємниці, що ти її
розказав тим ідіотам-ґрифіндорцям, тобто __хотів__, щоб саме ця версія ходила по школі.

// 3370
//Harry grinned involuntarily and he knew that Draco had caught it.
Гаррі мимоволі посміхнувся. Він знав, що Драко це зауважив.

// 3371
//“What is Severus saying?” Harry said.
-- А що каже Северус? -- спитав Гаррі.

// 3372
//“That he hadn’t realized how sensitive the feelings of young children were,”
//Draco said. “Even in Slytherin! Even to __me!__”
-- Що він не уявляв наскільки чутливими є юні учні, -- відповів Драко. -- Навіть
слизеринцям! Навіть __мені__!

// 3373
//“Are you sure,” Harry said, “that you want to know something your Head of House
//would rather you not know?”
-- А ти певен, -- спитав Гаррі, -- що хочеш знати те, що вихователь твого гуртожитку
волів би приховати від тебе?

// 3374
//“Yes,” Draco said without hesitation.
-- Так, -- не вагаючись відповів Драко.

// 3375
//__Interesting.__ “Then you really are going to send your minions away
//first, because I’m not sure I can believe everything you believe about them.”
__Цікаво.__ 

-- Тоді тобі справді доведеться відіслати геть своїх посіпак, я не певен, що можу
повірити всьому, що про них віриш ти.

// 3376
//Draco nodded. “Okay.”
Драко кивнув.

-- Згода.

// 3377
//Mr. Crabbe and Mr. Goyle looked __very__ unhappy. “Boss -” said Mr.
//Crabbe.
Містер Креб та містер Ґойл виглядали __дуже__ нещасними.

-- Бос... -- сказав містер Креб.

// 3378
//“You’ve given Mr. Potter no reason to trust you,” Draco said. “Go!”
-- Ви не дали містерові Поттеру причин довіряти вам, -- відрізав Драко. -- Йдіть!

// 3379
//They left.
Вони пішли.

// 3380
//“In particular,” Harry said, lowering his voice even further, “I’m not
//__entirely__ sure that they wouldn’t just report what I said to Lucius.”
-- Зокрема, -- продовжив Гаррі ще тихіше, -- я __не певен__, що вони
не переказали б мої слова Луціусу.

// 3381
//“Father wouldn’t __do__ that!” Draco said, looking genuinely aghast.
//“They’re __mine!__”
-- Батько б __так__ не вчинив! -- жахнувся Драко. -- Вони __мої__!

// 3382
//“I’m sorry, Draco,” Harry said. “I’m just not sure I can believe everything you
//believe about your father. Imagine it was your secret and me telling you my
//father wouldn’t do that.”
-- Вибач, Драко, -- сказав Гаррі. -- Але я не певен, що можу повірити всьому, у що
про нього віриш ти. Уяви, що це твій власний секрет, і що це я намагаюся переконати
тебе, ніби мій батько так не вчинить.

// 3383
//Draco nodded slowly. “You’re right. __I’m__ sorry, Harry. It was wrong of
//me to ask it of you.”
Драко повільно кивнув. 

-- Ти правий. __Вибач__, Гаррі. Вимагати цього від тебе було помилкою.

// 3384
//__How did I get __this__ promoted? Shouldn’t he hate me now? __Harry
//had the feeling he was looking at something exploitable… he just wished his
//brain wasn’t so exhausted. Ordinarily he would have loved to try his hand at
//some complicated plotting.
__Коли це я встиг __так__ вирости в його очах? Хіба він не мав би зараз мене ненавидіти?__
Гаррі відчував, що перед ним щось, чим можна скористатися у своїх інтересах... От
тільки якби його мозок не був таким втомленим. Зазвичай, він залюбки випробував би
свої сили в підготовці складної інтриги.

// 3385
//“Anyway,” Harry said. “Trade. I tell you a fact that isn’t on the grapevine,
//and does not __go__ on the grapevine, and in __particular__ does not
//go to your father, and in return you tell me what you and Slytherin think about
//the whole business.”
-- Хай там як, -- сказав Гаррі. -- Обмін. Я поділюся фактом, що є невідомим
сарафанному радіо, __не має__ стати відомим сарафанному радіо, і __особливо__ не
має стати відомим твоєму батьку. А навзамін ти розкажеш мені, що ти і Слизерин
думаєте про всю цю справу.

// 3386
//“Deal!”
-- Згода!

// 3387
//Now to make this as vague as possible… something that wouldn’t hurt much even
//if it did get out… “What I said was true. I did discover one of Severus’s
//secrets, and I did do some blackmail. But Severus wasn’t the only person
//involved.”
Тепер треба зробити це якомога більш розпливчастим... Щось, що не нашкодить, навіть якщо
випливе назовні... 

-- Я сказав тобі правду. Я довідався про один із секретів Северуса,
і я справді його шантажував. Але до цього причетний не тільки Северус.

// 3388
//“__I knew it!__” Draco said exultantly.
-- __Я так і знав!__ -- емоційно вигукнув Драко.

// 3389
//Harry’s stomach sank. He had apparently said something very significant and he
//did not know why. This was not a good sign.
У Гаррі тенькнуло в грудях. Видавалося, він сказав щось дуже важливе, але не
розумів, що саме. Це поганий знак.

// 3390
//“All right,” Draco said. He was grinning widely now. “So here’s what the
//reaction was like in Slytherin. First, all the idiots were like, ‘We hate Harry
//Potter! Let’s go beat him up!’”
-- Добре, -- продовжив Драко. Він широко посміхався. -- Щодо реакції в Слизерині...
Спершу всі ідіоти волали на кшталт "`Ми ненавидимо Гаррі Поттера! Побиймо його!`"

// 3391
//Harry choked. “What is __wrong__ with the Sorting Hat? That’s not
//Slytherin, it’s __Gryffindor__ -”
Гаррі похлинувся. 

-- Та що ж __не так__ з Сортувальним Капелюхом? Це не по-слизеринськи,
це __по-ґрифіндорськи__.

// 3392
//“Not all children are prodigies,” Draco said, though he was smiling in a sort
//of nasty-conspiratorial way, as though to suggest that he privately agreed with
//Harry’s opinion. “And it took around fifteen seconds for someone to explain to
//them why this might not be such a favor to Snape, so you’re fine. Anyway, after
//that was the second wave of idiots, the ones who were saying, ‘Looks like Harry
//Potter was just another do-gooder after all.’”
//@do-gooder
-- Не всі діти є вундеркіндами, -- заперечив Драко, хоча усміхався дивною змовницькою
посмішкою, наче насправді погоджувався з оцінкою Гаррі. -- Знадобилося десь із п`'ятнадцять 
секунд, щоб їм пояснили, що це не піде на користь Снейпу, тому не переймайся. Хай там як, 
друга хвиля ідіотів сказала, що "`видається, Гаррі Поттер, врешті-решт, просто ще один
поборник справедливості`".

// 3393
//“And then?” Harry said, smiling even though he had no idea why __that__
//was stupid.
-- А потім? -- спитав Гаррі, посміхаючись, хоча він гадки не мав, чому __ця__
ідея здавалась Драко дурною.

// 3394
//“And then the actual smart people started talking. It’s obvious that you found
//a way to put a __lot__ of pressure on Snape. And while that could be more
//than one thing… the obvious __next__ thought is that it has something to
//do with Snape’s unknown hold over Dumbledore. Am I right?”
-- А потім почали говорити справді розумні люди. Вочевидь, ти знайшов __важіль впливу__ 
на Снейпа. І хоча це могло бути що завгодно... Проте очевидною __наступною__ думкою 
було те, що це якось пов`'язано з його таємничим впливом на Дамблдора. Я правий?

// 3395
//“No comment,” Harry said. At least his brain was processing this part
//correctly. House Slytherin __had__ wondered why Severus wasn’t getting
//fired. And they’d concluded that Severus was blackmailing Dumbledore. Could
//that actually be true…? But Dumbledore hadn’t seemed to act like it…
-- Без коментарів, -- сказав Гаррі. Принаймні цю частину його мозок проаналізував
правильно. Слизеринці __цікавилися__, чому Северуса досі не звільнили. І вони
дійшли висновку, що Снейп шантажує Дамблдора. Чи може це бути правдою?.. Проте
дії Дамблдора не наштовхували на таку думку...

// 3396
//Draco went on talking. “And the __next__ thing the smart people pointed
//out was that if you could put enough pressure on Snape to make him leave half
//of Hogwarts alone, that meant you probably had enough power to get rid of him
//entirely, if you wanted. What you did to him was a humiliation, just the same
//way he tried to humiliate you - but you left us our Head of House.”
Драко продовжував:

-- __Далі__ розумні люди зазначили, що коли вже ти зміг
натиснути на Снейпа достатньо сильно, щоб змусити його залишити в спокої половину
Гоґвортсу, то, мабуть, ти мав достатньо впливу для того, щоб взагалі його позбутися.
Натомість ти принизив його, так само, як він намагався принизити тебе, -- та все ж
ти залишив нам нашого вихователя.

// 3397
//Harry made his smile wider.
Гаррі широко всміхався.

// 3398
//“And then the __really__ smart people,” Draco said, his face now serious,
//“went off and had a little discussion by themselves, and someone pointed out
//that it would be a very stupid thing to leave an enemy around like that. If you
//could break his hold over Dumbledore, the obvious thing would be to just do it.
//Dumbledore would kick Snape out of Hogwarts and maybe even have him killed,
//he’d be __very__ grateful to you, and you wouldn’t have to worry about
//Snape sneaking into your dorm room at night with interesting potions.”
-- А тоді __по-справжньому__ розумні люди, -- сказав Драко з серйозним виглядом,
-- обговорили це між собою, і дехто зауважив, що дурістю було б отак залишати біля
себе ворога. Якби ти міг зламати Снейпів важіль впливу на Дамблдора, то, вочевидь,
так і вчинив би. Тоді Дамблдор викинув би Снейпа з Гоґвортсу і, можливо, навіть
організував би його вбивство. Він був би __дуже__ вдячним тобі, і ти не мав би
перейматись через Снейпа, що прокрадеться вночі в твою спальню з якимись цікавими
зіллями.

// 3399
//Harry’s face was now neutral. He had not thought of that and he really, really
//should have. “And from this you concluded…?”
Гаррі зберіг нейтральний вираз обличчя. Він про таке не подумав, хоча справді,
справді мав би.

-- І тоді ви вирішили?..

// 3400
//“Snape’s hold was some secret of Dumbledore’s and __you’ve got the
//secret!__” Draco was looking exultant. “It can’t be powerful enough to destroy
//Dumbledore entirely, or Snape would have used it by now. Snape refuses to use
//his hold for anything except staying king of Slytherin House in Hogwarts, and
//he doesn’t always get what he wants even then, so it must have limits. But it’s
//__got__ to be really good! Father’s been trying to get Snape to tell him
//for __years!__”
-- Снейп заволодів якимось секретом Дамблдора, і __ти дізнався, що це за секрет__!
-- в очах Драко сяяв тріумф. -- Цей секрет недостатньо вагомий, щоб повністю знищити 
Дамблдора, інакше Снейп давно вже б це зробив. Снейп використовує свій вплив тільки 
для того, щоб залишатися королем Слизерину в Гоґвортсі, та навіть це не завжди 
виходить. Тому цей вплив має бути обмеженим. Та все ж це __має__ бути щось важливе!
Батько __роками__ намагався вмовити Снейпа розповісти!

// 3401
//“And,” Harry said, “now Lucius thinks maybe __I__ can tell him. Did you
//already get an owl -”
-- Отже,  -- сказав Гаррі, -- тепер Луціус вважає, що, можливо, __я__ можу йому розповісти. 
Ти вже отримав сову?..

// 3402
//“I will tonight,” Draco said, and laughed. “It will say,” his voice took on a
//different, more formal cadence, “__My beloved son: I’ve already told you
//of Harry Potter’s potential importance. As you have already realized, his
//importance has now become greater and more urgent. If you see any possible
//avenue of friendship or point of pressure with him, you must pursue it, and the
//full resources of Malfoy are at your disposal if needed.__”
-- Сьогодні вночі отримаю, -- розсміявся Драко. -- Там буде написано,
-- сказав він більш офіційно. -- __Мій любий сину! Я вже казав тобі про потенційну
важливість Гаррі Поттера. Як ти вже зрозумів, його важливість тепер зросла і
актуалізувалася. Якщо ти бачиш спосіб потоваришувати з ним чи впливати на нього,
скористайся ним. Всі ресурси Мелфоїв у твоєму розпорядженні, якщо треба.__

// 3403
//Gosh. “Well,” Harry said, “not commenting on whether or not your whole
//complicated edifice of theory is true, let me just say that we are not quite
//such good friends as yet.”
Хай йому грець.

– Ну, -- сказав Гаррі, -- я не коментуватиму істинність чи хибність твоєї заплутаної 
системи припущень. Скажу лише, що ми ще не настільки близькі друзі.

// 3404
//“I know,” Draco said. Then his face turned __very__ serious, and his voice
//grew quiet even within the blur. “Harry, has it occurred to you that if you
//know something Dumbledore doesn’t want known, Dumbledore might simply have you
//killed? And it would turn the Boy-Who-Lived from a potential competing leader
//into a valuable martyr, too.”
-- Я знаю, -- відповів Драко. Тоді його обличчя стало __дуже__ серйозним, і він
стишив голос, незважаючи на звукову завісу. -- Гаррі, чи ти замислювався над тим,
що якщо ти дізнався дещо, що Дамблдор воліє приховувати, то він може просто вбити
тебе? Це на додачу перетворить Хлопчика-Що-Вижив з потенційного лідера-конкурента
в мученика.

// 3405
//“No comment,” Harry said yet again. He hadn’t thought of that last part,
//either. Didn’t __seem__ to be Dumbledore’s style… but…
-- Без коментарів, -- повторив Гаррі. Про цю останню частину він тим паче
не подумав. __Видавалося__, це не в стилі Дамблдора, проте…

// 3406
//“Harry,” Draco said, “you’ve obviously got __incredible __talent, but
//you’ve got no training and no mentors and you do stupid things sometimes and
//__you really need an advisor who knows how to do this or you’re going to
//get hurt!__” Draco’s face was fierce.
-- Гаррі, вочевидь, ти __надзвичайно__ талановитий, проте тобі не вистачає
підготовки, ти не мав наставників, і час від часу ти робиш дурниці. __Тобі справді
потрібен радник, який знається на таких речах, бо інакше ти врешті-решт
постраждаєш!__ -- обличчя Драко було дуже суворим.

// 3407
//“Ah,” Harry said. “An advisor like Lucius?”
-- А. Такий радник, як Луціус? -- спитав Гаррі.

// 3408
//“Like __me!__” said Draco. “I’ll promise to keep your secrets from Father,
//from __everyone,__ I’ll just help you figure out whatever you want to do!”
-- Як __я__! -- відповів Драко. -- Я обіцяю берегти твої таємниці від 
батька, від __будь-кого__, я просто допомогатиму тобі розібратися, хай що ти 
там хочеш зробити!

// 3409
//Wow.
Ого.

// 3410
//Harry saw that zombie-Quirrell was staggering in through the doors.
Гаррі побачив, як зомбі-Квірел, хитаючись, зайшов до аудиторії.

// 3411
//“Class is about to start,” said Harry. “I’ll think about what you said, there’s
//lots of times I __do__ wish I had all your training, it’s just I don’t
//know how I can trust you so quickly -”
-- Урок от-от почнеться, -- сказав Гаррі. -- Я обміркую твої слова, мені справді
__не вистачає__ твоєї підготовки, проте я не певен, що можу так швидко тобі довіритися...

// 3412
//“You shouldn’t,” Draco said, “it’s too soon. See? I’ll give you good advice
//even if it hurts me. But we should maybe __hurry up__ and become closer
//friends.”
-- Ти й не маєш бути певен, -- відповів Драко, -- це занадто скоро. Бачиш? Я
даю тобі слушну пораду, навіть якщо вона шкодить мені. Але, мабуть, нам варто
__поквапитися__ з тим, щоб стати ближчими друзями.

// 3413
//“I’m open to that,” said Harry, who was already trying to figure out how to
//exploit it.
-- Я не проти, -- сказав Гаррі. Він вже обдумував, як саме можна використати ці
відносини.

// 3414
//“Another bit of advice,” Draco said hurriedly as Quirrell slouched toward his
//desk, “right now everyone in Slytherin’s wondering about you, so if you’re
//courting us, which I think you are, you should do something that signals
//friendship to Slytherin. __Soon__, like today or tomorrow.”
-- Ще одна невеличка порада, -- хутко промовив Драко, поки Квірел плентався до
свого столу, -- зараз кожен слизеринець цікавиться тобою, тому якщо ти залицяєшся
до нас, а, я гадаю, це так, то вчини щось, що сигналізуватиме про дружбу зі
Слизерином. __Якомога швидше__, наприклад сьогодні чи завтра.

// 3415
//“Letting Severus go on awarding extra House points to Slytherin wasn’t enough?”
//No reason Harry couldn’t take credit for it.
-- Того, що Северус і надалі нараховуватиме Слизерину додаткові очки, недостатньо?
-- Гаррі не бачив причини, щоб не приписати собі цю заслугу.

// 3416
//Draco’s eyes flickered with realization, then he said rapidly, “It’s not the
//same, trust me, it’s got to be something obvious. Push your mudblood rival
//Granger into a wall or something, everyone in Slytherin will know what that
//means -”
Очі Драко блиснули усвідомленням, і він швидко промовив:

-- Це не те, повір мені. Це має бути щось очевидне. Штовхни об стіну ту
бруднокровку Ґрейнджер, твою суперницю, чи щось таке. Тоді всі в Слизерині
зрозуміють, що це означає...

// 3417
//“That is __not__ how it works in Ravenclaw, Draco! If you have to push
//someone into a wall it means your brain is too __weak__ to beat them the
//right way and everyone in Ravenclaw __knows that__ -”
-- Так __не личить__ чинити  рейвенкловцю, Драко! Якщо ти маєш штовхати
когось об стіну, це означає, що тобі __бракує__ мізків для перемоги правильним
способом, і всі в Рейвенклові __знають це__.

// 3418
//The screen on Harry’s desk flickered on, provoking a sudden wash of nostalgia
//for television and computers.
Екран на парті Гаррі заблимав, чим викликав певну ностальгію за телевізорами та 
моніторами комп’ютерів.

// 3419
//“Ahem,” said Professor Quirrell’s voice, seeming to speak personally to Harry
//out of the screen. “Please take your seats.”
-- Кхи-кхи, -- професор Квірел з екрану звертався наче персонально до Гаррі.
-- Будь ласка, сядьте на свої місця.

***

// 3420
//And the children were all seated and staring at the repeater screens on their
//desks, or looking down directly at the great white marble stage where Professor
//Quirrell stood, leaning on his desk atop the small dais of darker marble.
Діти розсілися по місцях і втупилися хто в екрани-ретранслятори, хто безпосередньо
на велику білу мармурову сцену, що на ній стояв професор Квірел. Він спирався на
свій стіл, що стояв на невисокому помості з темнішого мармуру.

// 3421
//“Today,” said Professor Quirrell, “I had planned to teach you your first
//defensive spell, a small shield that was the ancestor of today’s
//__Protego.__ But on second thought I have changed today’s lesson plan in
//the light of recent events.”
-- Сьогодні, -- мовив професор Квірел, -- я планував був навчити вас вашому
першому захисному закляттю, маленькому щиту, попереднику сучасного "`Протеґо`".
Але, в світлі останніх подій, я змінив план сьогоднішнього уроку.

// 3422
//Professor Quirrell’s gaze searched the rows of seats. Harry winced from where
//he was sitting, in the back row. He had a feeling he knew who was about to be
//called on.
Погляд професора Квірела шукав когось між рядів сидінь. Гаррі здригнувся на своєму місці 
за останньою партою. Він мав передчуття, що знає, кого зараз викличуть.

// 3423
//“Draco, of the Noble and Most Ancient House of Malfoy,” said Professor
//Quirrell.
-- Драко зі шляхетного і найдавнішого роду Мелфоїв, -- сказав професор Квірел.

// 3424
//Whew.
Фух.

// 3425
//“Yes, Professor?” said Draco. His voice was amplified, seeming to come from the
//repeater screen on Harry’s desk, which showed Draco’s face as he spoke. Then
//the screen shifted back to Professor Quirrell, who said:
-- Так, професоре? -- відповів Драко.

Його підсилений голос наче долунав з екрану-ретранслятора на парті Гаррі, що показував
також його обличчя, коли той говорив. Згодом на екран повернулося зображення професора
Квірела, що продовжував:

// 3426
//“Is it your ambition to become the next Dark Lord?”
-- Чи прагнете ви стати наступним темним лордом?

// 3427
//“That’s an odd question, Professor,” said Draco. “I mean, who’d be dumb enough
//to admit it?”
-- Яке дивне питання, професоре, -- відповів Драко. -- Я маю на увазі, який дурень 
зізнається в такому?

// 3428
//A few students laughed, but not many.
Декілька учнів засміялись, але далеко не всі.

// 3429
//“Indeed,” said Professor Quirrell. “So while there’s no point in asking any of
//you, it would not surprise me in the slightest if there were a student or two
//in my classes who harbored ambitions of being the next Dark Lord. After all,
//__I__ wanted to be the next Dark Lord when __I__ was a young
//Slytherin.”
-- Саме так, -- сказав професор Квірел. -- Отже немає причини питати про це решту. 
Та мене анітрохи не здивує, якщо хоча б один чи двоє з моїх учнів затаїли прагнення 
стати наступним темним лордом. Врешті-решт, __я__ бажав ним стати, коли був юним 
слизеринцем.

// 3430
//This time the laughter was much more widespread.
Цього разу сміялася значно більша кількість учнів.

// 3431
//“Well, it __is__ the House of the ambitious, after all,” Professor
//Quirrell said, smiling. “I didn’t realize until later that what I really
//enjoyed was Battle Magic, and that my true ambition was to become a great
//fighting wizard and someday teach at Hogwarts. In any case, when I was thirteen
//years old, I read through the historical sections of the Hogwarts library,
//scrutinizing the lives and fates of past Dark Lords, and I made a list of all
//the mistakes that __I__ would never make when __I__ was a Dark Lord
//-”
-- Зрештою, __це є__ гуртожитком амбітних людей, -- з посмішкою додав професор
Квірел. -- Лише пізніше я усвідомив, що бойова магія подобається мені значно більше,
і моїм справжнім бажанням було стати могутнім бойовим магом та колись навчати в
Гоґвортсі. В будь-якому випадку, коли мені було тринадцять, я перечитав усі книжки
з історичного розділу бібліотеки Гоґвортсу й ретельно вивчив життя та долю попередніх
темних лордів, а потім склав список усіх тих помилок, яких __я__ ніколи не припущуся,
коли __я__ стану темним лордом.

// 3432
//Harry giggled before he could stop himself.
Гаррі не втримався і хихикнув.

// 3433
//“Yes, Mr. Potter, very amusing. So, Mr. Potter, can you guess what was the very
//first item on that list?”
-- Так, містере Поттер, дуже захопливо. Отже, містере Поттер, спробуйте здогадатись, 
яка помилка була першою в списку?

// 3434
//__Great.__ “Um… never use a complicated way of dealing with an enemy when
//you can just Abracadabra them?”
__Чудово.__

-- Е-е... Ніколи не використовувати заплутаний спосіб для перемоги над ворогом, 
коли можна просто Абракадабрнути його?

// 3435
//“The __term,__ Mr. Potter, is __Avada Kedavra,__” Professor
//Quirrell’s voice sounded a bit sharp for some reason, “and no, that was
//__not__ on the list I made at age thirteen. Would you care to guess
//again?”
-- Правильний __термін__, містере Поттер, __Авада Кедавра__, -- голос професора 
Квірела чомусь став більш різким, -- та ні, цього __не було__ в списку який
я зробив коли мені було тринадцять. Чи не буде ваша ласка здогадатися ще раз?

// 3436
//“Ah… never brag to anyone about your evil master plan?”
//@master plan
-- Е-ем... ніколи не вихвалятися своїм злим планом панування перед іншими?

// 3437
//Professor Quirrell laughed. “Ah, now __that__ was number two. My, Mr.
//Potter, have we been reading the same books?”
Професор Квірел засміявся.

-- О, __це__ був пункт номер два мого списку. Містере Поттер, невже ми читали 
одні й ті самі книжки?

// 3438
//There was more laughter, with an undertone of nervousness. Harry clenched his
//jaw tightly shut and said nothing. A denial would accomplish nothing.
Клас наповнився трохи знервованим сміхом. Гаррі зціпив зуби та промовчав.
Запереченнями він нічого не досягне.

// 3439
//“But no. The __first__ item was, ‘I will not go around provoking strong,
//vicious enemies.’ The history of the world would be very different if
//Mornelithe Falconsbane or Hitler had grasped that elementary point. Now
//__if,__ Mr. Potter - just __if__ by some chance you harbor an
//ambition similar to the one I held as a young Slytherin - even so, I hope it is
//not your ambition to become a __stupid__ Dark Lord.”
-- Проте ні. __Першим__ пунктом списку було: "`Я ніколи не провокуватиму сильних, 
небезпечних противників`". Історія світу була б зовсім іншою, якби Морнеліт
Фальконсбейн чи Гітлер усвідомлювали цю просту істину. Тепер, містере Поттер,
__якщо__, наголошую, __якщо__ раптом ви затаїли амбіції подібні до тих, що були
в мене в шкільні роки, то, сподіваюся, ви не плануєте стати __дурним__ темним лордом.

// 3440
//“Professor Quirrell,” Harry said, gritting his teeth, “I am a
//__Ravenclaw__ and it is not my ambition to be stupid, period. I know that
//what I did today was dumb. But it wasn’t __Dark!__ I was __not__ the
//one who threw the first punch in that fight!”
-- Професоре Квірел, -- процідив Гаррі крізь зуби, -- я -- рейвенкловець,
і моя мета -- не бути дурним. Крапка. Я знаю, що сьогодні скоїв дурницю. Та це
не було проявом __Темряви__! __Не я__ завдав першого удару в цій бійці!

// 3441
//“You, Mr. Potter, are an idiot. But then so was I at your age. Thus I
//anticipated your answer and altered today’s lesson plan accordingly. Mr.
//Gregory Goyle, if you would come forward, please?”
-- Ви дурень, містере Поттер. Та у вашому віці я був таким самим. Тому я
передбачив вашу відповідь і змінив план сьогоднішнього уроку. Містере
Ґреґорі Ґойл, чи не буде ваша ласка вийти вперед?

// 3442
//There was a surprised pause in the classroom. Harry hadn’t been expecting that.
Від здивування в класі запала тиша. Такого Гаррі не очікував.

// 3443
//Neither, from the looks of it, had Mr. Goyle, who looked rather uncertain and
//worried as he mounted the marble stage and approached the dais.
Судячи з виразу обличчя, містер Ґойл цього також не очікував. Виглядаючи
невпевнено та схвильовано, він вибрався на мармурову платформу та наблизився до
підвищення.

// 3444
//Professor Quirrell straightened from where he was leaning on the desk. He
//looked suddenly stronger, and his hands formed fists and he drew himself up
//into a clearly recognizable martial arts stance.
Професор Квірел перестав спиратися на стіл та вирівнявся. Він раптово почав виглядати
сильнішим, а його руки стиснулися в кулаки. Він став у стійку, що, безсумнівно,
була з якогось бойового мистецтва.

// 3445
//Harry’s eyes widened at the sight, and he realized why Mr. Goyle had been
//called up.
Коли Гаррі побачив, що відбувається, і зрозумів, чому викликали містера Ґойла, у нього
поширшали очі.

// 3446
//“Most wizards,” Professor Quirrell said, “do not bother much with what a Muggle
//would term martial arts. Is not a wand stronger than a fist? This attitude is
//stupid. Wands are held in fists. If you want to be a great fighting wizard you
//__must__ learn martial arts to a level which would impress even a Muggle.
//I will now demonstrate a certain vitally important technique, which I learned
//in a __dojo,__ a Muggle school of martial arts, of which I shall speak
//more shortly. For now…” Professor Quirrell took several steps forward, still in
//stance, advancing on where Mr. Goyle stood. “Mr. Goyle, I will ask you to
//attack me.”
// dojo: http://kanku.org.ua/trenuvannja-v-dodjo/
-- Більшість чарівників, -- почав професор Квірел, -- не переймаються тим, що маґли
називають бойовими мистецтвами. Хіба паличка не сильніша за кулак? Таке ставлення --
ідіотизм. Палички тримають в кулаках. Якщо ви хочете стати видатним бойовим магом,
ви __мусите__ навчитися бойових мистецтв до рівня, що вразив би навіть маґла.
Зараз я продемонструю життєво необхідну техніку, якої я навчився в __додзьо__ --
маґлівській школі бойових мистецтв, про яку я розкажу трохи згодом. А зараз...

Професор Квірел зробив кілька кроків уперед, досі в стійці, наступаючи на містера Ґойла.

-- Містере Ґойл, я попрошу вас атакувати мене.

// 3447
//“Professor Quirrell,” said Mr. Goyle, his voice now amplified as the
//professor’s was, “can I ask what level -”
-- Професоре Квірел, -- сказав містер Ґойл голосом, що тепер був так само підсилений,
як і голос професора Квірела, -- скажіть, будь ласка, який рівень...

// 3448
//“Sixth __dan__. You will not be hurt and neither will I. And if you see an
//opening, please take it.”
//@opening 
-- Шостий __дан__. Не постраждаєте ані ви, ані я. Якщо побачите шанс -- будь ласка,
скористайтеся ним. 

// 3449
//Mr. Goyle nodded, looking much relieved.
Містер Ґойл з полегшенням кивнув.

// 3450
//“Note,” Professor Quirrell said, “that Mr. Goyle was afraid to attack someone
//who did not know martial arts to an acceptable level, for fear that I, or he,
//would be hurt. Mr. Goyle’s attitude is exactly correct and he has earned three
//Quirrell points for it. Now, fight!”
-- Зауважте, містер Ґойл побоявся атакувати когось, хто не володіє бойовими
мистецтвами на достатньому рівні, з побоювань, що хтось з нас постраждає.
Поведінка містера Ґойла абсолютно правильна, і за неї він отримує три бали Квірела.
А тепер -- бій! 

// 3451
//The young boy blurred forward, fists flying, and the Professor blocked every
//blow, dancing backward, Quirrell kicked and Goyle blocked and spun and tried to
//trip Quirrell with a sweeping leg and Quirrell hopped over it and it was all
//happening too fast for Harry to make sense of what was going on and then Goyle
//was on his back with his legs pushing and Quirrell was actually __flying
//through the air__ and then he hit the ground shoulder first and rolled.
Хлопець різко кинувся вперед, атакуючи руками, професор заблокував кожен удар.
Відступаючи, наче в танці, Квірел вдарив ногою, яку заблокував Ґойл, та, з розвороту,
широко замахнувшись, спробував збити професора з ніг власним ударом ноги. Професор
Квірел перестрибнув, і все відбувалося надто швидко, щоб Гаррі міг усвідомити,
що взагалі коїться, і тоді Ґойл опинився на спині, щосили штовхнувши ногами вгору, а
Квірел __полетів над підлогою__, після чого приземлився об неї плечем та перекотився.

// 3452
//“Stop!” cried Professor Quirrell from the ground, sounding a little panicked.
//“You win!”
-- Стоп! -- закричав професор Квірел з підлоги, в його голосі чулися нотки паніки.
-- Ви перемогли!

// 3453
//Mr. Goyle pulled up so sharply he staggered, almost tripping and falling from
//the aborted momentum of his headlong charge toward Professor Quirrell. His face
//showed utter shock.
Містер Ґойл підвівся так стрімко, що захитався, ледь не перечепившись та не впавши від
скасування імпульсу його стрімголової атаки на професора Квірела. На його лиці читався
цілковитий шок.

// 3454
//Professor Quirrell arched his back and bounced to his feet using a peculiar
//springing motion that made no use of his hands.
Професор Квірел вигнувся у спині та стрибнув на ноги дивним пружним рухом без
допомоги рук. 

// 3455
//There was a silence in the classroom, a silence born of total confusion.
В класі запанувала тиша. Породжена загальною, цілковитою розгубленістю тиша. 

// 3456
//“Mr. Goyle,” said Professor Quirrell, “what vitally important technique did I
//demonstrate?”
-- Містере Ґойл, -- сказав професор Квірел, -- яку життєво необхідну техніку
я щойно продемонстрував?

// 3457
//“How to fall correctly when someone throws you,” said Mr. Goyle. “It’s one of
//the very first lessons you learn -”
-- Як правильно падати, коли хтось кидає вас, -- відповів містер Ґойл. -- Це один
з найперших уроків, що ти вивчаєш коли...

// 3458
//“That too,” said Professor Quirrell.
-- І її також, -- сказав професор Квірел.

// 3459
//There was a pause.
Знову настала коротка тиша.

// 3460
//“The vitally important technique which I demonstrated,” said Professor
//Quirrell, “was how to lose. You may go, Mr. Goyle, thank you.”
-- Життєво необхідна техніка, що я продемонстрував, -- як програвати. Ви
можете йти, містере Ґойл, дякую.

// 3461
//Mr. Goyle walked off the platform, looking rather bewildered. Harry felt the
//same way.
Містер Ґойл зійшов з платформи, виглядаючи доволі збентеженим. Гаррі почувався
так само.

// 3462
//Professor Quirrell walked back to his desk and resumed leaning on it.
//“Sometimes we forget the most basic things, since it has been too long since we
//learned them. I realized I had done the same with my own lesson plan. You do
//not teach students to throw until you have taught them to fall. And I must not
//teach you to fight if you do not understand how to lose.”
Професор повернувся до свого стола та знову сперся на нього.

-- Інколи, ми забуваємо самісінькі основи, бо минуло надто багато часу відколи ми
вивчили їх. Я усвідомив, що зробив те ж саме з навчальним планом. Не можна вчити
студентів кидати, доки не навчиш їх падати. І я не можу вчити вас перемагати,
доки ви не зрозумієте як програвати. 

// 3463
//Professor Quirrell’s face hardened, and Harry thought he saw a hint of pain, a
//touch of sorrow, in those eyes. “I learned how to lose in a __dojo__ in
//Asia, which, as any Muggle knows, is where all the good martial artists live.
//This __dojo__ taught a style which had a reputation among fighting wizards
//as adapting well to magical dueling. The Master of that __dojo__ - an old
//man by Muggle standards - was that style’s greatest living teacher. He had no
//idea that magic existed, of course. I applied to study there, and was one of
//the few students accepted that year, from among many contenders. There might
//have been a tiny bit of special influence involved.”
Лице професора Квірела стало жорсткішим, і Гаррі здалося, що він побачив біль,
смуток в очах професора.

-- Я навчився програвати в __додзьо__ в Азії, що, як всі маґли знають, є місцем, де
живуть всі хороші майстри бойових мистецтв. Це __додзьо__ навчало стилю, що серед
бойових магів мав репутацію такого, що добре поєднувався з магічними дуелями.
Майстер того __додзьо__ -- старий чоловік за мірками маґлів -- був найвидатнішим
учителем цього стилю з тоді живих. Звісно, він навіть гадки не мав, що магія існує.
Я спробував потрапити на навчання туди, і зі всіх претендентів я став одним з небагатьох
учнів того року, кого прийняли. Можливо, мала місце деяка крихта особливого впливу. 

// 3464
//There was some laughter in the classroom. Harry didn’t share it. That hadn’t
//been right at all.
В класі подекуди засміялися. Гаррі не розділяв цього сміху. Це було зовсім не правильно.

// 3465
//“In any case. During one of my first fights, after I had been beaten in a
//particularly humiliating fashion, I lost control and attacked my sparring
//partner -”
-- Хай там як, під час одного з моїх перших поєдинків, коли мене побили в особливо
принизливий спосіб, я втратив над собою контроль, та атакував мого спаринг-партнера...

// 3466
//__Yikes.__
__Яйкс__.

// 3467
//“- thankfully with my fists, rather than my magic. The Master, surprisingly,
//did not expel me on the spot. But he told me that there was a flaw in my
//temperament. He explained it to me, and I knew that he was right. And then he
//said that I would learn how to lose.”
-- ...на щастя кулаками, а не магією. Майстер, на диво, не вигнав мене одразу ж
на місці. Він сказав мені, що в моєму темпераменті є вада. Він пояснив її мені,
і я знав, що він правий. Після чого він сказав, що я навчуся програвати.

// 3468
//Professor Quirrell’s face was expressionless.
Обличчя професора Квірела не видавало емоцій.

// 3469
//“Upon his strict orders, all of the students of the __dojo__ lined up. One
//by one, they approached me. I was __not__ to defend myself. I was only to
//beg for mercy. One by one, they slapped me, or punched me, and pushed me to the
//ground. Some of them spat on me. They called me awful names in their language.
//And to each one, I had to say, ‘I lose!’ and similar such things, such as ‘I
//beg you to stop!’ and ‘I admit you’re better than me!’”
-- Згідно його строгого наказу, всі учні __додзьо__ вишикувалися. Один за одним,
вони підходили до мене. Я мав __не захищатися__. Лише просити пощади. Один
за одним, вони давали мені ляпаса, били мене, чи штовхали мене на землю. Дехто навіть
плював на мене. Вони лаяли мене жахливими словами їхньою мовою. І кожному я
повинен був казати "`я програв!`" та інші схожі речі, як "`молю вас, перестаньте!`" 
і "`я визнаю, що ви кращі за мене!`"

// 3470
//Harry was trying to imagine this and simply failing. There was no way something
//like that could have happened to the dignified Professor Quirrell.
Гаррі намагався це уявити, і йому не вдавалося. Просто немислимо, щоб щось
подібне могло статися з поважним професором Квірелом.

// 3471
//“I was a prodigy of Battle Magic even then. With wandless magic alone I could
//have killed everyone in that dojo. I did not do so. I learned to lose. To this
//day I remember it as one of the most unpleasant hours of my life. And when I
//left that dojo eight months later - which was not nearly enough time, but was
//all I could afford to spend - the Master told me that he hoped I understood why
//that had been necessary. And I told him that it was one of the most valuable
//lessons I had ever learned. Which was, and is, true.”
-- Я був генієм Бойової Магії вже тоді. За допомогою самої лише безпаличкової
магії я міг повбивати всіх в тому __додзьо__. Але я цього не зробив. Я навчився
програвати. Навіть сьогодні цей спогад є одним з найнеприємніших у моєму житті. Коли
я покинув __додзьо__ вісім місяців потому -- цього часу навіть близько не було
достатньо, проте більшого я тоді не міг собі дозволити, -- Майстер сказав мені, що
надіється, що я зрозумів, чому це було потрібно. Я відповів, що це було одним з
найцінніших уроків, коли-небудь вивчених мною, що було й залишається правдою. 

// 3472
//Professor Quirrell’s face turned bitter. “You are wondering where this
//marvelous __dojo__ is, and whether you can study there. You cannot. For
//not long afterward, another would-be student came to that hidden place, to that
//remote mountain. He-Who-Must-Not-Be-Named.”
Обличчя професора Квірела набуло гіркого виразу.

-- Ви, мабуть, гадаєте, де ж саме це дивовижне __додзьо__, і чи можете ви там
повчитися. Не можете. Бо невдовзі інший спраглий до знань учень навідався до того
схованого місця, до тієї далекої гори. Той-Кого-Не-Можна-Називати.

// 3473
//There was the sound of many breaths being drawn in simultaneously. Harry felt
//sick to his stomach. He knew what was coming.
Гаррі почув, як багато хто одночасно глибоко вдихнув. Гаррі відчув нудоту
в шлунку. Він знав, що зараз буде.

// 3474
//“The Dark Lord came to that school openly, without disguise, glowing red eyes
//and all. The students tried to bar his way and he simply Apparated through.
//There was terror there, but discipline, and the Master came forth. And the Dark
//Lord demanded - not asked, but demanded - to be taught.”
-- Темний Лорд прийшов до тієї школи відкрито, без маскування, палаючі червоні очі
та все таке. Учні спробували перегородити йому шлях, та він просто роз`'явився крізь
них. Їх охопив жах, та вони були дисциплінованими, і Майстер вийшов уперед. Темний
Лорд почав вимагати -- не просити, а вимагати -- щоб його навчили.

// 3475
//Professor Quirrell’s face was very hard. “Perhaps the Master had read too many
//books telling the lie that a true martial artist could defeat even demons. For
//whatever reason, the Master refused. The Dark Lord asked why he could not be a
//student. The Master told him he had no patience, and that was when the Dark
//Lord ripped his tongue out.”
Обличчя професора Квірела було дуже напруженим.

-- Можливо, Майстер прочитав забагато книжок, що обманюють, кажучи, що справжній
майстер бойових мистецтв може перемогти навіть демонів. Хай з якої причини, але
Майстер відмовився. Темний Лорд запитав чому він не може стати учнем, і Майстер
відповів, що в того недостатньо терпіння, -- саме тоді Темний Лорд вирвав йому язика.

// 3476
//There was a collective gasp.
Всі колективно скрикнули.

// 3477
//“You can guess what happened next. The students tried to rush the Dark Lord and
//fell over, stunned where they stood. And then…”
-- Ви можете здогадатися, що сталося потім. Учні спробували навалитися на Темного
Лорда й попадали, паралізовані на місці. І тоді...

// 3478
//Professor Quirrell’s voice faltered for a moment, then resumed.
Професор Квірел затнувся на мить, після чого продовжив.

// 3479
//“There is an Unforgiveable Curse, the Cruciatus Curse, which produces
//unbearable pain. If the Cruciatus is extended for longer than a few minutes it
//produces permanent insanity. One by one, the Dark Lord Crucioed the Master’s
//students into insanity, and then finished them off with the Killing Curse,
//while the Master was forced to watch. When all his students had died in this
//way, the Master followed. I learned this from the single surviving student,
//whom the Dark Lord had left alive to tell the tale, and who had been a friend
//of mine…”
-- Існує непрощенне закляття, "`Круціатус`", що спричиняє нестерпний біль. Якщо
Круціатус застосовувати довше, ніж кілька хвилин, це призводить до незворотної
втрати розуму. Одного за одним, по черзі, Темний Лорд звів з розуму учнів Майстра
за допомогою "`Круціатуса`", після чого убив їх смертельним закляттям. Увесь цей
час Майстер був змушений спостерігати. Коли всі його учні загинули в цей спосіб,
Майстра спіткала та ж доля. Я дізнався це від єдиного учня, що вижив, кого Темний
Лорд залишив у живих, щоб він розказав цю історію, і хто був моїм другом...

// 3480
//Professor Quirrell turned away, and when he turned back a moment later, he once
//again seemed calm and composed.
Професор Квірел відвернувся від них, а коли він повернувся назад миттю потому, то
знову здавався спокійним та зібраним.

// 3481
//“Dark Wizards cannot keep their tempers,” Professor Quirrell said quietly. “It
//is a nearly universal flaw of the species, and anyone who makes a habit of
//fighting them soon learns to rely on it. Understand that the Dark Lord did
//__not__ win that day. His goal was to learn martial arts, and yet he left
//without a single lesson. The Dark Lord was foolish to wish that story retold.
//It did not show his strength, but rather an exploitable weakness.”
// копія 20:3646
-- Темні Чаклуни не вміють тримати себе під контролем, -- тихо сказав професор
Квірел. -- Це майже універсальний недолік їхнього виду, і всі, хто змушені часто
з ними боротися, швидко вчаться покладатися на нього. Зрозумійте, що Темний Лорд
__не переміг__ того дня. Його метою було навчитися бойових мистецтв, та він
пішов без жодного уроку. Темний Лорд був дурним у своєму бажанні, щоб цю історію
переказували. Вона показує не його силу, а, радше, слабкість, яку можна використати.

// 3482
//Professor Quirrell’s gaze focused on a single child in the classroom.
Погляд професора Квірела сфокусувався на одному учневі.

// 3483
//“Harry Potter,” Professor Quirrell said.
-- Гаррі Поттер, -- сказав професор Квірел.

// 3484
//“Yes,” Harry said, his voice hoarse.
-- Так, -- відповів Гаррі хрипким голосом.

// 3485
//“What __precisely__ did you do wrong today, Mr. Potter?”
-- Скажіть __точно__, що саме ви зробили неправильно сьогодні, містере Поттер?

// 3486
//Harry felt like he was going to throw up. “I lost my temper.”
Гаррі почувався, наче його зараз знудить.

-- Я втратив над собою контроль.

// 3487
//“That is __not__ precise,” said Professor Quirrell. “I will describe it
//more exactly. There are many animals which have what are called dominance
//contests. They rush at each other with horns - trying to knock each other down,
//not gore each other. They fight with their paws - with claws sheathed. But why
//with their claws sheathed? Surely, if they used their claws, they would stand a
//better chance of winning? But then their enemy might unsheathe their claws as
//well, and instead of resolving the dominance contest with a winner and a loser,
//both of them might be severely hurt.”
// @dominance contest
-- Це __не точно__, -- відповів професор Квірел. -- Я поясню докладніше.
Існує багато тварин, що мають так звані змагання з домінування. Вони зіштовхуються
рогами у спробі збити противника з ніг, а не випустити йому кишки. Вони б`'ються
лапами із втягнутими кігтями. Але чому із втягнутими кігтями? Звісно ж, якби вони
застосували кігті, то в них був би значно більший шанс на перемогу? Але знову ж таки,
їхній суперник також може застосувати кігті, і тоді, замість визначення переможця
та переможеного в змаганні з домінування, обоє можуть серйозно постраждати. 

// 3488
//Professor Quirrell gaze seemed to come straight out at Harry from the repeater
//screen. “What you demonstrated today, Mr. Potter, is that - unlike those
//animals who keep their claws sheathed and accept the results - you do not know
//how to lose a dominance contest. When a __Hogwarts professor__ challenged
//you, you did not back down. When it looked like you might lose, you unsheathed
//your claws, heedless of the danger. You __escalated,__ and then you
//escalated __again.__ It started with a slap at you from Professor Snape,
//who was obviously dominant over you. Instead of losing, you slapped back and
//lost ten points from Ravenclaw. Soon you were talking about leaving Hogwarts.
//The fact that you escalated even further in some unknown direction, and somehow
//won at the end, does not change the fact that you are an idiot.”
Видавалося, професор Квірел дивився на Гаррі прямісінько з екрана ретранслятора.

-- Насправді ви продемонстрували сьогодні, містере Поттер, що на противагу
тваринам, що тримають кігті втягнутими та погоджуються з результатами, ви не
знаєте як програти змагання з домінування. Коли __професор Гоґвортсу__ кинув вам
виклик, ви не відступили. Коли здавалося, що ви можете програти, ви, незважаючи на
небезпеку, випустили кігті. Ви __загострили__ конфлікт, після чого загострили його
__знову__. Все почалося з ляпаса вам зі сторони професора Снейпа, що, очевидно, домінує
над вами. Замість того, щоб програти, ви дали ляпаса у відповідь і втратили десять
очок Рейвенклову. Незабаром ви вже говорили про те, щоб покинути Гоґвортс. Той факт,
що ви загострили конфлікт ще далі в якомусь невідомому напрямку, і навіть в результаті
перемогли, не змінює того факту, що ви, містере Поттер, -- ідіот.

// 3489
//“I understand,” Harry said. His throat was dry. That __had__ been precise.
//__Frighteningly__ precise. Now that Professor Quirrell had said it, Harry
//could see in hindsight that it was an __exactly__ accurate description of
//what had happened. When someone’s model of you was that good, you had to wonder
//whether they were right about other things too, like your intent to kill.
-- Я розумію, -- сказав Гаррі. У нього пересохло в горлі. Це __було__ точно.
__Страх як__ точно. Тепер, коли професор Квірел це сказав, Гаррі, оглядаючись в
минуле, бачив, що це був __надзвичайно__ точний опис того, що відбулося. Коли
чиясь модель тебе настільки хороша, ти починаєш замислюватися, чи не праві вони
щодо інших речей, як то готовності вбити.

// 3490
//“The __next__ time, Mr. Potter, that you choose to escalate a contest
//rather than lose, you may lose __all__ the stakes you place on the table.
//I cannot guess what they were today. I can guess that they were far, far too
//high for the loss of ten House points.”
-- __Наступного__ разу, містере Поттер, коли ви виберете загострення конфлікту
замість поразки, ви можете втратити __всі__ ставки, що ви поставили на кін.
Я не знаю, якими вони у вас були сьогодні, але можу здогадатися, що вони були
значно, значно вищими за десять очок гуртожитку.

// 3491
//Like the fate of magical Britain. That was what he’d done.
Як, наприклад, доля чаклунської Британії. Ось чим він ризикував.

// 3492
//‘‘You will protest that you were trying to help all of Hogwarts, a much more
//important goal worthy of great risks. That is a __lie.__ If you had been
//-”
-- Ви заперечите, що намагалися допомогти всьому Гоґвортсу, значно важливіша
мета, що достойна великих ризиків. Це __брехня__. Якби ви...

// 3493
//“I would have taken the slap, waited, and picked the best possible time to make
//my move,” Harry said, his voice hoarse. “But that would have meant
//__losing__. Letting him be dominant over me. It was what the Dark Lord
//couldn’t do with the Master he wanted to learn from.”
-- То я б витримав ляпас, почекав, і вибрав найвдаліший момент для своїх дій, -- сказав
Гаррі хрипким голосом. -- Але це означало б __програти__. Дозволити йому домінувати
наді мною. Це було тим, чого Темний Лорд не зміг дозволити Майстрові, в якого він
хотів повчитися.

// 3494
//Professor Quirrell nodded. “I see that you have understood perfectly. And so,
//Mr. Potter, today you are going to learn how to lose.”
Професор Квірел кивнув.

-- Бачу, ви досконало все зрозуміли, а отже, містере Поттер, сьогодні ви навчитеся
програвати.

// 3495
//“I -”
-- Я...

// 3496
//“I will not hear any objections, Mr. Potter. It is evident both that you need
//this and that you are strong enough to take it. I assure you that your
//experience will not be so harsh as what I went through, though you may well
//remember it as the worst fifteen minutes of your young life.”
-- Я не почую ваших заперечень, містере Поттер. Очевидно, що вам це потрібно
й ви достатньо сильні, щоб через це пройти. Запевняю вас, що ваш досвід не
буде настільки жорстким, наскільки був мій, хоча ви, можливо, і запам`'ятаєте це
як найжахливіші п`'ятнадцять хвилин вашого молодого життя.

// 3497
//Harry swallowed. “Professor Quirrell,” he said in a small voice, “can we do
//this some other time?”
Гаррі ковтнув слину.

-- Професоре Квірел, -- тихо сказав він, -- можна зробити це іншим разом?

// 3498
//“No,” Professor Quirrell said simply. “You are five days into your Hogwarts
//education and already this has happened. Today is Friday. Our __next__
//defense class is on Wednesday. Saturday, Sunday, Monday, Tuesday, Wednesday…
//No, we do __not__ have time to wait.”
-- Ні, -- відповів професор Квірел. -- Ви вчитеся в Гоґвортсі лише п`'ять днів,
і ось що вже встигло трапитися. Сьогодні п`'ятниця. Наш __наступний__ урок захисту
в середу. Субота, неділя, понеділок, вівторок, середа... Ні, в нас __нема__ часу
зволікати.

// 3499
//There were a few laughs at this, but very few.
Кілька учнів захихикали на це, але небагато.

// 3500
//“Please consider it an order from your professor, Mr. Potter. What I would like
//to say is that otherwise I will not teach you any offensive spells, because I
//would then hear that you had severely hurt or even killed someone.
//Unfortunately I am told that your fingers are already powerful weapons. Do not
//snap them at any time during this lesson.”
-- Вважайте це наказом вашого професора, містере Поттер. Хочу повідомити
вас, що в іншому випадку я не вчитиму вас жодних атакувальних заклять, бо я
дізнаюся, що ви серйозно завдали комусь шкоди, чи навіть вбили когось. На жаль,
мені сказали, що ваші пальці вже достатньо могутня зброя. Ніколи не клацайте пальцями
на цьому уроці.

// 3501
//More scattered laughter, sounding rather nervous.
Більше хихикання, цього разу доволі нервового.

// 3502
//Harry felt like he might cry. “Professor Quirrell, if you do anything like what
//you talked about, it’s going to make me angry, and I really would rather not
//get angry again today -”
Гаррі відчув, що він ось-ось заплаче.

-- Професоре Квірел, якщо ви зробите щось на зразок того, про що ви розказували,
це мене розізлить, а я волів би не злитися сьогодні знову...

// 3503
//“The point is __not__ to avoid getting angry,” Professor Quirrell said,
//his face looking grave. “Anger is natural. You need to learn how to lose even
//when you are angry. Or at least __pretend__ to lose so that you can
//__plan__ your vengeance. As I did with Mr. Goyle today, unless of course
//any of you think he really __is__ better -”
-- Ідея в тому, щоб __не уникати__ злості, -- сказав професор Квірел, його
обличчя виглядало похмуро. -- Злість природна. Ви повинні навчитися програвати
навіть коли ви злі. Чи, принаймні, __вдавати__ що ви програли, щоб мати
змогу __запланувати__ вашу помсту. Як я сьогодні зробив з містером Ґойлом.
Хіба, звісно, хтось з вас вважає, що він __справді__ кращий...

// 3504
//“I’m not!” shouted Mr. Goyle from his desk, sounding a little frantic. “I know
//you didn’t really lose! Please don’t plan any vengeances!”
-- Не кращий! -- дещо несамовито закричав містер Ґойл зі свого місця. -- Я знаю,
що ви програли не насправді! Будь ласка, не плануйте жодних помст!

// 3505
//Harry felt sick to his stomach. Professor Quirrell didn’t know about his
//mysterious dark side. “Professor, we really need to talk about this after class
//-”
Гаррі почувався ніби його зараз знудить. Професор Квірел не знав про його таємничу
темну сторону.

-- Професоре, нам справді потрібно поговорити про це після уроку...

// 3506
//“We will,” Professor Quirrell said in the tones of a promise. “After you learn
//how to lose.” His face was serious. “It should go without saying that I will
//exclude anything which could injure you or even cause you significant pain. The
//pain will come from the difficulty of losing, instead of fighting back and
//escalating the battle until you win.”
-- Поговоримо, -- пообіцяв професор Квірел. -- Після того, як ви навчитеся
програвати, -- сказав він із серйозним лицем. -- Гадаю, і так зрозуміло, що я виключу
все, що може поранити вас, чи бодай спричинити серйозний біль. Біль буде від
того, що ви програватимете замість того, щоб давати здачі та загострювати конфлікт аж
доки не переможете.

// 3507
//Harry’s breath was coming in short, panicky pants. He was more frightened than
//he’d been after leaving the Potions classroom. “Professor Quirrell,” he managed
//to say, “I don’t want you to get fired over this -”
Гаррі уривчасто, панічно дихав. Він був більш наляканим ніж коли залишав клас настійок.

-- Професоре Квірел, -- спромігся сказати Гаррі, -- я не хочу, щоб вас за це звільнили...

// 3508
//“I will not be,” Professor Quirrell said, “if __you__ tell them afterward
//that it was necessary. And this I trust you to do.” For a moment Professor
//Quirrell’s voice turned very dry. “Believe me, they have tolerated worse in
//their hallways. This case will be exceptional only in that it happens within a
//classroom.”
-- Не звільнять, -- відповів професор Квірел, -- якщо __ви__ скажете їм опісля,
що це було потрібно. Вірю, ви так і зробите, -- на мить голос професора Квірела
став дуже сухим. -- Повірте, вони дозволяли й гірші речі у своїх коридорах. Цей
випадок буде особливим лише тим, що він відбудеться в класі.

// 3509
//“Professor Quirrell,” Harry whispered, but he thought his voice was still being
//repeated everywhere, “do you really believe that if I don’t do this, I might
//hurt someone?”
-- Професоре Квірел, -- прошепотів Гаррі, хоча він думав, що його голос досі
відтворюється по всьому класі, -- ви справді вірите, що якщо я цього не зроблю,
то можу поранити когось?

// 3510
//“Yes,” Professor Quirrell said simply.
-- Так, -- просто відповів професор Квірел.

// 3511
//“Then,” Harry felt nauseous, “I’ll do it.”
-- Тоді, -- Гаррі відчув нудоту, -- я зроблю це.

// 3512
//Professor Quirrell turned to regard the Slytherins. “So… with the full approval
//of your teacher, and in such a fashion that Snape cannot be blamed for your
//actions… do any of you wish to show your dominance over the Boy-Who-Lived?
//Shove him around, push him to the ground, hear him beg for your mercy?”
Професор Квірел обернуся до слизеринців.

-- Отже... З цілковитого схвалення вашого викладача, та у спосіб, що Снейп не може
бути звинувачений за ваші вчинки... чи бажає хтось із вас показати своє домінування
над Хлопчиком-Що-Вижив? Поштовхати його, кинути на підлогу, послухати, як він просить
пощади?

// 3513
//Five hands went up.
П`'ять рук злетіло вгору.

// 3514
//“Everyone with your hand raised, you are an absolute idiot. What part of
//__pretending__ to lose did you not understand? If Harry Potter does become
//the next Dark Lord he will hunt you down and kill you after he graduates.”
-- Всі, хто підняв руки, -- ви безпробудні ідіоти. Яку частину __вдавання__
програшу ви не зрозуміли? Якщо Гаррі Поттер справді стане наступним темним
лордом, то після закінчення школи він вистежить та уб`'є вас.

// 3515
//The five hands dropped abruptly back to their desks.
П`'ять рук стрімко повернулися до столів.

// 3516
//“I won’t,” Harry said, his voice coming out rather weakly. “I swear never to
//take vengeance upon those who help me learn to lose. Professor Quirrell… would
//you __please__… __stop__ that?”
-- Я такого не зроблю... -- доволі тихо сказав Гаррі. -- Присягаюся ніколи не
вдаватися до помсти тим, хто допоможе мені навчитися програвати. Професоре Квірел...
__Будь ласка__, чи не могли б ви... __припинити__ це?

// 3517
//Professor Quirrell sighed. “I __am__ sorry, Mr. Potter. I realize that you
//must find this equally annoying whether you intend to become a Dark Lord or
//not. But those children __also__ had an important life lesson to learn.
//Would it be acceptable if I awarded you a Quirrell point in apology?”
Професор Квірел зітхнув.

-- Мені __справді__ шкода, містере Поттер. Я розумію, що вам це видається
вкрай надокучливим, маєте ви намір стати темним лордом чи ні. Але ці діти
__також__ мали навчитися важливого життєвого уроку. Чи буде прийнятним, якщо
я нагороджу вас балом Квірела як вибачення?

// 3518
//“Make it two,” Harry said.
-- Двох вистачить, -- сказав Гаррі.

// 3519
//There was a current of surprised laughter, defusing some of the tension.
З несподіванки в класі трохи розсміялися, що розрядило частину напруги.

// 3520
//“Done,” Professor Quirrell said.
-- Готово, -- сказав професор Квірел.

// 3521
//“And after I graduate I’m going to hunt you down and __tickle__ you.”
-- А коли я закінчу школу, я збираюся вистежити вас та __залоскотати__.

// 3522
//There was more laughter, although Professor Quirrell didn’t smile.
Більше сміху, хоча професор Квірел не усміхнувся.

// 3523
//Harry felt like he was wrestling an anaconda, trying to force the conversation
//through the narrow course that would make people realize he wasn’t a Dark Lord
//after all… __why__ was Professor Quirrell so suspicious of him?
Гаррі почувався наче він бореться з анакондою, намагаючись змусити розмову йти
тим вузьким шляхом, що, врешті, переконає людей, що він не темний лорд...
__Чому__ професор Квірел настільки підозріло ставиться до нього?

// 3524
//“Professor,” said Draco’s unamplified voice. “It is also not my own ambition to
//become a stupid Dark Lord.”
-- Професоре, -- сказав непідсилений голос Драко. -- Моїм прагненням також не є
стати дурним темним лордом.

// 3525
//There was a shocked silence in the classroom.
В класі запала шокована тиша.

// 3526
//__You don’t have to do this!__ Harry almost blurted out loud, but checked
//himself in time; Draco might not wish it known that he was doing this out of
//friendship for Harry… or out of the desire to appear friendly…
__Ти не маєш цього робити!__ Майже випалив уголос Гаррі, але вчасно стримався.
Драко може не хотіти, щоб хтось дізнався, що він робить це через дружбу з Гаррі...
Чи з бажання видаватися дружнім...

// 3527
//Calling __that__ a __desire to appear friendly__ made Harry feel
//small, and mean. If Draco had intended to impress him, it was working
//perfectly.
Називати __це__ "`бажанням видатися дружнім`" змусило Гаррі почуватися
низьким та підлим. Якщо Драко намагався вразити його -- йому це цілковито
вдалося.

// 3528
//Professor Quirrell was regarding Draco gravely. “__You__ worry that you
//cannot pretend to lose, Mr. Malfoy? That this flaw which describes Mr. Potter
//also describes you? __Surely__ your father taught you better.”
Професор Квірел похмуро розглядав Драко.

-- __Ви__ хвилюєтеся, що не зможете вдати поразку, містере Мелфой? Що цей
недолік, що властивий містерові Поттеру, також властивий і вам? __Я вірю__,
що ваш батько навчив вас кращого...

// 3529
//“When it comes to talking, maybe,” said Draco, now on the repeater screen. “Not
//when it comes to being shoved around and pushed to the ground. I want to be
//fully as strong as you, Professor Quirrell.”
-- Коли це стосується балачок -- мабуть, -- сказав Драко, тепер вже з екрану
ретранслятора. -- Але не тоді, коли мене штовхають та кидають на підлогу. Я хочу
бути настільки ж сильним як ви, професоре Квірел.

// 3530
//Professor Quirrell’s eyebrows went up and stayed up. “I am afraid, Mr. Malfoy,”
//he said after a time, “that the arrangements I made for Mr. Potter, involving
//some older Slytherins who will be told __afterward__ how stupid they were,
//would not carry over onto you. But it is my professional opinion that you are
//already very strong. Should I hear that you have failed, as Mr. Potter failed
//today, I will make the appropriate arrangements and apologize to you and
//whomever you have hurt. I do not think this will be necessary, however.”
Брови професора Квірела піднялися вгору й там і залишилися.

-- Боюся, містере Мелфой, -- сказав він по деякому часі, -- що приготування, які
я здійснив для містера Поттера, що включають деяких старших слизеринців, яким
__наприкінці__ скажуть, наскільки дурними вони були, не підійдуть для вас. Але ось моя
компетентна думка: ви вже дуже сильні. Якщо я довідаюся, що ви не змогли себе правильно
повести, як не зміг цього зробити сьогодні містер Поттер, я проведу всі необхідні
приготування та вибачуся як перед вами, так і перед тими, кому ви зашкодили.
Але мені не доведеться такого робити, гадаю.

// 3531
//“I understand, professor,” said Draco.
-- Я розумію, професоре, -- сказав Драко.

// 3532
//Professor Quirrell looked over the class. “Does anyone else wish to become
//strong?”
Професор Квірел огледів клас.

-- Чи бажає хтось ще стати сильним?

// 3533
//Some students glanced around nervously. Some, Harry thought from his back row,
//looked like they were opening their mouths but not saying anything. In the end,
//no one spoke.
Деякі учні нервово роззиралися довкола. Дехто, здалося Гаррі з заднього ряду, виглядав
ніби відкривав рота, але нічого не сказав. Врешті-решт ніхто не озвався.

// 3534
//“Draco Malfoy will be one of the generals of your year’s armies,” said
//Professor Quirrell, “should he deign to engage in that after-school activity.
//And now, Mr. Potter, please come forward.”
-- Драко Мелфой буде одним з генералів військ вашого року, варто лише йому захотіти
витрачати свій час на ці факультативні заняття. А тепер, містере Поттер, будь ласка,
вийдіть уперед.

***

// 3535
//__Yes,__ Professor Quirrell had said, __it must be in front of
//everyone, in front of your friends, because that is where Snape confronted you
//and that is where you must learn to lose.__
__Так__, сказав професор Квірел, __це має відбутися перед всіма, перед вашими друзями,
адже саме так Снейп кинув вам виклик, і саме так ви повинні навчитися програвати__.

// 3536
//So now the first year watched. In magically enforced silence, and with requests
//from both Harry and the professor not to intervene. Hermione had her face
//turned away, but she hadn’t spoken out or even given him any sort of
//significant look, maybe because she’d been there in Potions too.
Першокласники спостерігали серед магічно вимушеної тиші та з проханнями від
Гаррі та професора Квірела не втручатися. Герміона відвернулася, проте вона
нічого не сказала, як і не обдарувала його бодай скілечки змістовним поглядом, можливо
тому, що вона була на настійках разом з ним.

// 3537
//Harry stood on a soft blue mat, such as might be found in a Muggle dojo, which
//Professor Quirrell had laid out upon the floor for when Harry was pushed down.
Гаррі стояв на звичайній м`'якій блакитній маті, яку можна було знайти в маґлівських
додзьо. Професор Квірел розстелив її на підлозі для митей, коли Гаррі штовхатимуть
на підлогу.

// 3538
//Harry was frightened of what he might do. If Professor Quirrell was right about
//his intent to kill…
Гаррі лякало те, що він міг наробити. Якщо професор Квірел був правим стосовно
його готовності вбити...

// 3539
//Harry’s wand lay on Professor Quirrell’s desk, not because Harry knew any
//spells that could defend him, but because otherwise (Harry thought) he might
//have tried to jam it through someone’s eye socket. His pouch lay there, now
//containing his protected but still potentially fragile Time-Turner.
Паличка Гаррі лежала на столі професора Квірела не тому, що Гаррі знав якісь
закляття, що могли захистити його, а тому, що інакше (думав Гаррі) він може
спробувати запхати її комусь в око. Там же ж лежав і його капшучок, в якому
тепер був його захищений, та досі потенційно ламкий часоворот.

// 3540
//Harry had pleaded with Professor Quirrell to Transfigure him some boxing gloves
//and lock them on his hands. Professor Quirrell had given him a look of silent
//understanding, and refused.
Гаррі благав професора Квірела, щоб той трансфігурував йому боксерські рукавички
та закріпив їх йому на руках. Професор Квірел мовчки обдарував його розуміючим
поглядом і відмовився.

// 3541
//__I will not go for their eyes, I will not go for their eyes, I will not
//go for their eyes, it would be the end of my life in Hogwarts, I’ll be
//arrested,__ Harry chanted to himself, trying to hammer the thought into his
//brain, hoping it would stay there if his intent to kill took over.
__Я не чіпатиму їхніх очей, я не чіпатиму їхніх очей, я не чіпатиму їхніх очей,
це буде кінцем мого життя в Гоґвортсі, мене заарештують,__ повторював
собі Гаррі, намагаючись вбити цю думку собі в мозок, в надії, що вона досі
буде там, якщо його готовність убити візьме гору.

// 3542
//Professor Quirrell returned, escorting thirteen older Slytherins of different
//years. Harry recognized one of them as the one he’d hit with a pie. Two others
//from that confrontation were also present. The one who’d said to stop, that
//they really shouldn’t do this, was missing.
Професор Квірел повернувся в супроводі тринадцяти старших слизеринців різного
віку. Гаррі впізнав одного з них -- це в нього він поцілив пирогом. Двоє інших з
тієї ж сутички теж були тут. Того, що казав зупинитися, і що їм не варто цього
робити, не було.

// 3543
//“I repeat,” Professor Quirrell said, sounding very stern, “Potter is
//__not__ to be really hurt. Any and all __accidents__ will be treated
//as deliberate. Do you understand?”
-- Наголошую, -- дуже строго сказав професор Квірел. -- Поттер __не повинен__
постраждати жодним серйозним чином. Будь-які __випадковості__ будуть
розцінені як навмисні. Вам зрозуміло?

// 3544
//The older Slytherins nodded, grinning.
Старші слизеринці кивнули, вишкірившись.

// 3545
//“Then please feel free to take the Boy-Who-Lived down a few pegs,” Professor
//Quirrell said, with a twisted smile that only the first-years understood.
//@down a few peg: to do something to show someone that they are not as good as
//they thought they were
-- Тоді, будь ласка, покажіть Гаррі Поттеру де раки зимують.

Професор Квірел сказав це з незвичною посмішкою, яку зрозуміли лише першокласники.

// 3546
//By some form of mutual consent, the pie-target was at the front of the group.
З якоїсь загальної згоди ціль пирога був попереду групи.

// 3547
//“Potter,” said Professor Quirrell, “meet Mr. Peregrine Derrick. He is better
//than you and he is about to show you that.”
-- Поттере, -- сказав професор Квірел, -- познайомся з містером Перегрином Дериком.
Він кращий за тебе, і зараз він тобі це покаже.

// 3548
//Derrick strode forward and Harry’s brain screamed discordantly, he must not run
//away, he must not fight back -
Дерик покрокував уперед, і мозок Гаррі закричав в різнобій, він мусить не втекти,
він мусить не дати здачі...

// 3549
//Derrick stopped an arm’s length away from Harry.
Дерик зупинився на відстані витягнутої руки від Гаррі.

// 3550
//Harry wasn’t angry yet, just frightened. And that meant he beheld a teenage boy
//fully half a meter taller than himself, with clearly defined muscles, facial
//hair, and a grin of terrible anticipation.
Гаррі ще не розізлився, -- лише злякався. А це означало, що йому довелося дивитися
на підлітка, що був на півметра вищим за нього, мав явно виражені м`'язи,
волосяний покрив обличчя, та оскал страшенного очікування.

// 3551
//“Ask him not to hurt you,” Professor Quirrell said. “Perhaps if he sees that
//you’re pathetic enough, he’ll decide that you’re boring, and go away.”
-- Попроси його не робити тобі боляче, -- сказав професор Квірел. -- Можливо,
якщо він побачить, що ти достатньо нікчемний, то вирішить, що ти нудний, і піде
геть.

// 3552
//There was laughter from the watching older Slytherins.
Старші слизеринці розсміялися.

// 3553
//“Please,” Harry said, his voice faltering, “don’t, hurt, me…”
-- Будь ласка, -- сказав Гаррі тремтячим голосом, -- не, роби, мені, боляче...

// 3554
//“That didn’t sound very sincere,” said Professor Quirrell.
-- Це звучало не дуже щиро, -- сказав професор Квірел.

// 3555
//Derrick’s smile widened. The clumsy imbecile was looking very superior and…
Посмішка Дерика поширшала. Незграбний бовдур виглядав дуже зверхньо і...

// 3556
//…Harry’s blood temperature was dropping…
...температура крові Гаррі падала...

// 3557
//“Please don’t hurt me,” Harry tried again.
-- Будь ласка, не роби мені боляче, -- знову спробував Гаррі.

// 3558
//Professor Quirrell shook his head. “How in Merlin’s name did you manage to make
//that sound like an insult, Potter? There is only one response you can possibly
//expect from Mr. Derrick.”
Професор Квірел похитав головою.

-- Як, Мерлінова борода, тобі вдалося сказати це як образу, Поттере? Існує лише одна
відповідь, що ти можеш очікувати від містера Дерика.

// 3559
//Derrick stepped forward deliberately, and bumped into Harry.
Дерик навмисно пішов уперед і наштовхнувся на Гаррі.

// 3560
//Harry staggered back a few feet and, before he could stop himself, straightened
//up icily.
Гаррі, ледь не впавши, зробив кілька кроків назад, та, ще до того як зміг стриматися,
з наміром вирівнявся.

// 3561
//“Wrong,” said Professor Quirrell, “wrong, wrong, wrong.”
-- Погано, -- сказав професор Квірел, -- погано, погано, погано.

// 3562
//“You bumped into me, Potter,” Derrick said. “Apologize.”
-- Ти штовхнув мене, Поттере, -- сказав Дерик. -- Проси вибачення.

// 3563
//“I’m sorry!”
-- Пробач!

// 3564
//“You don’t __sound__ sorry,” said Derrick.
-- Ти __не звучиш__ ніби тобі жаль, -- сказав Дерик.

// 3565
//Harry’s eyes widened in indignation, he __had__ managed to make that sound
//pleading -
Очі Гаррі поширшали від обурення, йому таки __вдалося__ сказати це благально...

// 3566
//Derrick pushed him, hard, and Harry fell to the mat on his hands and knees.
Дерик штовхнув його, сильно, і Гаррі впав на мату, на руки та коліна.

// 3567
//The blue fabric seemed to waver in Harry’s vision, not far away.
Синя тканина, видавалося, майоріла в Гаррі перед очима, зовсім поруч.

// 3568
//He was beginning to doubt Professor Quirrell’s real motives in teaching this
//so-called __lesson.__
Він починав сумніватися в справжніх мотивах професора Квірела щодо цього так
званого __уроку__.

// 3569
//A foot rested on Harry’s buttocks and a moment later Harry was pushed hard to
//the side, sending him sprawling on his back.
Нога стала на сідницю Гаррі, і через мить його сильно штовхнуло в бік, перекинувши
його на спину.

// 3570
//Derrick laughed. “This is __fun,__” he said.
Дерик розсміявся.

-- А це __весело__.

// 3571
//All he had to do was say it was over. And report the whole thing to the
//Headmaster’s office. That would be the end of this __Defense Professor__
//and his ill-fated stay at Hogwarts and… Professor McGonagall would be angry
//about that, but…
Все, що йому потрібно було зробити, це сказати, що урок закінчено, і повідомити
про все це директора. І це буде кінцем цього __Професора Захисту__, та його
нещасливого перебування в Гоґвортсі, і... професорка Макґонеґел буде зла
через це, але...

// 3572
//(An image of Professor McGonagall’s face flashed before his eyes, she didn’t
//look angry, just sad -)
(Обличчя професорки Макґонеґел промайнуло перед його очима, вона не виглядала злою,
лише сумною...)

// 3573
//“Now tell him that he’s better than you, Potter,” said Professor Quirrell’s
//voice.
-- Тепер скажи йому, що він кращий за тебе, Поттере, -- сказав професор Квірел.

// 3574
//“You’re, better, than, me.”
-- Ти, кращий, за, мене.

// 3575
//Harry started to raise himself and Derrick put a foot on his chest and shoved
//him back down to the mat.
Гаррі почав підніматися, але Дерик поставив ногу йому на груди та штовхнув його
назад на мату.

// 3576
//The world was becoming transparent as crystal. Lines of action and their
//consequences stretched out before him in utter clarity. The fool wouldn’t be
//expecting him to strike back, a quick hit in the groin would stun him long
//enough for -
Світ почав ставати прозорим наче кришталь. Лінії дій та їхніх наслідків розтягнулися
перед ним як на долоні. Цей дурень не очікуватиме, що він дасть здачі, швидкий удар
в пах виведе його з ладу достатньо довго для...

// 3577
//“Try again,” said Professor Quirrell and with a sudden sharp motion Harry
//rolled and sprang to his feet and whirled on where stood his real enemy, the
//Defense Professor -
-- Спробуй знову, -- сказав професор Квірел, і раптовим різким рухом, Гаррі
перекотився, стрімко піднявся на ноги, і повернувся до його справжнього ворога,
професора захисту...

// 3578
//Professor Quirrell said, “You have no patience.”
Професор Квірел сказав:

-- В тебе нема терпіння.

// 3579
//Harry faltered. His mind, well-honed in pessimism, drew a picture of a wizened
//old man with blood pouring from his mouth after Harry had ripped his tongue out
//-
Гаррі завагався. Його мозок, що прекрасно володів песимізмом, намалював картину
мудрого старця, з уст якого текла кров, після того, як Гаррі вирвав його язик...

// 3580
//A moment later, Derrick pushed Harry to the mat again and then sat down on him,
//sending Harry’s breath whooshing out.
Миттю потому Дерик знову штовхнув Гаррі на мату, після чого сів на нього, вибивши
з Гаррі весь дух.

// 3581
//“Stop!” Harry screamed. “Please stop!”
-- Перестань! -- закричав Гаррі. -- Будь ласка, перестань!

// 3582
//“Better,” said Professor Quirrell. “That even sounded sincere.”
-- Краще, -- сказав професор Квірел. -- Це навіть звучало щиро.

// 3583
//It __had__ been. That was the horrible thing, the sickening thing, it
//__had__ been sincere. Harry was panting rapidly, fear and cold anger both
//flushing through him -
__Так і було.__ Це було жахливо й мерзенно: він просив справді щиро. Гаррі дуже швидко
дихав, його переповнювали страх та крижана злість...

// 3584
//“Lose,” said Professor Quirrell.
-- Програй, -- сказав професор Квірел.

// 3585
//“I, lose,” Harry forced out.
-- Я, програв, -- витиснув з себе Гаррі.

// 3586
//“I like it,” Derrick said from on top of him. “Lose some more.”
-- Мені подобається, -- сказав Дерик сидячи на Гаррі. -- Програй ще трохи.

***

// 3587
//Hands shoved Harry, sending him stumbling across the circle of older Slytherins
//to another set of hands that shoved him again. Harry had long since passed the
//point of trying not to cry, and was now just trying not to fall down.
Руки штовхнули Гаррі, і він, ледь не впавши, опинився в інших руках, що
штовхнули його знову. Намагання не плакати вже давно залишилися позаду,
зараз Гаррі просто намагався не впасти.

// 3588
//“What are you, Potter?” said Derrick.
-- Що ти, Поттере? -- сказав Дерик.

// 3589
//“A, l-loser, I lose, I give up, you win, you’re b-better, than me, please stop
//-”
-- Я, н-невдаха, я програв, я здаюся, ви перемогли, ви к-кращі, ніж я, будь ласка,
перестаньте...

// 3590
//Harry tripped over a foot and went crashing to the ground, hands not quite able
//to catch himself. He was dazed for a moment, then began struggling to his feet
//again -
Гаррі перечепився через ногу й зіштовхнувся з підлогою, він вже не був у змозі
пом`'якшити падіння руками. Думки покинули його на мить, після чого він знову
спробував підвестися на ноги... 

// 3591
//“__Enough!__” said Professor Quirrell’s voice, sounding sharp enough to
//cut iron. “Step away from Mr. Potter!”
-- __Досить!__ -- сказав голос професора Квірела, що звучав достатньо гостро
щоб різати залізо. -- Відійдіть від містера Поттера.

// 3592
//Harry saw the surprised looks on their faces. The chill in his blood, which had
//been flowing and ebbing, smiled in cold satisfaction.
Гаррі побачив здивовані вирази на їхніх обличчях. Прохолода в його крові, що поступово
напливала та згасала, усміхнулася в холодному задоволенні.

// 3593
//Then Harry collapsed to the mat.
Після чого Гаррі звалився на мату.

// 3594
//Professor Quirrell talked. There were gasps from the older Slytherins.
Професор Квірел говорив. Було чутно зойки від старших слизеринців.

// 3595
//“And I believe the scion of Malfoy has something he wants to explain to you as
//well,” finished Professor Quirrell.
-- І, гадаю, спадкоємець Мелфоїв також хоче вам дещо пояснити, -- закінчив
професор Квірел.

// 3596
//Draco’s voice started talking. His voice sounded almost as sharp as professor
//Quirrell’s, it had acquired the same cadence Draco had used to imitate his
//father, and it was saying things like __could have put Slytherin House in
//jeopardy__ and __who knows how many allies in this school alone __and
//__total lack of awareness, never mind cunning__ and__ dull thugs,
//useful for nothing but lackeys__ and something in Harry’s hindbrain, despite
//everything he knew, was designating Draco as an ally.
Голос Драко почав говорити. Його голос звучав майже так само різко як і професора
Квірела, і набув такого ж темпу як коли він імітував голос батька. Він казав про
такі речі як "`могли наразити на небезпеку весь Слизерин`" і "`хтозна скільки
союзників у самій лише школі`" і "`повна відсутність усвідомлення, не те що хитрощів`"
і "`тупі розбишаки, які ні на що, окрім лакеїв, не згодяться`". Щось у задній частині
мозку Гаррі, попри все, що він знав, призначило Драко союзником.

// 3597
//Harry ached all over, was probably bruised, his body felt cold, his mind
//utterly exhausted. He tried to think of Fawkes’s song, but without the phoenix
//present he couldn’t remember the melody and when he tried to imagine it he
//couldn’t seem to think of anything except a bird chirping.
У Гаррі все боліло, мабуть отримав синці. Йому було холодно, його розум надмірно виснажений.
Він спробував подумати про пісню Фоукса, але без фенікса поруч він не міг згадати
мелодії, а коли спробував уявити її, то не зміг думати ні про що, окрім цвірінчання
пташок.  

// 3598
//Then Draco stopped talking and Professor Quirrell told the older Slytherins
//they were dismissed, and Harry opened his eyes and struggled to sit up, “Wait,”
//Harry said, forcing the words out, “there’s something, I want, to say, to them
//-”
Тоді Драко перестав говорити, і професор Квірел сказав слизеринцям, що вони вільні.
Гаррі розплющив очі й з труднощами спробував сісти.

-- Почекайте, -- спромігся сказати Гаррі, -- є дещо, що я хочу, сказати, їм...

// 3599
//“Wait on Mr. Potter,” Professor Quirrell said coldly to the departing
//Slytherins.
-- Почекайте містера Поттера, -- холодно сказав професор Квірел слизеринцям,
що йшли до виходу.

// 3600
//Harry swayed to his feet. He was careful not to look in the direction of his
//classmates. He didn’t want to see how they were looking at him now. He didn’t
//want to see their pity.
Гаррі захитався піднявшись на ноги. Він дуже старанно намагався не дивитися
в напрямку однокласників. Він не хотів бачити, як вони зараз на нього дивляться.
Він не хотів бачити жаль в їхніх очах.

// 3601
//So instead Harry looked at the older Slytherins, who still seemed to be in a
//state of shock. They stared back at him. Dread was on their faces.
Тому, натомість, Гаррі подивився на старших слизеринців, що, видавалося, досі
перебували в стані шоку. Вони витріщалися на нього, їхні обличчя повні жаху.

// 3602
//His dark side, when it was in control, had held to the imagination of this
//moment, and went on pretending to lose.
Його темна сторона, коли вона була за кермом, трималася за уявляння цієї
миті і продовжувала вдавати програш.

// 3603
//Harry said, “No one will -”
Гаррі почав:

-- Ніхто не...

// 3604
//“Stop,” said Professor Quirrell. “If that’s what I think it is, please wait
//until after they’re gone. They’ll hear about it later. We all have our lessons
//to learn, Mr. Potter.”
-- Зупиніться, -- сказав професор Квірел. -- Якщо це те, що я думаю, то, будь ласка,
дочекайтеся поки вони підуть. Вони дізнаються про це згодом. В кожного свої уроки
щоб їх засвоїти, містере Поттер.

// 3605
//“All right,” Harry said.
-- Гаразд, -- сказав Гаррі.

// 3606
//“You. Go.”
-- Ви. Йдіть.

// 3607
//The older Slytherins fled and the door closed behind them.
Старші слизеринці втекли, і за ними зачинилися двері.

// 3608
//“No one’s to take any revenge on them,” Harry said hoarsely. “That’s a request
//to anyone who considers themselves my friend. I had my lesson to learn, they
//helped me learn it, they had their lesson to learn too, it’s over. If you tell
//this story, make sure you tell that part too.”
-- Ніхто не повинен мститися їм, -- хрипко сказав Гаррі. -- Це прохання до всіх,
хто вважає себе моїм другом. Я мав засвоїти свій урок, вони допомогли мені цього
досягти, вони також мали засвоїти свій, кінець. Якщо ви розказуватимете цю історію,
будь ласка, не забудьте розказати і цю частину.

// 3609
//Harry turned to look at Professor Quirrell.
Гаррі обернувся і подивився на професора Квірела.

// 3610
//“You lost,” said Professor Quirrell, his voice gentle for the first time. It
//sounded strange coming from the professor, like his voice shouldn’t even be
//able to do that.
-- Ви програли, -- сказав професор Квірел, його голос вперше за весь час звучав
лагідно. Це здавалося дивним, коли звучало від нього, так, наче його голос
взагалі не мав би бути здатен на це. 

// 3611
//Harry __had__ lost. There had been moments when the cold anger had faded
//entirely, replaced by fear, and during those moments he’d begged the older
//Slytherins and he’d meant it…
Гаррі __справді__ програв. Були миті, коли холодна злість повністю щезала,
на її місце приходив страх, і під час таких митей він благав старших слизеринців
і він справді не прикидався.

// 3612
//“And are you yet alive?” said Professor Quirrell, still with that strange
//gentleness.
-- Ви досі живі? -- сказав професор Квірел з тією ж дивною лагідністю.

// 3613
//Harry managed to nod.
Гаррі спромігся кивнути.

// 3614
//“Not all losing is like this,” said Professor Quirrell. “There are compromises
//and negotiated surrenders. There are other ways to placate bullies. There is a
//whole art form to manipulating others by letting them be dominant over you. But
//first, losing must be __thinkable__. Will you remember how you lost?”
-- Не всі програші такі, -- сказав професор Квірел. -- Існують компроміси й узгоджені
капітуляції. Існують інші способи умиротворити негідників. Існує ціле мистецтво
маніпулювання іншими за допомогою домінування над вами. Але спершу -- програші мають
бути __обдуманими__. Ви запам`'ятаєте як ви програли?

// 3615
//“Yes.”
-- Так.

// 3616
//“Will you be able to lose?”
-- Чи зможете ви програвати?

// 3617
//“I… think so…”
-- Я... гадаю так...

// 3618
//“I think so too.” Professor Quirrell bowed so low that his thin hair almost
//touched the floor. “Congratulations, Harry Potter, you win.”
-- Я теж так думаю, -- професор Квірел вклонився так низько, що його волосся
майже торкнулося підлоги. -- Мої вітання, Гаррі Поттер, ви перемогли.

// 3619
//There was no single source, no first mover, the applause started all at once
//like a massive thunderclap.
Не було одного джерела, нікого, хто почав би першим, овації почалися одночасно,
наче вкрай потужний удар грому.

// 3620
//Harry’s couldn’t keep the shock from his face. He risked a glance at his
//classmates, and he saw their faces showing not pity but awe. The applause was
//coming from Ravenclaw and Gryffindor and Hufflepuff and even Slytherin,
//probably because Draco Malfoy was applauding too. Some students were standing
//up from their chairs and half of Gryffindor was standing on their desks.
На обличчі Гаррі застиг шок, він не зміг його стримати. Він ризикнув глянути
на своїх однокласників і побачив на їхніх обличчях не жаль, а захоплення.
Овації лунали від Рейвенклову, і Ґрифіндору, і Гафелпафу, і навіть Слизерину, мабуть
тому, що Драко Мелфой також аплодував. Деякі учні підвелися зі стільців, а половина
Ґрифіндору залізла на столи.

// 3621
//So Harry stood there, swaying, letting their respect wash over him, feeling
//stronger, and maybe even a little healed.
Гаррі стояв, хитаючись і дозволяючи їхній повазі омивати його, почуваючись
сильнішим і, мабуть, навіть трохи зціленим.

// 3622
//Professor Quirrell waited for the applause to die away. It took quite a while.
Професор Квірел чекав поки овації вщухнуть. Це забрало трохи часу.

// 3623
//“Surprised, Mr. Potter?” Professor Quirrell said. His voice sounded amused.
//“You have just found out that the real world does not __always__ work like
//your worst nightmares. Yes, if you had been some poor anonymous boy being
//abused, then they would probably have respected you less afterward, pitied you
//even as they comforted you from their loftier perches. That __is__ human
//nature, I’m afraid. But __you__ they already know for a figure of power.
//And they saw you confront your fear and keep confronting it, even though you
//could have walked away at any time. Did you think less of __me__ when I
//told you that I had deliberately endured being spat upon?”
// @loftier perches
-- Здивовані, містере Поттер? -- запитав професор Квірел, його голос звучав
по-доброму з насмішкою. -- Щойно ви дізналися, що справжній світ __не завжди__ діє
так, як ваші кошмари. Так, якби ви були бідолашним, нікому не відомим хлопчиком, якого
кривдять, то після всього вони мабуть поважали б вас менше, жаліли вас навіть
коли втішали б вас зі своїх гордих гнізд. __Це є__ людською натурою, на жаль. Але
__вас__ вони вже знають як сильну особу. І вони бачили, як ви кинули виклик страху,
і продовжили це робити, хоча ви й могли піти в будь-яку мить. Невже ви почали зневажати
__мене__, коли я сказав, що навмисно терпів як на мене плювали?

// 3624
//Harry felt a burning sensation in his throat and frantically clamped down. He
//didn’t trust this miraculous respect enough to start crying again in front of
//it.
Гаррі відчув пекуче відчуття в горлі й відчайдушно опанував себе. Він не довіряв
цій дивовижній повазі настільки, щоб знову розплакатися перед нею.

// 3625
//“Your __extraordinary__ achievement in my class deserves an extraordinary
//reward, Harry Potter. Please accept it with my compliments on behalf of my
//House, and remember from this day forward that not all Slytherins are alike.
//There are Slytherins, and then there are Slytherins.” Professor Quirrell was
//smiling quite broadly as he said this. “Fifty-one points to Ravenclaw.”
// hedrok: цитата There are Slytherins, and then there are Slytherins у 030:6261
-- Ваше __надзвичайне__ досягнення на моєму уроці заслуговує надзвичайної
винагороди, містере Поттер. Будь ласка, прийміть її разом з моїми компліментами
від імені мого гуртожитку і запам`'ятайте віднині й надалі -- не всі слизеринці
однакові. Є слизеринці, але є й слизеринці, -- професор Квірел широко усміхався
коли сказав це. -- П`'ятдесят одне очко Рейвенклову. 

// 3626
//There was a shocked pause and then pandemonium broke out among the Ravenclaw
//students, howling and whistling and cheering.
На мить запала шокована тиша, після чого рейвенкловці вибухнули криками, свистом
і радісними підбадьорюваннями.

// 3627
//(And in the same moment Harry felt something __wrong__ about that,
//Professor McGonagall had been right, there __should__ have been
//consequences, there should have been a cost and a price to be paid, you
//couldn’t just put everything back the way it was like that -)
(І в ту ж мить Гаррі відчув, що щось __неправильно__ з цим усім, професорка
Макґонеґел була права, __повинні__ бути наслідки, повинна була бути ціна,
яку треба заплатити, не можна просто повернути все, як було, ось так...)

// 3628
//But Harry saw the elated faces in Ravenclaw and knew he couldn’t possibly say
//no.
Але Гаррі побачив радісні обличчя рейвенкловців, і зрозумів, що він просто не зможе
сказати "`ні`".

// 3629
//His brain made a suggestion. It was a good suggestion. Harry could not even
//believe his brain was still keeping him upright, let alone producing good
//suggestions.
Його мозок зробив пропозицію. Це була хороша пропозиція. Гаррі не міг навіть повірити,
що його мозок досі може тримати його стоячи, не те що генерувати хороші пропозиції.

// 3630
//“Professor Quirrell,” Harry said, as clearly as he could through his burning
//throat. “You are everything a member of your House should be, and I think you
//must be just what Salazar Slytherin had in mind when he helped found Hogwarts.
//I thank you and your House,” Draco was very slightly nodding and subtly turning
//his finger, __keep going__, “and I think this calls for three cheers for
//Slytherin. With me, everyone?” Harry paused. “__Huzzah!__” Only a few
//people managed to join in on the first try. ”__Huzzah!__” This time most
//of Ravenclaw was in on it. ”__Huzzah!__” That was almost all of Ravenclaw,
//a scattering of Hufflepuffs and around a quarter of Gryffindor.
-- Професоре Квірел, -- сказав Гаррі якомога чіткіше, враховуючи пекуче
горло. -- Ви є всім, чим слизеринець має бути, і, гадаю, ви є тим, що Салазар
Слизерин мав на умі, коли допомагав засновувати Гоґвортс. Дякую вам і вашому гуртожитку,
-- Драко ледь помітно кивав, і повільно повертав палець, __продовжуй__, -- я вважаю,
це заслуговує на три ура для Слизерину. Ану, хто зі мною? -- Гаррі зробив паузу.
-- __Ура!__ -- лише кілька людей спромоглися приєднатися до першої спроби. -- __Ура!__
-- цього разу більшість Рейвенклову. -- __Ура!__ -- це вже був майже весь Рейвенклов,
окремі гафелпафці і приблизно чверть Ґрифіндору.

// 3631
//Draco’s hand moved into a small, quick, thumbs-up gesture.
Драко швидко й ненадовго показав великий палець угору.

// 3632
//Most of the Slytherins had expressions of sheer shock. A few were staring at
//Professor Quirrell in wonder. Blaise Zabini was looking at Harry with a
//calculating, intrigued expression.
В більшості слизеринців на обличчі застиг неймовірний шок. Кілька задумливо
витріщалися на професора Квірела. Блез Забіні дивився на Гаррі з оцінюючим,
заінтригованим виразом обличчя.

// 3633
//Professor Quirrell bowed. “Thank __you__, Harry Potter,” he said, still
//with that broad smile. He turned to the class. “Now, believe it or not, we
//still have half an hour left in this session, and that is enough to introduce
//the Simple Shield. Mr. Potter, of course, is going off and taking a well-earned
//rest.”
Професор Квірел вклонився.

-- __Дякую__, Гаррі Поттер, -- сказав він досі широко усміхаючись. Він повернуся
до класу. -- Тепер, вірте чи ні, в нас ще залишилося півгодини уроку, і цього
достатньо, щоб познайомити вас із закляттям простого щита. Містер Поттер, звісно,
покине нас, і отримає свій чесно заслужений відпочинок.

// 3634
//“I can -”
-- Я можу...

// 3635
//“Idiot,” Professor Quirrell said fondly. The class was already laughing. “Your
//classmates can teach you afterward, or I’ll tutor you privately if that’s what
//it takes. But __right now__, you’re going through the third door from the
//left in the back of the stage, where you will find a bed, an assortment of
//exceptionally tasty snacks, and some extremely light reading from the Hogwarts
//library. You may not take anything else with you, particularly not your
//textbooks. Now go.”
-- Ідіот, -- м`'яко сказав професор Квірел. Клас вже сміявся. -- Ваші однокласники
можуть навчити вас після уроку, або я можу особисто зайнятися з вами репетиторством,
якщо це того потребуватиме. Але __зараз__ ви підете в треті двері ліворуч позаду
помосту, там ви знайдете ліжко, набір вкрай смачних закусок, і деяку дуже легку
для читання літературу з Гоґвортської бібліотеки. Вам не можна брати з собою ще щось,
особливо ваші підручники. Тепер ідіть.

// 3636
//Harry went.
Гаррі пішов.
