// 6894
//== Coordination Problems, Pt 2
== Розділ 34. Складнощі координації, ч.2

// 6895
//Minerva and Dumbledore together had applied their combined talent to conjure
//the grand stage toward which Quirrell now slowly trudged; it was, at its core,
//sturdy wood, but the outer surfaces shone with glitter of marble inlaid with
//platinum and studded with gems of every House color. Neither she nor the
//Headmaster was any Founder of Hogwarts, but the conjuration only needed to last
//a few hours. Minerva ordinarily enjoyed the few occasions when she had the
//occasion to tire herself out on large Transfigurations; she should have enjoyed
//the many small chances for artistry, and the illusion of opulence; but this
//time she had done the work with the dreadful feeling of digging her own grave.
Мінерва й Дамблдор спільно застосували були свої таланти, щоб вичаклувати грандіозну
сцену, що до неї зараз повільно плентався Квірел. Всередині вона була з міцної деревини,
проте зовнішні поверхні блищали сплетінням мармуру й платини, та оздобленнями коштовного
каміння кольорів усіх гуртожитків. Ані вона, ані директор не були кимось із засновників 
Гоґвортсу, але зачарування треба було підтримувати всього кілька годин. Мінерва зазвичай
тішилася тими рідкісними випадками, коли виснажувала себе серйозною трансфігурацією.
Вона мала б насолодитися безліччю маленьких виявів мистецтва та ілюзією пишноти, але 
цього разу робота супроводжувалася була лячним передчуттям, наче вона сама риє собі могилу.

// 6896
//But Minerva was feeling a little better now. There’d been one brief moment when
//the explosion might’ve come; but Dumbledore had already been standing up and
//applauding warmly, and no one had proven foolish enough to riot in front of the
//Headmaster.
Але наразі Мінерва почувалася трохи краще. Була коротка мить, коли все могло б 
вибухнути, але Дамблдор вже стояв і тепло аплодував, а ще ніхто не виявився достатньо
дурним, щоб бунтувати перед очима директора. 

// 6897
//And the explosive mood had rapidly faded into a collective sentiment which
//might perhaps have been described by the phrase: __Give us a break!__
І вибуховий настрій швидко змінився збірним почуттям, яке, мабуть, можна описати 
фразою __Та годі вже!__

// 6898
//Blaise Zabini had shot himself in the name of Sunshine, and the final score had
//been 254 to 254 to 254.____
Блез Забіні підстрелив себе в імʼя Сонечка, тому фінальний рахунок був 254:254:254.

// 6899
//____
***

// 6900
//Behind the stage, waiting to ascend, three children were glaring at each other
//in mingled fury and frustration. It didn’t help that they were still damp from
//being fished out of the lake, and that the Warming Charms didn’t seem quite
//enough to make up for the crisp December air, or maybe it was just their mood.
Поза сценою троє учнів чекали на те, щоб піднятися, і зиркали одне на одного із 
сумішшю люті й розчарування. Становище погіршувало те, що вони досі були мокрими 
після того, як їх вивудили з озера, і що зігріваючих чарів, вочевидь, було недостатньо 
для скасування ефекту морозного грудневого повітря. А може причина була лише в їхньому 
настрої.

// 6901
//“That’s __it__,” said Granger. “I’ve __had__ it! No more traitors!”
-- Це __все__, -- сказала Ґрейнджер. -- З мене __достатньо__! Жодних зрадників!

// 6902
//“I completely agree with you, Miss Granger,” Draco said icily. “Enough is
//enough.”
-- Я повністю погоджуюся з вами, міс Ґрейнджер, -- відгукнувся Драко крижаним тоном.
-- Побавилися й годі.

// 6903
//“And what do __you__ two intend to do about it?” snapped Harry Potter.
//“Professor Quirrell already said he wouldn’t ban spies!”
-- І що __ви__ двоє збираєтеся робити щодо цього? -- різко втрутився Гаррі Поттер.
-- Професор Квірел вже сказав, що не заборонить шпигунів!

// 6904
//“We’ll ban them __for__ him,” said Draco grimly. He hadn’t even understood
//what he meant by the words as he said them, but the very act of speaking seemed
//to crystallize a plan -
-- Ми заборонимо їх __за нього__, -- похмуро сказав Драко. Він навіть не 
розумів, який саме зміст вкладав у слова, що їх промовляв, але сам акт 
мовлення наче викристалізовував план...

***

// 6905
//The stage really was well done, at least for a temporary structure; the makers
//hadn’t fallen into the usual pitfall of being impressed by their own illusion
//of wealth, and knew something about architecture and visual style. From where
//Draco stood, in the obvious place for him to stand, the watching students would
//see him haloed in the faint glitter of emeralds; and Granger, standing where
//Draco had subtly motioned her, would be haloed in Ravenclaw’s sapphire. As for
//Harry Potter, Draco wasn’t looking at him right now.
Сцена й справді була добре зробленою, принаймні для тимчасової споруди. Творці
не потрапили в поширену пастку захоплення власною ілюзією розкоші й знали дещо про 
архітектуру та візуальний стиль. Драко стояв на тому місці, яке очевидно було призначене
для нього -- глядачі бачили його в оточенні слабкого ореолу смарагдового сяяння.
Ґрейнджер стояла там, куди їй вказав Драко, і була ніби оточеною ореолом сапфірів 
Рейвенклову. А щодо Гаррі Поттера -- на нього Драко наразі не дивився.

// 6906
//Professor Quirrell had… awakened, or whatever it was he did; and was leaning
//upon a platinum podium bare of all gems. With evident showmanship, the Defense
//Professor was carefully stacking and squaring those three envelopes containing
//the three parchments upon which the three generals had written their wishes, as
//all the students of Hogwarts watched, and waited.
Професор Квірел... прокинувся, чи щось на кшталт. Він спирався на вільне від 
усілякого коштовного оздоблення платинове підвищення. Професор захисту нарочито 
перекладав і вирівнював у руках три конверти, які містили пергаменти, 
що на них три генерали написали свої бажання. Всі учні Гоґвортсу спостерігали за цим 
і чекали.

// 6907
//Finally Professor Quirrell looked up from the envelopes. “Well,” said the
//Defense Professor. “This is inconvenient.”
Нарешті професор Квірел відірвав погляд від конвертів. 

-- Що ж, -- сказав професор із захисту. -- Це доволі незручно.

// 6908
//A slight titter of laughter ran through the crowd, with a sharp undertone.
Натовпом промайнуло легке хихикання з нотками істерики. 

// 6909
//“I suppose you are all wondering what I will do?” said Professor Quirrell.
//“There is nothing for it; I shall have to do what is fair. Although first there
//was a little speech I wanted to make, and before even that, it appears to me
//that Mr. Malfoy and Miss Granger have something they wish to share.”
-- Гадаю, ви всі губитеся у здогадах, як саме я вчиню? Нічого тут не зробиш. Я
маю вчинити справедливо. Першочергово я хотів зробити невеличку промову, але, 
видається, містер Мелфой і міс Ґрейнджер мають дещо, чим хочуть із вами поділитися.

// 6910
//Draco blinked, and then he and Granger traded rapid glances - __may I?__ -
//__yes, go ahead -__ and Draco raised his voice.
Драко моргнув, а потім він і Ґрейнджер обмінялися швидкими поглядами: __ти не 
проти якщо я?..__ -- __так, звісно__ -- і Драко голосно заговорив.

// 6911
//“General Granger and I would both like to say,” Draco said in his most formal
//voice, knowing it was being amplified and heard, “that we will no longer accept
//the help of any traitors. And if, in any battle, we find that Potter has
//accepted traitors from either of our armies, we will join forces to crush him.”
-- Ми з генералом Ґрейнджер хотіли б сказати, -- Драко використовував свій 
найофіційніший тон, бо знав, що його голос посилюється й передається, -- що відтепер 
ми не будемо приймати допомогу від зрадників. І якщо у битві ми дізнаємося, що
Поттер прийняв зрадників з будь-якого з наших військ, ми обʼєднаємося, щоб знищити 
його.

// 6912
//And Draco shot a glance filled at malice at the Boy-Who-Lived. __Take
//that, General Chaos!__
І Драко кинув сповнений злоби погляд на Хлопчика-Що-Вижив. __Як тобі таке, 
генерале Хаосу!__

// 6913
//“I agree completely with General Malfoy,” said Granger standing beside him, her
//high voice clear and strong. “Neither of us will use traitors, and if General
//Potter does, we will wipe him off the battlefield.”
-- Я повністю погоджуюся із генералом Мелфоєм, -- сказала Ґрейнджер поруч із ним,
її високий голос звучав чисто й сильно. -- Жоден з нас не використовуватиме зрадників,
і якщо генерал Поттер вчинить інакше, ми зітремо його з поля бою.

// 6914
//There was a susurration of surprise from the watching students.
Від спостерігачів лунав здивований шепіт.

// 6915
//“Very good,” said their Defense Professor, smiling. “It took the two of you
//long enough, but you are still to be congratulated on having thought of it
//before any other generals.”
-- Дуже добре, -- сказав, посміхаючись, їхній професор із захисту. -- Вам двом
знадобилося чимало часу, але ви все ще заслуговуєте на вітання, бо додумалися
до цього раніше за інших генералів.

// 6916
//It took a moment for this to soak in -
Знадобився час, щоб це збагнути...

// 6917
//“In the future, Mr. Malfoy, Miss Granger, before you come to my office with any
//request, consider whether there is a way for you to accomplish it without my
//help. I will not deduct Quirrell points on this occasion, but next time you may
//expect to lose the full fifty.” Professor Quirrell wore an amused grin. “And
//what do you have to say about that, Mr. Potter?”
-- У майбутньому, містере Мелфой, міс Ґрейнджер, перш ніж прийти до мого кабінету з 
будь-яким проханням, розгляньте шляхи подолання проблеми без мого втручання. Я не 
зніматиму бали Квірела з цієї нагоди, але наступного разу можете очікувати на втрату 
півсотні, -- професор Квірел задоволено посміхався. -- А що ви скажете з цього приводу, 
містере Поттер?

// 6918
//Harry Potter’s gaze went to Granger, then to Draco. His face appeared calm;
//though Draco was sure __controlled__ would have been the better term.
Гаррі кинув погляд на Ґрейнджер, потім на Драко. Його обличчя видавалося спокійним, 
хоча Драко був упевнений, що краще використати слово __контрольованим__.

// 6919
//Finally Harry Potter spoke, his voice level. “The Chaos Legion is still happy
//to accept traitors. See you on the battlefield.”
Зрештою Гаррі Поттер заговорив, тримаючи свій голос рівним. 

-- Легіон Хаосу й надалі із задоволенням прийматиме зрадників. Побачимося на полі 
бою.

// 6920
//Draco knew the shock was showing on his own face; there were astonished murmurs
//from the watching students, and when Draco glanced at the front row he saw that
//even Harry’s Chaotics looked taken aback.
Драко знав, що його обличчя виказувало подив, споглядаючі учні шоковано перешіптувалися,
а коли Драко подивився на передній ряд, то помітив, що навіть хаосити Гаррі були 
приголомшеними.

// 6921
//Granger’s face was angry, and getting angrier. “Mr. Potter,” she said in a
//sharp tone like she thought she was a teacher, “are you __trying__ to be
//obnoxious?”
Обличчя Ґрейнджер було злим і ставало ще злішим.

-- Містере Поттер, -- різко, наче прикидаючись вчителькою, сказала вона, --
ви що, __намагаєтеся__ бути нестерпним?

// 6922
//“Most certainly not,” Harry Potter said calmly. “I won’t make you do it every
//time. Beat me once, and I’ll stay beaten. But threats aren’t always enough,
//General of Sunshine. You did not ask me to join with you, but tried simply to
//impose your will; and sometimes you must actually defeat the enemy, to impose
//your will on him. You see, I am skeptical that Hermione Granger, the brightest
//academic star of Hogwarts, and Draco, son of Lucius, scion of the Noble and
//Most Ancient House of Malfoy, can work together to beat their common foe, Harry
//Potter.” An amused smile crossed Harry Potter’s face. “Maybe I’ll just do what
//Draco tried with Zabini, and write a letter to Lucius Malfoy and see what
//__he__ thinks about that.”
-- Безсумнівно ні, -- спокійно відповів Гаррі Поттер. -- Я не змушуватиму вас 
робити це щоразу. Побийте мене раз, і я залишуся побитим. Але самих погроз не 
завжди достатньо, генерале Сонечко. Ви не запропонували мені приєднатися до вас, 
а спробували навʼязати мені свою волю. Й іноді, щоб навʼязати ворогові свою волю, 
його треба спочатку перемогти. Розумієте, я скептично ставлюся до того, що
Герміона Ґрейнджер, найяскравіша академічна зіронька Гоґвортсу, і Драко, син 
Луціуса, нащадок шляхетного й найдавнішого роду Мелфоїв, зможуть працювати разом
для знищення свого спільного ворога -- Гаррі Поттера. 

На обличчі Гаррі зʼявилася задоволена посмішка.

-- Можливо, я просто зроблю те, що Драко намагався зробити із Забіні, -- напишу
листа Луціусу Мелфою і дізнаюся, якої __він__ думки з цього приводу.

// 6923
//“__Harry!__” gasped Granger, looking absolutely aghast, and there were
//gasps from the audience as well.
-- __Гаррі!__ -- скрикнула Ґрейнджер сповненим жаху голосом. Скрики лунали 
також і з боку глядачів.

// 6924
//Draco controlled the anger flushing through him. That had been a
//__stupid__ move on Harry’s part, saying that in public. If Harry had
//simply __done__ it, it might have worked, Draco hadn’t even thought about
//that, but __now__ if Father did that it would look like he was playing
//into Harry’s hands -
Драко контролював вируючу у ньому злість. Казати таке публічно було __дурістю__
з боку Гаррі. Якби він просто __зробив__ це, могло б і спрацювати, Драко би про таке 
навіть не подумав, але __тепер__, якщо батько втрутиться, це виглядатиме так, наче 
він грає Гаррі на руку...

// 6925
//“If you think my father, Lord Malfoy, can be manipulated by __you__ that
//easily,” Draco said coldly, “you have a surprise coming, Harry Potter.”
-- Якщо ти вважаєш, що __ти__ зможеш маніпулювати моїм батьком, лордом Мелфоєм, так легко,
-- холодно відповів Драко, -- то на тебе чекає велике здивування, Гаррі Поттере.

// 6926
//And Draco realized as the words finished leaving his mouth that he’d just
//backed __his own father__ squarely into the corner, more or less without
//even meaning to. Father probably __wasn’t__ going to like this, not the
//tiniest bit, but now it would be impossible for him to say so… Draco would have
//to apologize for that, it __had __been an honest accident, but it was
//strange to think that he’d done it at all.
Щойно останні слова покинули його рота, Драко зрозумів, що загнав __власного батька__
у кут, здебільшого навіть не збираючись цього робити. Батькові це, найімовірніше, 
__не сподобається__, анітрохи, але тепер він не зможе цього виказати... Драко доведеться 
просити пробачення за це. Це __насправді__ було випадковістю, але дивно навіть думати, 
що він взагалі таке скоїв.

// 6927
//“Then go ahead and defeat the evil General Chaos,” Harry said, still looking
//amused. “I can’t win against both your armies - not if you __really__ work
//together. But I wonder if perhaps I could break you up before then.”
-- Тоді вперед, розбийте злого генерала Хаосу, -- Гаррі й досі виглядав задоволено.
-- Я не зможу перемогти обидва ваші війська, якщо ви й __справді__ працюватимете разом.
Але мені цікаво, чи не зможу я розділити вас до того.

// 6928
//“You won’t, and we’ll __crush__ you!” said Draco Malfoy.
-- Ти не зможеш, і ми __розчавимо__ тебе! -- сказав Драко Мелфой.

// 6929
//And beside him, Hermione Granger firmly nodded.
І поряд із ним Герміона Ґрейнджер рішуче кивнула.

// 6930
//“Well,” said Professor Quirrell after the astounded silence had stretched for a
//while. “That was __not__ how I expected that particular conversation to
//go.” The Defense Professor had a rather intrigued expression on his face.
//“Truthfully, Mr. Potter, I expected you to concede immediately and with a
//smile, then announce that you had long since worked out my intended lesson but
//had decided not to spoil it for others. Indeed, I planned my speech
//accordingly, Mr. Potter.”
На деякий час запала здивована тиша.

-- Що ж, -- сказав професор Квірел, -- я __не такого__ очікував від цієї конкретної 
розмови. 

Обличчя професора із захисту мало заінтригований вигляд.

-- Чесно кажучи, містере Поттер, я очікував, що ви негайно, із посмішкою на обличчі,
поступитеся, а потім оголосите, що давно вже розкусили суть мого уроку, але вирішили 
не псувати його для інших. Дійсно, я спланував свою промову відповідно, містере 
Поттер.

// 6931
//Harry Potter just shrugged. “Sorry about that,” he said, and said nothing more.
Гаррі Поттер лише потиснув плечима. 

-- Вибачте щодо цього, -- тільки й сказав він.

// 6932
//“Oh, don’t worry,” said Professor Quirrell. “This, too, will serve.”
-- О, не хвилюйтеся, -- відповів професор Квірел. -- Це також підійде.

// 6933
//And Professor Quirrell turned from the three children, and straightened at the
//podium to address the whole watching crowd; his customary air of detached
//amusement dropped away like a falling mask, and when he spoke again his voice
//was amplified louder than it had been.
І професор Квірел повернувся від трьох учнів і випрямився біля підвищення, щоб 
звернутися до всіх спостерігачів. Його звичний вираз відчуженої втіхи зняло як рукою, 
і коли він знову заговорив, його голос підсилився більше, ніж зазвичай. 

// 6934
//“If not for Harry Potter,” said Professor Quirrell, his voice as crisp and cold
//as December, “You-Know-Who would have won.”
-- Якби не Гаррі Поттер, -- голос професора Квірела був жорстким і холодним, наче грудень, 
-- Відомо-Хто б переміг.

// 6935
//The silence was instant, and total.
Тиша запала миттєво. Повна тиша.

// 6936
//“Make no mistake,” said Professor Quirrell. “The Dark Lord __was__
//winning. There were fewer and fewer Aurors who dared face him, the vigilantes
//who opposed him were being hunted down. One Dark Lord and perhaps fifty Death
//Eaters were __winning__ against a country of thousands. That is beyond
//ridiculous! There are no grades low enough for me to mark that incompetence!”
// @ vigilante
-- Не сумнівайтеся, Темний Лорд __перемагав__. Аврорів, що наважувалися виступити 
проти нього, ставало дедалі менше, на дружинників, що протистояли йому, полювали.
Один Темний Лорд і пʼятдесят смертежерів __перемагали__ проти країни з тисячами 
населення. Це поза межами сміховинності! Не існує оцінок достатньо низьких, щоб
я міг оцінити рівень некомпетентності!

// 6937
//There was a frown on the face of Headmaster Dumbledore; and on the faces of the
//audience, puzzlement; and the utter silence went on.
Обличчя директора Дамблдора було похмурим, а обличчя глядачів -- збентеженими. 
Тривала цілковита тиша.

// 6938
//“Do you understand now how it happened? You saw it today. I allowed traitors,
//and gave the generals no means to restrain them. You saw the result. Clever
//plots and clever betrayals, until the last soldier left on the battlefield shot
//himself! You cannot __possibly__ doubt that all three of those armies
//could have been defeated by __any__ outside foe that was unified within
//itself.”
-- Чи розумієте ви зараз, як таке сталося? Ви побачили це сьогодні. Я дозволив 
зрадників і не дав генералам жодних засобів їх угамувати. Ви побачили 
результат. Кмітливі змови і кмітливі зради, дійшло до того, що останній солдат, 
що залишився на полі бою, застрелив себе! Ви __жодним чином__ не можете 
сперечатися з тим, що всі три війська могли б бути розбиті __будь-яким__ зовнішнім 
ворогом, який мав би єдність всередині.

// 6939
//Professor Quirrell leaned forward at the podium, his voice now filled with a
//grim intensity. His right hand stretched out, fingers open and spread.
//“Division is weakness,” said the Defense Professor. His hand closed into a
//tight fist. “Unity is strength. The Dark Lord understood that well, whatever
//his other follies; and he __used__ that understanding to create the one
//simple invention that made him the most terrible Dark Lord in history. Your
//parents faced one Dark Lord. And fifty Death Eaters who were perfectly unified,
//knowing that any breach of their loyalty would be punished by death, that any
//slack or incompetence would be punished by pain. None could escape the Dark
//Lord’s grasp once they took his Mark. And the Death Eaters agreed to take that
//terrible Mark because they knew that once they took it, they would be
//__united__, facing a divided land. One Dark Lord and fifty Death Eaters
//would have defeated an entire country, by the power of the Dark Mark.”
Професор Квірел обперся об підвищення, його голос зловісно напружився. Він витягнув
праву руку, широко розкривши долоню і розправивши пальці. 

-- Розділення -- це слабкість, -- рука професора міцно стиснулася в кулак. --
Єдність -- це сила. Темний Лорд добре розумів це, хай які в нього були недоліки.
І він __використав__ це розуміння, щоб створити той один простий винахід, який зробив
його найжахливішим темним лордом в історії. Ваші батьки протистояли одному Темному
Лордові. І пʼятдесяти абсолютно згуртованим смертежерам, які знали, що будь-яку пробоїну
в їхній відданності буде покарано смертю, і будь-яку слабкість чи некомпетентність 
буде покарано болем. Ніхто не міг уникнути хватки Темного Лорда, відколи приймав 
його мітку. І смертежери погоджувалися прийняти цю жахливу мітку, бо знали -- щойно
вони приймуть її, вони будуть __згуртовані__, а протистоятимуть розділеній території.
Один Темний Лорд і пʼятдесят смертежерів могутністю однієї Чорної мітки перемогли 
б цілу країну.

// 6940
//Professor Quirrell’s voice was bleak and hard. “Your parents __could__
//have fought back in kind. They did not. There was a man named Yermy Wibble who
//called upon the nation to institute a draft, though he did not quite have
//vision enough to propose a Mark of Britain. Yermy Wibble knew what would happen
//to him; he hoped his death would inspire others. So the Dark Lord took his
//family for good measure. Their empty skins inspired nothing but fear, and no
//one dared to speak again. And your parents would have faced the consequences of
//their despicable cowardice, if not for being saved by a one-year-old boy.”
//Professor Quirrell’s face showed full contempt. “A dramatist would have called
//that a __dei ex machina,__ for they did nothing to earn their salvation.
//He-Who-Must-Not-Be-Named may not have deserved to win, but make no doubt of it,
//your parents deserved to lose.”
Голос професора Квірела був похмурим і важким. 

-- Ваші батьки __могли__ боротися в подібний спосіб. Вони не стали. Чоловік на 
імʼя Єрмі Вібл закликав націю впровадити військовий призов, хоча йому не вистачало бачення 
і він не запропонував мітку Британії. Єрмі Вібл знав, що з ним станеться. Він 
сподівався, що його смерть надихне інших. Тому Темний Лорд заразом забрав також 
його сімʼю. Їхні порожні шкіри не навіювали нічого, окрім 
страху, і ніхто більше не наважувався говорити. І ваші батьки зіткнулися би з 
наслідками свого мерзенного боягузства, якби їх не врятував однорічний хлопчик, --
обличчя професора Квірела виказувало абсолютну зневагу. -- Драматург назвав би це 
__dei ex machina__, бо вони не зробили нічого, щоб заслужити своє спасіння. 
Той-Кого-Не-Можна-Називати міг не заслуговувати на перемогу, але не сумнівайтеся, 
ваші батьки заслуговували поразки.

// 6941
//The voice of the Defense Professor rang forth like iron. “And know this: your
//parents have learned nothing! The nation is still fragmented and weak! How few
//decades passed between Grindelwald and You-Know-Who? Do you think __you__
//will not see the next threat in your own lifetimes? Will __you__ repeat
//then the follies of your parents, when you have seen the results so clearly
//laid out before you this day? For I can tell you what your parents will do,
//when the day of darkness comes! I can tell you what lesson they have learned!
//They have learned to hide like cowards and do nothing while they wait for Harry
//Potter to save them!”
Голос професора із захисту бринів, наче залізо. 

-- І ось що я скажу: ваші батьки нічого не навчилися! Нація досі фрагментована
і слабка! Як багато десятиріч розділяє Ґріндельвальда і Відомо-Кого? Гадаєте, __ви__
не побачите наступну загрозу за свого життя? Чи повторите __ви__ тоді дурість своїх 
батьків, коли сьогодні ви так чітко бачили результати перед собою? Бо я знаю, що 
робитимуть ваші батьки, коли настане день темряви! Я знаю, який урок вони вивчили! 
Вони навчилися ховатися, наче боягузи, і нічого не робити, чекаючи на спасіння від 
Гаррі Поттера!

// 6942
//There was a wondering look in the eyes of Headmaster Dumbledore; and other
//students gazed up at their Defense Professor with bewilderment and anger and
//awe.
В очах директора Дамблдора стояла задумлива зацікавленість. Учні дивилися на свого
професора захисту із подивом, злістю й захватом. 

// 6943
//Professor Quirrell’s eyes were as cold now as his voice. “Mark this, and mark
//it well. He-Who-Must-Not-Be-Named wished to rule over this country, to hold it
//in his cruel grasp forever. But at least he wished to rule over a
//__living__ country, and not a heap of ash! There have been Dark Lords who
//were mad, who wished only to make the world a vast funeral pyre! There have
//been wars in which one whole country marched against another! Your parents
//nearly lost against half a hundred, who thought to take this country alive! How
//quickly would they have been crushed by a foe more numerous than they, a foe
//that cared for nothing but their destruction? This I foretell: When the next
//threat rises, Lucius Malfoy will claim that you must follow him or perish, that
//your only hope is to trust in his cruelty and strength. And though Lucius
//Malfoy himself will believe it, this will be a lie. For when the Dark Lord
//perished, Lucius Malfoy did not unite the Death Eaters, they were shattered in
//an instant, they fled like whipped dogs and betrayed each other! Lucius Malfoy
//is not strong enough to be a true Lord, Dark or otherwise.”
Очі професора Квірела стали такими ж холодними, як його голос. 

-- Запамʼятайте це, і запамʼятайте добре. Той-Кого-Не-Можна-Називати жадав керувати 
цією країною, вічно тримати її своєю злою хваткою. Але він, хоча б, жадав керувати 
країною __живих__, а не купкою попелу! Існували темні лорди, що були божевільними,
що мріяли лише про те, щоб перетворити світ на величезне погребальне вогнище! Були 
війни, під час яких цілі країни виступали проти інших. Ваші батьки майже програли 
проти півсотні, яка збиралася взяти цю країну живцем! Як швидко вони були б розтрощені 
більш чисельним, ніж вони, ворогом, якого не хвилювало б нічого, окрім їхнього знищення?
Ось що я пророкую: коли постане наступна загроза, Луціус Мелфой проголосить, що ви маєте 
послідувати за ним або загинути, що єдина ваша надія -- довіритися його жорстокості й силі.
І хоча у це віритиме навіть сам Луціус Мелфой, це буде брехнею. Адже коли Темний Лорд зник,
Луціус Мелфой не обʼєднав смертежерів, їх було миттєво розбито, вони розбіглися, наче 
побиті батогами собаки, і зрадили одне одного! Луціус Мелфой недостатньо сильний, щоб бути 
істинним лордом, ані темним, ані навпаки.

// 6944
//Draco Malfoy’s fists were clenched white, there were tears in his eyes, and
//fury, and unbearable shame.
Драко Мелфой стискав кулаки так, що біліли кісточки, у його очах стояли сльози, 
і лють, і нестерпний сором.

// 6945
//“No,” said Professor Quirrell, “I do not think it will be Lucius Malfoy who
//saves you. And lest you think that I speak on my own behalf, time will make
//clear soon enough that this is not so. I make you no recommendation, my
//students. But I say that if a whole country were to find a leader as strong as
//the Dark Lord, but honorable and pure, and take his Mark; then they could crush
//any Dark Lord like an insect, and all the rest of our divided magical world
//could not threaten them. And if some still greater enemy rose against us in a
//war of extermination, then only a united magical world could survive.”
-- Ні, -- сказав професор Квірел, -- я не думаю, що Луціус Мелфой буде тим, хто 
вас врятує. Якщо ви думаєте, що я говорю задля власної користі, час скоро покаже,
що це не так. Я не надаю вам жодної рекомендації, мої учні. Я кажу, що якби вся 
країна знайшла лідера такого ж сильного, як Темний Лорд, але достойного і чистого,
і прийняла його мітку, то така країна могла б розчавити будь-якого темного лорда 
наче комаху, і ніхто з решти нашого розділеного магічного світу не становив би для 
неї загрози. І якщо навіть ще більш могутній ворог постане проти нас у війні на знищення,
то тільки обʼєднаний магічний світ зможе вижити.

// 6946
//There were gasps, mostly from Muggleborns; the students in green-trimmed robes
//looked merely puzzled. Now it was Harry Potter whose fists were clenched tight
//and trembling; and Hermione Granger beside him was angry and dismayed.
Пролунали скрики, здебільшого від учнів маґлівського роду. Учні в оздоблених зеленим
мантіях виглядали трохи спантеличено. Тепер вже Гаррі Поттер стискав кулаки і тремтів,
а Герміона Ґрейнджер поруч із ним була розлюченою і збентеженою.

// 6947
//The Headmaster rose from his seat, his face now stern, saying no word as yet;
//but the command was clear.
Директор підвівся зі свого місця, його обличчя стало суворим. Він ще не сказав ані
слова, але наказ був зрозумілим.

// 6948
//“I do not say __what__ threat will come,” said Professor Quirrell. “But
//you will not live all your lives in peace, not if the past history of the world
//is any guide at all to its future. And if you do in the future as you have seen
//three armies do this day, if you cannot throw aside your petty bickering and
//take the Mark of a single leader, then indeed you might wish that the Dark Lord
//had lived to rule over you, and regret the day that ever Harry Potter was born
//-”
-- Я не кажу, __яка__ загроза прийде, -- продовжував професор Квірел. -- Але ви не
проживете все своє життя у мирі, хіба що історія світу почне являти  
собою путівник для його майбутнього. І якщо у майбутньому ви вчините так, як сьогодні 
вчинили три війська, якщо ви не зможете відкинути убік свої дрібʼязкові суперечки і 
прийняти мітку одного лідера, то вам дійсно варто мріяти, щоб Темний Лорд був живим і 
керував вами, і проклинати день, коли народився Гаррі Поттер...

// 6949
//“__Enough!__” bellowed Albus Dumbledore.
-- __Достатньо!__ -- заволав Албус Дамблдор.

// 6950
//There was silence.
Запанувала тиша.

// 6951
//Professor Quirrell slowly turned his head to gaze at where Albus Dumbledore
//stood in the fury of his wizardry; their eyes met, and a soundless stress
//pressed down like weight upon all the students, as they listened not daring to
//move.
Професор Квірел повільно повернув голову і подивився туди, де Албус Дамблдор 
стояв у своїй чарівницькій люті. Їхні погляди зустрілися, і безшумний натиск
придавив учнів, що слухали і боялися поворухнутися. 

// 6952
//“You, too, failed this country,” said Professor Quirrell. “And you know the
//peril as well as I.”
-- Ви також підвели цю країну, -- сказав професор Квірел. -- І ви обізнані про
небезпеку не менше за мене. 

// 6953
//“Such speeches are not for the ears of students,” said Albus Dumbledore in a
//dangerously rising voice. “Nor for the mouths of professors!”
-- Такі промови не для вух учнів, -- голос Албуса Дамблдора погрозливо зростав.
-- І не для ротів професорів!

// 6954
//Dryly, then, Professor Quirrell spoke: “There were many speeches made for the
//ears of adults, as the Dark Lord rose. And the adults clapped and cheered, and
//went home having enjoyed their day’s entertainment. But I will obey you,
//Headmaster, and make no further speeches if you do not like them. My lesson is
//simple. I will go on doing nothing about traitors, and we will see what
//students can do for themselves about that, when they do not wait for professors
//to save them.”
Професор Квірел відповів сухо.

-- Було багато промов, що вони проголошувалися для вух дорослих, коли Темний Лорд 
підіймався. І дорослі плескали й вітали, і йшли додому, гарно розважені. Але я 
підкорюся вам, директоре, і не виголошуватиму більше промов, які вам не подобаються. 
Мій урок простий. Я й надалі нічого не робитиму зі зрадниками, і ми побачимо, що 
здатні зробити щодо цього учні, коли вони не очікують порятунку від професорів.

// 6955
//And then Professor Quirrell turned back to his students, and his mouth quirked
//up in a wry grin that seemed to dissipate the dreadful pressure like a god
//blowing to scatter the clouds. “But do please be kind to the traitors up until
//now,” said Professor Quirrell. “They were just having fun.”
Тоді професор Квірел повернувся назад до учнів, і його рот скривився у посмішку,
що вона, видавалося, розсіяла жахливий тиск, наче бог своїм подихом розганяв хмари.

-- Але, будь ласка, будьте поблажливими до тих зрадників, що були дотепер. Вони 
всього лише хотіли повеселитися.

// 6956
//There was laughter, though it was nervous at first, and then it seemed to
//build, as Professor Quirrell stood there smiling wryly and some of the tension
//released itself.
Пролунав сміх, спершу знервований, але професор Квірел стояв, криво посміхаючись, 
і напруга частково спала, а сміх вирівнявся.

***

// 6957
//Draco’s mind was still whirling through a thousand questions and a daze of
//horror, as Professor Quirrell prepared to open the envelopes in which the three
//had inscribed their wishes.
Розум Драко досі кружляв крізь тисячі запитань і заціпенілий жах, коли професор 
Квірел приготувався відкрити конверти, що в них трійця записала свої бажання.

// 6958
//It had never before occurred to Draco that moon-traveling Muggles were a
//greater threat than the slow decline of wizardry, or that Father had proven
//himself too weak to stop them.
Драко ніколи не замислювався про те, що подорожуючі на Місяць маґли були більшою
загрозою, ніж повільний занепад чаклунства, чи що батько показав себе надто слабким 
для того, щоб їх зупинити.

// 6959
//And even stranger, the obvious implication: Professor Quirrell believed that
//__Harry __could. The Defense Professor claimed to have made no
//recommendation, but he’d mentioned Harry Potter over and over in his speech;
//others would already be thinking the same thing as Draco.
І, що дивніше, очевидний прихований зміст: професор Квірел вірив, що
__Гаррі__ міг. Професор із захисту міг проголосити, що не дає жодних рекомендацій, 
але він згадував Гаррі Поттера знову і знову у своїй промові. Напевно, інші думають 
про те саме, що й Драко.

// 6960
//It was ridiculous. The boy who had covered a stuffed chair in glitter and
//called it a throne -
Це було сміховинно. Хлопчик, що вкрив набите крісло блиском і назвав це троном...

// 6961
//__The boy who faced down Snape and won,__ whispered a traitorous voice,
//__that boy could grow into a Lord strong enough to rule, strong enough to
//save us all -__
__Хлопчик, що протистояв Снейпові і переміг__ прошепотів зрадницький голос,
__цей хлопчик може вирости у лорда достатньо сильного, щоб керувати, достатньо 
сильного, щоб врятувати нас всіх...__

// 6962
//Harry had been __raised __by Muggles! He was practically a mudblood
//himself, he wouldn’t fight against his adopted family -
Але Гаррі був __вихований__ маґлами! Він практично сам був бруднокровцем,
він не боротиметься проти своєї прийомної сімʼї...

// 6963
//__He knows their arts, their secrets and their methods; he can take all
//of the Muggles’ science and use it against them, alongside our own power as
//wizards.__
__Він знає їхні мистецтва, їхні таємниці і їхні методи. Він може взяти всю
маґлівську науку і використати її проти них, разом із нашою чарівницькою силою.__

// 6964
//But what if he refuses? What if he’s too weak?
Але що як він не погодиться? Що як він занадто слабкий?

// 6965
//__Then,__ said that inner voice, __it will have to be you, won’t it,
//Draco Malfoy?__
__Тоді__, сказав внутрішній голос, __це доведеться зробити тобі, чи не так, 
Драко Мелфой__?

// 6966
//And then there was a renewed hush from the crowd, as Professor Quirrell opened
//the first envelope.
Серед натовпу поновилася тиша, коли професор Квірел відкрив перший конверт.

// 6967
//“Mr. Malfoy,” said Professor Quirrell, “your wish is for… Slytherin to win the
//House Cup.”
-- Містере Мелфой, ви бажаєте... щоб Слизерин виграв Кубок Гуртожитків.

// 6968
//There was a puzzled pause from the watching audience.
Глядачі здивовано мовчали. 

// 6969
//“Yes, Professor,” said Draco in a clear voice, knowing that it was once again
//being amplified. “If you can’t do that, then something else for Slytherin -”
-- Так, професоре, -- чистим голосом сказав Драко, знаючи, що звук, знову ж таки, 
підсилюється. -- Якщо ви не можете цього зробити, тоді щось інше для Слизерину...

// 6970
//“I will not award House points unfairly,” said Professor Quirrell. He tapped a
//cheek, looking thoughtful. “Which makes your wish difficult enough to be
//interesting. Would you like to say anything about why, Mr. Malfoy?”
-- Я не нагороджуватиму очками гуртожитку просто так, -- сказав професор Квірел.
Він задумливо постукав себе по щоці. -- Це робить ваше бажання достатньо складним, 
щоб бути цікавим. Чи не погодитеся ви пояснити навіщо це, містере Мелфой?

// 6971
//Draco turned from the Defense Professor, gazed out at the crowd from against
//that backdrop of platinum and emeralds. Not all of Slytherin had cheered for
//Dragon Army, there were anti-Malfoy factions who had expressed that
//dissatisfaction by supporting the Boy-Who-Lived, or even Granger; and those
//factions would be encouraged greatly by what Zabini had done. He needed to
//remind them that Slytherin meant Malfoy and Malfoy meant Slytherin -
Драко відвернувся від професора із захисту і подивився на натовп, стоячи на 
фоні платини і смарагдів. Не всі слизеринці вболівали за Армію Драконів, існували
анти-мелфоївські фракції, які виказували своє невдоволення, підтримуючи Хлопчика-Що-Вижив
чи навіть Ґрейнджер. І вчинок Забіні сильно заохотив ці фракції. Треба 
нагадати їм, що Слизерин означає Мелфой і Мелфой означає Слизерин...

// 6972
//“No,” said Draco. “They’re Slytherins, they’ll understand.”
-- Ні, -- сказав Драко. -- Вони слизеринці, вони зрозуміють.

// 6973
//There was some laughter from the audience, especially in Slytherin, even from
//some students who would have called themselves anti-Malfoy a moment earlier.
Від глядачів пролунав сміх, особливо з боку слизеринців -- навіть декого з тих, 
хто лише мить тому назвали б себе анти-мелфоївськими. 

// 6974
//Flattery was a lovely thing.
Лестощі -- чудова річ.

// 6975
//Draco turned back to look at Professor Quirrell again, and was surprised to see
//an embarrassed look on Granger’s face.
Драко знову повернувся до професора Квірела й здивувався зніяковілому виразу
обличчя Ґрейнджер. 

// 6976
//“And for Miss Granger…” said Professor Quirrell. There was the sound of a
//tearing envelope. “Your wish is for… Ravenclaw to win the House Cup?”
-- Щодо міс Ґрейнджер, -- професор Квірел розірвав конверт, -- ви бажаєте щоб...
Рейвенклов отримав Кубок Гуртожитків?

// 6977
//There was considerable laughter from the audience, including a chuckle from
//Draco. He hadn’t thought Granger played that game.
Сміху було чимало -- хихикнув навіть Драко. Він не знав, що Ґрейнджер також 
грає в цю гру. 

// 6978
//“Well, um,” said Granger, sounding like she was suddenly stumbling over a
//memorized speech, “I meant to say, that…” She took a deep breath. “There were
//soldiers from every House in my army, and I don’t mean to slight any of them.
//But Houses should still count for something, too. It was sad when students in
//the same House were hexing each other just because they were in different
//armies. People should be able to rely on whoever’s in their House. That’s why
//Godric Gryffindor, and Salazar Slytherin, and Rowena Ravenclaw, and Helga
//Hufflepuff created the four Houses of Hogwarts in the first place. I’m the
//General of Sunshine, but even before that, I’m Hermione Granger of Ravenclaw,
//and I’m proud to be part of a House that’s eight hundred years old.”
-- Що ж, кхм, -- Ґрейнджер, видавалося, затиналася, пригадуючи завчену напамʼять 
промову, -- я мала на увазі, що... 

Вона глибоко вдихнула.

-- У моєму війську були солдати з кожного гуртожитку, і я жодним чином не хочу виказати
неповаги до жодного з них. Але гуртожитки також повинні мати значення. Було дуже сумно,
коли учні з одного гуртожитку проклинали одне одного через те, що вони належали до різних
військ. Люди повинні мати можливість покладатися на членів свого гуртожитку. Саме тому Ґодрик
Ґрифіндор, і Салазар Слизерин, і Ровіна Рейвенклов, і Гелґа Гафелпаф насамперед і
створили чотири гуртожитки Гоґвортсу. Я генерал Сонечка, але насамперед я
Герміона Ґрейнджер з Рейвенклову, і я пишаюся тим, що є частиною гуртожитку віком
у вісімсот років.

// 6979
//“Well said, Miss Granger!” said Dumbledore’s booming voice.
-- Гарно сказано, міс Ґрейнджер! -- пролунав голос Дамблдора.

// 6980
//Harry Potter was frowning, and something tickled at the edge of Draco’s
//recognition.
Гаррі Поттер стояв насуплений, і щось засвербіло на краю свідомості Драко.

// 6981
//“An interesting sentiment, Miss Granger,” said Professor Quirrell. “But there
//are times when it is good for a Slytherin to have friends in Ravenclaw, or for
//a Gryffindor to have friends in Hufflepuff. Surely it would be best if you
//could rely both on your friends in your House, and also your friends in your
//army?”
-- Цікава позиція, міс Ґрейнджер, -- сказав професор Квірел. -- Але існують часи, 
коли слизеринцю корисно мати друзів у Рейвенклові, а ґрифіндорцю -- у Гафелпафі.
Звісно для вас буде найкраще, якщо ви зможете покладатися одночасно і на друзів
зі свого гуртожитку, і на друзів у своєму війську?

// 6982
//Granger’s eyes flicked briefly toward the watching students and teachers, and
//she said nothing.
Ґрейнджер кинула швидкий погляд у бік інших учнів і вчителів, але нічого 
не сказала. 

// 6983
//Professor Quirrell nodded as though to himself, and then turned back to the
//podium, and took up and tore open the last envelope. Beside Draco, Harry Potter
//visibly tensed up as the Defense Professor drew forth the parchment. “And Mr.
//Potter wishes for -”
Професор Квірел кивнув, наче сам собі, а потім розкрив останній конверт. Поряд із
Драко Гаррі Поттер відчутно напружився, коли професор із захисту витягав пергамент.

-- І містер Поттер бажає, щоб...

// 6984
//There was a pause as Professor Quirrell looked at the parchment.
Професор Квірел зупинився, вдивляючись у пергамент.

// 6985
//Then, without any change of expression on Professor Quirrell’s face, the sheet
//of parchment burst into flames, and burned with a brief, intense fire that left
//only drifting black dust sprinkling down from his hand.
Потім аркуш пергаменту охопило полумʼя, і він швидко згорів у яскравому, сильному 
вогні. З пальців професора Квірела плавно посипався чорний попіл, а його обличчя 
анітрохи не змінилося.

// 6986
//“Please confine yourself to the possible, Mr. Potter,” said Professor Quirrell,
//sounding very dry indeed.
-- Будь ласка, обмежте себе здійсненними бажаннями, містере Поттер, -- сухо сказав
професор Квірел.

// 6987
//There was a long pause; Harry, standing beside Draco, looked rather shaken.
Пауза розтягнулася надовго -- Гаррі, що стояв поряд із Драко, видавався трохи
приголомшеним.

// 6988
//__What in Merlin’s name did he ask for?__
__Про що, в імʼя Мерліна, він попросив?__

// 6989
//“I do hope,” said Professor Quirrell, “that you prepared another wish, if I
//could not grant that one.”
-- Я сподіваюся, ви приготували інше бажання, на випадок якщо я не зможу 
здійснити це?

// 6990
//There was another pause.
Ще одна пауза.

// 6991
//Harry drew a deep breath. “I didn’t,” he said, “but I already thought of
//another one.” Harry Potter turned to look out at the audience, and his voice
//firmed as he spoke. “People fear traitors because of the damage the traitor
//does directly, the soldiers they shoot or the secrets they tell. But that’s
//only part of the danger. What people do because they’re __afraid__ of
//traitors also costs them. I used that strategy today against Sunshine and
//Dragon. I didn’t tell my traitors to cause as much direct damage as possible. I
//told them to act in the way that would create the most distrust and confusion,
//and make the generals do the most costly things to try and stop them from doing
//it again. When there are just a few traitors and a whole country opposing them,
//it stands to reason that what a few traitors do might be less damaging than
//what a whole country does to stop them, that the cure might be worse than the
//disease -”
Гаррі глибоко вдихнув.

-- Ні, але я вже придумав інше, -- Гаррі Поттер повернувся до глядачів, і його голос
ставав дедалі впевненішим. -- Люди бояться зрадників через пряму шкоду, якої вони 
завдають: солдати, що вони їх підстрелюють, секрети, що вони їх видають. Але це
лише частина загрози. Те, що роблять люди через свій __страх__ перед зрадниками,
також має свою ціну. Я використав цю тактику сьогодні, проти Сонечка і Дракона.
Я не казав своїм зрадникам завдавати якомога більше прямої шкоди. Я наказав їм 
поводитися таким чином, щоб посіяти якнайбільше недовіри й плутанини, змусивши 
генералів вдаватися до найзатратніших заходів, щоб спробувати зупинити зрадників і уникнути
повторення ситуації. Коли існує кілька зрадників, і проти них стоїть уся країна, 
розумно, щоб шкода, яку заподіюють кілька зрадників, була меншою за ту, що походить 
від тих, хто намагається їх зупинити. Ліки можуть бути гіршими за хворобу...

// 6992
//“Mr. Potter,” said the Defense Professor, his voice suddenly cutting, “the
//lesson of history is that you are simply wrong. Your parents’ generation did
//too little to unify themselves, not too much! This whole country almost fell,
//Mr. Potter, though you were not there to see it. I suggest that you ask your
//dorm-mates in Ravenclaw how many of them have lost family to the Dark Lord. Or
//if you are wiser, do __not__ ask! __Do__ you have a wish to make, Mr.
//Potter?”
-- Містере Поттер, -- різко втрутився професор із захисту, -- історія навчає нас,
що ви помиляєтеся. Покоління ваших батьків зробило замало, щоб обʼєднати себе, а не 
забагато! Уся ця країна майже пала, містере Поттер, але ви не могли цього бачити. 
Можете спитати своїх однокласників з Рейвенклову, скільки з них втратили сімʼї
через Темного Лорда. Або, якщо ви мудріші за це -- __не питайте__! Чи __маєте__ ви
якесь бажання, містере Поттер?

// 6993
//“If you don’t mind,” said the mild voice of Albus Dumbledore, “I should like to
//hear what the Boy-Who-Lived has to say. He has more experience than either of
//us at stopping wars.”
-- Якщо ви не проти, -- мʼяко сказав Албус Дамблдор, -- мені хотілося б почути,
що хоче сказати Хлопчик-Що-Вижив. Він має більше досвіду у припиненні війн, ніж
будь-хто з нас.

// 6994
//A few people laughed, but not many.
Кілька людей засміялося.

// 6995
//Harry Potter’s gaze moved to Dumbledore, and he looked considering for a
//moment. “I’m not saying you’re wrong, Professor Quirrell. In the last war,
//people didn’t act together, and a whole country almost fell to a few dozen
//attackers, and yes, that was pathetic. And if we make the same mistake next
//time, yes, that’ll be even more pathetic. But you never fight the same war
//twice. And the problem is, the enemy is __also__ allowed to be smart. If
//you’re divided you’re vulnerable in one way; but when you try to unite, then
//you face other risks, and other costs, and the enemy will try to take advantage
//of those, too. You can’t stop thinking at just one level of the game.”
Гаррі Поттер перевів погляд на Дамблдора. Якусь мить він роздумував.

-- Я не кажу, що ви помиляєтеся, професоре Квірел. Під час останньої війни люди 
не діяли спільно, і ціла країна майже пала перед кількома десятками нападників, і, 
так, це було жалюгідно. І якщо наступного разу ми зробимо таку саму помилку, це буде 
навіть більш жалюгідно. Але одну й ту саму війну не ведуть двічі. Проблема в тому, 
що ворогові __також__ дозволено бути розумним. Якщо ви розділені, то ви уразливі одним 
чином, але коли ви намагаєтеся обʼєднатися, то відкриваєтеся іншим ризикам і постаєте
перед іншими витратами, і ворог спробує цим скористатися. Ви не можете перестати думати,
досягнувши лише одного рівня гри.

// 6996
//“Simplicity also has a great deal to commend it, Mr. Potter,” said the dry
//voice of the Defense Professor. “I do hope that you have learned something this
//day about the dangers of strategies more complicated than uniting your people
//and attacking your enemy. And if all this does not tie into your wish somehow,
//I shall be quite annoyed.”
-- Простота має свої переваги, містере Поттер, -- відповів сухий голос професора 
Квірела. -- Сподіваюся, сьогодні ви навчились чогось про небезпеку стратегій більш 
складних, ніж обʼєднати своїх людей і напасти на ворога. І якщо все це якимось чином 
не веде до вашого бажання, я буду вкрай роздратованим.

// 6997
//“Yes,” said Harry Potter, “it was pretty difficult coming up with a wish to
//symbolize the costs of unity. But the problem of acting together isn’t just for
//wars, it’s something we have to solve all our lives, every day. If everyone is
//coordinating using the same rules, and the rules are stupid, then if
//__one__ person decides to do things differently, they’re breaking the
//rules. But if __everyone__ decides to do things differently, they can.
//It’s exactly the same problem of everyone needing to act together. But for the
//__first__ person who speaks out, it seems like they’re going against the
//crowd. And if you thought that the only important thing was that people should
//always be unified, then you could never change the game, no matter how stupid
//the rules. So my own wish, to symbolize what happens when people unite in the
//wrong direction, is that in Hogwarts we should play Quidditch without the
//Snitch.”
-- Так, -- сказав Гаррі Поттер, -- було доволі важко вигадати бажання, яке б 
символізувало ціну єдності. Але проблема того, щоб діяти спільно, стосується не лише 
війн. Ми все своє життя вирішуємо цю проблему, щодня. Коли всі координуються,
використовуючи ті самі правила, але ці правила дурні, то якщо __одна__ людина 
вирішить зробити щось інакше, то вона порушує правила. Але якщо __всі__ вирішать 
робити інакше, то можна. Саме така проблема виникає, коли всі мають діяти разом.
Але для __першої__ людини, що висловлюється, це наче виступати проти цілого натовпу.
І якщо ви гадаєте, що єдина важлива річ -- щоб люди постійно були в єдності, то
ви ніколи не зможете змінити гру, хай які дурні в ній правила. Тож, моє бажання, яке
символізує, що трапляється, коли люди обʼєднуються у неправильному напрямку: я хочу,
щоб у Гоґвортсі грали у квідич без снича.

// 6998
//“__WHAT?__” screamed a hundred voices in the crowd, as Draco’s jaw
//dropped.
-- __ЩО?__ -- заволали сотні голосів із натовпу, а у Драко відвисла щелепа.

// 6999
//“The Snitch ruins the whole game,” said Harry Potter. “Everything the other
//players do ends up being irrelevant. It would make overwhelmingly more sense to
//just buy a clock. It’s one of those incredibly stupid things you don’t notice
//just because you grew up with it, that people only do because everyone else is
//doing it -”
-- Снич руйнує всю гру. Все, що роблять інші гравці, наприкінці немає жодного 
значення. Гра матиме незчисленно більше сенсу, якщо просто купити годинник. Це 
одна з тих неймовірно тупих речей, які ви не помічаєте тільки тому, що виросли 
із ними. Одна з тих речей, які люди роблять, бо так роблять всі інші...

// 7000
//But by that point Harry Potter’s voice could no longer be heard, because the
//riot had started.
Але Гаррі Поттера більше не було чутно, адже бунт вже піднявся.

***

// 7001
//The riot ended around fifteen seconds later, after a gigantic spout of fire
//blasted out of the highest tower of Hogwarts to the sound of a hundred
//thunders. Draco hadn’t known Dumbledore could __do__ that.
Бунт скінчився десь за пʼятнадцять секунд, коли гігантський спалах полумʼя
зірвався з найвищої вежі Гоґвортсу під гуркотіння сотні громів. Драко не знав,
що Дамблдор здатен __на таке__. 

// 7002
//The students sat down again very carefully and quietly.
Учні акуратно і тихо розсілися на місця.

// 7003
//Professor Quirrell was laughing, without pause. “So be it, Mr. Potter. Your
//will be done.” The Defense Professor paused deliberately. “Of course, I only
//promised __one__ cunning plot. And that is all that the three of you will
//get.”
Професор Квірел невпинно сміявся. 

-- Нехай буде так, містере Поттер. Вашу волю буде виконано, -- професор Квірел 
зробив навмисну паузу. -- Звісно, я обіцяв лише __один__ хитрий план. І це все, 
що ви троє отримаєте.

// 7004
//Draco had been half-expecting the words earlier, but now they still came as a
//shock; Draco exchanged rapid glances with Granger, they would have been the
//obvious allies but their wishes were directly opposed -
Драко майже очікував цього, але слова все одно вразили його. Він обмінявся швидкими 
поглядами із Ґрейнджер, вони були очевидними союзниками, але їхні бажання були прямо 
протилежними...

// 7005
//“You mean,” said Harry, “we have to all agree on a wish?”
-- Ви маєте на увазі, -- спитав Гаррі, -- що ми маємо обрати спільне бажання?

// 7006
//“Oh, that would be __far__ too much to ask,” said Professor Quirrell. “The
//three of you have no common enemy, do you?”
-- О, це буде __аж занадто__, -- відповів професор Квірел. -- Ви троє не маєте
жодного спільного ворога, чи не так?

// 7007
//And for one brief moment, so fast that Draco thought he might have imagined it,
//the Defense Professor’s eyes flicked in the direction of Dumbledore.
І на одну коротку мить, таку швидку, що Драко подумав, може йому це здалося, 
погляд професора із захисту перемістився в бік Дамблдора.

// 7008
//“No,” said Professor Quirrell, “I mean that I shall grant three wishes using a
//single plot.”
-- Ні, -- сказав професор Квірел. -- Я маю на увазі, що маю виконати три бажання
за допомогою одного плану.

// 7009
//There was a confused silence.
Запала розгублена тиша.

// 7010
//“You can’t do that,” Harry said flatly from beside Draco. “Not even __I__
//can do that. Two of those wishes are mutually incompatible. It’s
//__logically impossible -__” and then Harry cut himself off.
-- Це неможливо, -- рішуче сказав Гаррі поряд із Драко. -- Навіть __я__ такого
не можу. Два з цих бажань взаємно несумісні. Це __логічно неможливо__... -- і 
тоді Гаррі осікся.

// 7011
//“You’re a few years too young to tell me what I can’t do, Mr. Potter,” said
//Professor Quirrell, with a brief dry smile.
-- Ви ще замолоді, щоб казати мені, чого я не можу зробити, містере Поттер, -- 
професор Квірел коротко й сухо посміхнувся.

// 7012
//Then the Defense Professor turned back to the watching students. “Truthfully, I
//have no confidence in your ability to learn this day’s lesson. Go home, and
//enjoy your time with your families, or what’s left of them, while they still
//live. My own family is long since dead at the Dark Lord’s hand. I shall see you
//all when classes resume.”
Тоді професор Квірел обернувся до глядачів. 

-- Чесно кажучи, я не впевнений у вашій здатності вивчити сьогоднішній урок. Ідіть 
додому й насолоджуйтеся компанією ваших сімей, чи того, що від них залишилося, доки
вони ще живі. Моя сімʼя давно загинула від руки Темного Лорда. Побачимось на заняттях.

// 7013
//In the speechless silence that resulted, Professor Quirrell already turning to
//walk off the stage, Draco heard the Defense Professor’s voice say, quietly and
//no longer amplified, “But you, Mr. Potter, I would speak to now.”
Запала безмовна тиша, і коли професор Квірел вже відвернувся, щоб зійти зі 
сцени, Драко почув тихий, вже не підсилений голос професора із захисту.

-- А з вами, містере Поттер, я поговорю зараз.
