// 7014
//== Coordination Problems, Pt 3
== Розділ 35. Складнощі координації, ч.3

// 7015
//They had gone to the Defense Professor’s office, and Professor Quirrell had
//sealed the door before he leaned back in his chair and spoke.
Вони прийшли до кабінету професора з захисту. Професор Квірел щільно зачинив
двері, і лише потім сперся на спинку стільця й заговорив.

// 7016
//The Defense Professor’s voice was very calm, and that unnerved Harry a good
//deal more than if Professor Quirrell had been shouting.
Голос професора з захисту був дуже спокійним, і це непокоїло Гаррі значно
більше, ніж якби той кричав.

// 7017
//“I am trying,” said Professor Quirrell quietly, “to make allowances for the
//fact that you are young. That I myself, at the same age, was a quite
//extraordinary fool. You speak with adult style and meddle in adult games, and
//sometimes I forget that you are only a meddler. I hope, Mr. Potter, that your
//childish meddling has not just killed you, ruined your country, and lost the
//next war.”
-- Я стараюся, -- тихо сказав професор Квірел, -- взяти до уваги вашу
молодість. Що я сам у вашому віці був надзвичайним дурнем. Ви розмовляєте зі
стилем дорослого та втручаєтеся в дорослі ігри, і подеколи я забуваю, що ви
лише плутаєтеся під ногами. Сподіваюся, містере Поттер, що ви своїм втручанням 
щойно не вбили себе, не знищили свою країну та не програли наступну війну.

// 7018
//It was very hard for Harry to control his breathing. “Professor Quirrell, I
//said a good deal less than I wished to say, but I had to say something. Your
//proposals are extremely alarming to anyone who has the slightest familiarity
//with Muggle history over the last century. The Italian fascists, some very
//nasty people, got their name from the __fasces,__ a bundle of rods bound
//together to symbolize the idea that unity is strength -”
Гаррі довелося докласти всіх зусиль, щоб його дихання залишалося рівним.

-- Професоре Квірел, я і так сказав значно менше, ніж хотів, а просто 
промовчати я не міг. Ваші пропозиції надзвичайно збентежать будь-кого, хто бодай 
трохи знає маґлівську історію останнього сторіччя. Назва італійських фашистів --
вкрай бридкі люди -- походить від __fasces__, що означає жмут звʼязаних прутів
і символізує ідею того, що єдність -- це сила...

// 7019
//“So the nasty Italian fascists believed that unity is stronger than division,”
//said Professor Quirrell. Sharpness was beginning to creep into his voice.
//“Perhaps they also believed that the sky is blue, and advocated a policy of not
//dropping rocks on your head.”
-- Отже бридкі італійські фашисти вірили, що єдність сильніша за розбіжність,
-- сказав професор Квірел, у його голосі вже чулася різкість. -- Напевно вони
також вірили, що небо блакитне, і пропагували ідею, що не варто кидати собі на
голову каміння.

// 7020
//__Reversed stupidity is not intelligence; the world’s stupidest person
//may say the sun is shining, but that doesn’t make it dark out…__ “Fine, you’re
//right, that was an ad hominem argument, it’s not wrong __because__ the
//fascists said it. But Professor Quirrell, you can’t have everyone in a country
//take the Mark of one dictator! It’s a single point of failure! Look, I’ll put
//it this way. Suppose the enemy just Imperiuses whoever controls the Mark -”
__Зворотна дурість не є розумністю; найдурніша людина може сказати, що сонце
світить, проте воно через це не згасне...__

-- Гаразд, ваша правда, це був аргумент ad hominem, ця ідея неправильна не
__через те__, що фашисти її висловлювали. Але, професоре Квірел, не можна, щоб
уся країна прийняла мітку одного диктатора! Це ж єдина точка відмови! 
Слухайте, я сформулюю це так. Припустімо, що ворог просто накладе на того, 
хто керує міткою, Імперіус...

// 7021
//“Powerful wizards are not so easy to Imperius,” said Professor Quirrell dryly.
//“And if you cannot find a worthy leader, you are in any case doomed. But worthy
//leaders do exist; the question is whether the people shall follow them.”
-- Могутнього чарівника непросто підкорити Імперіусом, -- сухо сказав професор
Квірел. -- А якщо ви неспроможні знайти гідного лідера, то ви вже приречені. Але
гідні лідери існують. Питання в тому, чи підуть за ними люди.

// 7022
//Harry raked his hands through his hair in frustration. He wanted to call a
//time-out and make Professor Quirrell read __The Rise and Fall of the
//Third Reich__ and then start the conversation over again. “I don’t suppose that
//if I suggested democracy was a better form of government than dictatorship -”
Гаррі запустив руки у своє волосся від розпачу. Він хотів попросити перерви й
змусити професора Квірела прочитати "`Злет і падіння Третього Рейху`", а потім
почати цю розмову спочатку.

-- Навряд чи, якби я запропонував демократію як кращу форму правління, ніж
диктатуру...

// 7023
//“I see,” said Professor Quirrell. His eyes closed briefly, then opened. “Mr.
//Potter, the stupidity of Quidditch is transparent to you because you did not
//grow up revering the game. If you had never heard of elections, Mr. Potter, and
//you simply __saw what is there__, what you saw would not please you. Look
//to our elected Minister of Magic. Is he the wisest, the strongest, the greatest
//of our nation? No; he is a buffoon who is owned in fee simple by Lucius Malfoy.
//Wizards went to the polls and chose between Cornelius Fudge and Tania Leach,
//who had competed with each other in a grand and entertaining contest after the
//__Daily Prophet,__ which Lucius Malfoy also controls, decided that they
//were the only serious candidates. That Cornelius Fudge was genuinely selected
//as the best leader our country could offer is not a suggestion anyone could
//make with a straight face. It is no different in the Muggle world, from what I
//have heard and seen; the last Muggle newspaper I read mentioned that the
//previous President of the United States had been a retired movie actor. If you
//had not grown up with elections, Mr. Potter, they would be as transparently
//silly to you as Quidditch.”
-- Зрозуміло, -- сказав професор Квірел. Він на мить заплющив очі, потім знову
їх розплющив. -- Містере Поттер, ідіотизм квідичу для вас очевидний, адже вас не
виховували з пошаною до цієї гри. Якби ви ніколи не чули про вибори, містере
Поттер, і просто побачили, __що відбувається насправді__, то вам було б не до
вподоби те, що ви побачили б. Візьмемо нашого обраного міністра магії. Хіба він
наймудріший, найсильніший, найвеличніший з нашого народу? Ні; він блазень,
власність Луціуса Мелфоя. Чарівники пішли на вибори між Конеліусом Фаджем та
Танею Ліч, що змагалися були в грандіозному та видовищному змаганні, після
того, як у "`__Щоденному віщуні__`", що також під контролем Луціуса Мелфоя,
оголосили, що лише ці два кандидати варті уваги. Припущення, що Корнеліус Фадж --
найкращий лідер, якого може запропонувати наша країна, ніхто не зможе вислухати
без сміху. Наскільки я чув і бачив, у маґлівському світі все те ж саме. Остання
маґлівська газета, що я читав, згадувала, що попередній президент Сполучених
Штатів був колишнім актором. Якби ви не виховувалися з виборами, містере
Поттер, їхня дурість була б так само очевидною для вас, як і у випадку з квідичем.

// 7024
//Harry sat there with his mouth open, struggling for words. “The point of
//elections isn’t to produce the one best leader, it’s to keep politicians scared
//enough of the voters that they don’t go completely evil like dictators do -”
У Гаррі відвисла щелепа, він намагався відшукати слова.

-- Суть виборів не в тому, щоб знайти найкращого лідера, а в тому, щоб політики
достатньо боялися виборців, щоб не стати цілковитим злом, як зазвичай
диктатори...

// 7025
//“The last war, Mr. Potter, was fought between the Dark Lord and Dumbledore. And
//while Dumbledore was a flawed leader who was losing the war, it is
//__ridiculous__ to suggest that __any__ of the Ministers of Magic
//elected during that period could have taken Dumbledore’s place! Strength flows
//from powerful wizards and their followers, not from elections and the fools
//they elect. That is the lesson of magical Britain’s recent history; and I doubt
//that the next war will teach you a lesson any different. __If__ you
//survive it, Mr. Potter, which you will __not__ do unless you abandon the
//enthusiastic illusions of childhood!”
-- Остання війна, містере Поттер, відбувалася між Темним Лордом і Дамблдором. І
хоча Дамблдор був лідером з купою вад і програвав війну, припускати, ніби
будь-який з обраних за той час міністрів магії міг би замінити Дамблдора --
просто __сміховинно__! Сила в могутніх чарівниках і їхніх послідовниках,
а не у виборах і дурнях, яких обирають. Це урок новітньої
історії чаклунської Британії, і я сумніваюся, що наступна війна дасть якийсь
інший урок. __Якщо__ ви переживете її, містере Поттер, чого __не трапиться__,
якщо ви не позбудетеся захопливих ілюзій дитинства!

// 7026
//“If you think there are no dangers in the course of action you advocate,” said
//Harry, and despite everything his voice was growing sharp, “then that, too, is
//childish enthusiasm.”
-- Якщо ви гадаєте, що в пропонованому вами напрямку дій немає небезпек, --
сказав Гаррі, і попри все його голос став різким, -- то це також дитяча ілюзія.

// 7027
//Harry stared grimly into Professor Quirrell’s eyes, who stared back without
//blinking.
Гаррі непохитно втупився в очі професора Квірела, той відповів незмигним
поглядом.

// 7028
//“Such dangers,” said Professor Quirrell coldly, “are to be discussed in offices
//like this one, not in speeches. The fools who elected Cornelius Fudge are not
//interested in complications and caution. Present them with anything more
//nuanced than a rousing cheer, and you will face your war alone. __That__,
//Mr. Potter, was your childish error, which Draco Malfoy would not have made
//even when he was eight years old. It should have been obvious even to
//__you__ that you should have stayed silent, and __consulted with me
//first__, not spoken your worries before the crowd!”
-- Такі небезпеки, -- холодно відповів професор Квірел, -- мають обговорюватися
в кабінетах на кшталт цього, а не в промовах. Дурнів, що вибрали Корнеліуса
Фаджа, не цікавлять складнощі й обережність. Покажи їм щось складніше, ніж гучні
аплодисменти, і воюватимеш сам. __Це__, містере Поттер, і було вашою дитячою
помилкою, якої Драко Мелфой не припустився б навіть у вісім років. Навіть
__вам__ мало б бути очевидним, що варто помовчати і __спочатку порадитися зі
мною__, а не висловлювати свої сумніви перед натовпом!

// 7029
//“I am no friend of Albus Dumbledore,” said Harry, a cold in his voice to match
//Professor Quirrell’s. “But he is no child, and he did not seem to think my
//concerns were childish, nor that I should have waited to speak them.”
-- Я не друг Албусові Дамблдору, -- сказав Гаррі, не менш холодним голосом, ніж
професор Квірел. -- Проте він не дитина, і йому моє занепокоєння не здалося
дитячим, як і не здалося, що мені варто зачекати з тим, щоб його висловити.

// 7030
//“Oh,” said Professor Quirrell, “so you take your cues from the Headmaster now,
//do you?” and stood up from behind his desk.
-- О, то ви тепер дослухаєтеся до директора, чи не так?

Професор Квірел підвівся з-за стола.

***

// 7031
//When Blaise turned the corner on the way to the office, he saw that Professor
//Quirrell was already leaning against the wall.
Коли Блез завернув за ріг дорогою до кабінету, то побачив професора Квірела, що
вже стояв там і спирався на стіну.

// 7032
//“Blaise Zabini,” said the Defense Professor, straightening; his eyes were set
//like dark stones within his face, and his voice sent a shiver of fear down
//Blaise’s spine.
-- Блез Забіні, -- сказав професор з захисту, випрямившись. Його очі скидалися
на темні камені, а голос нагнав на Блеза дрижаків.

// 7033
//__He can’t do anything against me, I just have to remember that -__
__Він нічого мені не може зробити, я просто маю цього не забувати...__

// 7034
//“I believe,” said Professor Quirrell, in a clear, cold voice, “that I have
//already guessed the name of your employer. But I would hear it from your own
//lips, and tell me also the price that bought you.”
-- Гадаю, -- сказав професор Квірел чистим холодним голосом, -- я вже
здогадався, хто ваш роботодавець. Але я почую, як ви самі це скажете, а також
розповісте про ціну, за яку вас купили.

// 7035
//Blaise knew he was sweating under his robes, and that the moisture would be
//already visible on his forehead. “I got a chance to show I was better than all
//three generals, and I took it. A lot of people hate me now, but there’re also
//plenty of Slytherins who’ll love me for it. What makes you think I’m -”
Блез знав, що пітніє під мантією, і що вологу вже видно на його лобі.

-- Мені дали можливість показати, що я кращий за всіх трьох генералів, і я нею
скористався. Багато хто мене тепер ненавидить, але є також чимало слизеринців,
що мене через це люблять. З чого ви взяли, що я...

// 7036
//“You did not devise the plan of today’s battle, Mr. Zabini. Tell me who did.”
-- Не ви розробили план сьогоднішньої битви, містере Забіні. Скажіть мені, хто
це зробив.

// 7037
//Blaise swallowed hard. “Well… I mean, in that case… then you already know who
//did, right? The only one who’s that crazy is Dumbledore. And he’ll protect me
//if you try to do anything.”
Блез гучно ковтнув слину.

-- Ну... тобто, в такому разі... ви ж уже знаєте, хто це зробив, так? Єдина
настільки схиблена людина -- це Дамблдор. І він захистить мене, якщо ви
спробуєте щось зробити.

// 7038
//“Indeed. Tell me the price.” The Defense Professor’s eyes were still hard.
-- Дійсно. Назвіть мені ціну, -- погляд професора з захисту не помʼякшав.

// 7039
//“It’s my cousin Kimberly,” Blaise said, swallowing again and trying to control
//his voice. “She’s real, and she’s really being bullied, Potter checked that, he
//wasn’t dumb. Only Dumbledore said that he’d nudged the bullies into doing it,
//just for the plan, and if I worked for __him__ she’d be fine afterward,
//but if I __did__ go with Potter, there was more trouble Kimberly could get
//into!”
-- Моя двоюрідна сестра, Кімберлі, -- сказав Блез, знову ковтнувши, він
намагався стримати тремтіння голосу. -- Вона справді існує, і її цькують,
Поттер це перевірив, він не дурень. Тільки Дамблдор сказав, що це він нацькував
хуліганів саме для цього плану, і якщо я працюватиму на __нього__, то з нею все
буде гаразд, а якщо працюватиму на __Поттера__, то Кімберлі очікують лише
більші проблеми!

// 7040
//Professor Quirrell was silent for a long moment.
Професор Квірел довго мовчав.

// 7041
//“I see,” Professor Quirrell said, his voice now much milder. “Mr. Zabini,
//should such an event occur again, you may contact me directly. I have my own
//ways of protecting my friends. Now, a final question: Even with all the power
//you took into your hands, forcing a tie would have been difficult. Did
//Dumbledore instruct you as to who should win otherwise?”
-- Зрозуміло, -- сказав професор Квірел, тепер значно добріше. -- Містере Забіні,
якщо таке трапиться знову, ви можете звертатися до мене напряму. Я маю власні
способи захисту друзів. І останнє питання: навіть з усією владою, що ви прибрали
до своїх рук, домогтися нічиєї було складно. Чи проінструктував вас Дамблдор, хто
мав виграти, якби це не вдалося?

// 7042
//“Sunshine,” said Blaise.
-- Сонечко, -- відповів Блез.

// 7043
//Professor Quirrell nodded. “As I thought.” The Defense Professor sighed. “In
//your future career, Mr. Zabini, I do not suggest trying any plots that
//complicated. They have a tendency to fail.”
Професор Квірел кивнув.

-- Як я й гадав, -- професор із захисту зітхнув. -- У подальшій карʼєрі, містере
Забіні, я раджу не намагатися втілити настільки заплутані плани. Вони мають
тенденцію провалюватися.

// 7044
//“Um, I said that to the Headmaster, actually,” Blaise said, “and he said that
//was why it was important to have more than one plot going at a time.”
-- Ем, насправді я про це сказав директорові, -- відповів Блез, -- а він
сказав, що саме тому й важливо одночасно підтримувати більше ніж один план.

// 7045
//Professor Quirrell passed a weary hand across his forehead. “It’s a wonder the
//Dark Lord didn’t go mad from fighting __him.__ You may go on to your
//meeting with the Headmaster, Mr. Zabini. I will say nothing of this, but if the
//Headmaster should somehow discover that we have spoken, remember my standing
//offer to give you what protection I can. You are dismissed.”
Професор Квірел стомлено провів рукою по чолу.

-- Дивовижно, що Темний Лорд не збожеволів від боротьби з __ним__. Ви можете
йти на свою зустріч з директором, містере Забіні. Я не розповідатиму про це,
але якщо директор якимось чином дізнається про нашу розмову, памʼятайте про мою
чинну пропозицію надати вам весь можливий захист. Ви вільні.

// 7046
//Blaise didn’t wait for any other word, just turned and fled.
Блезові не треба було повторювати двічі -- він просто розвернувся й втік.

***

// 7047
//Professor Quirrell waited for a time, and then said, “Go ahead, Mr. Potter.”
Професор Квірел трохи зачекав, а потім сказав:

-- Уперед, містере Поттер.

// 7048
//Harry tore the Cloak of Invisibility off his head and stuffed into his pouch.
//He was trembing with so much rage he could hardly speak. “He __what?__ He
//did __what?__”
Гаррі зірвав з голови Плащ невидимості й запхав його до капшучка. Він тремтів
від такої люті, що ледве міг розмовляти.

-- Він __що__? Він зробив __що__?

// 7049
//“You should have deduced it yourself, Mr. Potter,” Professor Quirrell said
//mildly. “You must learn to blur your vision until you can see the forest
//obscured by the trees. Anyone who heard the stories about you, and who did not
//know that you were the mysterious Boy-Who-Lived, could easily deduce your
//ownership of an invisibility cloak. Step back from these events, blur away
//their details, and what do we observe? There was a great rivalry between
//students, and their competition ended in a perfect tie. That sort of thing only
//happens in stories, Mr. Potter, and there is one person in this school who
//thinks in stories. There was a strange and complicated plot, which you should
//have realized was uncharacteristic of the young Slytherin you faced. But there
//is a person in this school who deals in plots that elaborate, and his name is
//not Zabini. And I did warn you that there was a quadruple agent; you knew that
//Zabini was at least a triple agent, and you should have guessed a high chance
//that it was he. No, I will not declare the battle invalid. All three of you
//failed the test, and lost to your common enemy.”
// hedrok копія "blur your vision...trees" у 063:11230, 063:11236
-- Ви мали самі все збагнути, містере Поттер, -- спокійно сказав професор
Квірел. -- Ви маєте навчитися відволікатися від деталей, доки не побачите ліс
за деревами. Будь-хто, хто почув би історії про вас і не знав би, що ви
таємничий Хлопчик-Що-Вижив, легко б збагнув, що ви володієте плащем-невидимкою.
Відійдіть на крок від цих подій, забудьте про дрібниці, і що ви бачите?
Було сильне суперництво між учнями, і їхнє змагання завершилося ідеальною
нічиєю. Таке трапляється лише в казках, містере Поттер, а в цій школі лише
одна людина думає казками. Мав місце дивний і заплутаний план, і ви мали б
зрозуміти, що він нехарактерний для цього юного слизеринця. Але в цій школі є
людина, що працює з такими складними планами, і його звуть не Забіні. Також я
попередив вас, що існує почотирійний агент, і ви знали, що Забіні принаймні
потрійний агент, і мали здогадатися, що з великою ймовірністю це він. Ні, я не
оголошуватиму битву недійсною. Ви втрьох провалили іспит, програли спільному
ворогові.

// 7050
//Harry didn’t care about tests at this point. “Dumbledore __blackmailed__
//Zabini by __threatening his cousin?__ Just to make our battle end in a
//tie? __Why?__”
Гаррі вже було начхати на іспити.

-- Дамблдор __шантажував__ Забіні __погрозами його двоюрідній сестрі__? Лише
для того, щоб наша битва завершилася нічиєю? __Навіщо__?

// 7051
//Professor Quirrell gave a mirthless laugh. “Perhaps the Headmaster thought the
//rivalry was good for his pet hero and wished to see it continue. For the
//greater good, you understand. Or perhaps he was simply mad. You see, Mr.
//Potter, everyone knows that Dumbledore’s madness is a mask, that he is sane
//pretending to be insane. They pride themselves on that clever insight, and
//knowing the secret explanation, they stop looking. It does not occur to them
//that it is __also__ possible to have a mask behind the mask, to be insane
//pretending to be sane pretending to be insane. And I am afraid, Mr. Potter,
//that I have urgent business elsewhere, and must depart; but I should strongly
//advise you not to take your cues from Albus Dumbledore when fighting a war.
//Until later, Mr. Potter.”
Професор Квірел безрадісно розсміявся.

// hedrok: for greater good - канон (сьома книжка, гасло з листа Дамблдора)
// hedrok "it is also possible to have a mask behind the mask" копія в 086:15612
-- Можливо, директор вважає, що суперництво корисне для його хатнього героя, й
бажав, щоб воно продовжувалося. Для загального блага, знаєте. А може, він
просто божевільний. Розумієте, містере Поттер, усі знають, що божевілля Дамблдора
-- це маска, що він нормальний, що вдає ненормального. Вони пишаються
собою, що додумалися до цього геніального відкриття, і знаючи таємне пояснення,
припиняють думати далі. Їм не спадає на думку, що __також__ можливо, що це маска
за маскою: він може бути божевільним, що вдає нормального, що вдає
божевільного. Боюся, містере Поттер, що в мене є невідкладні справи деінде, і
я маю йти. Але я щиро раджу вам не дослухатися до Албуса Дамблдора під час
війни. До зустрічі, містере Поттер.

// 7052
//And the Defense Professor inclined his head with some irony, and then strode
//off in the same direction Zabini had fled, while Harry was still standing in
//open-mouthed shock.
І професор із захисту дещо іронічно схилив голову, та швидко пішов у тому ж
напрямку, що й Забіні, доки Гаррі стояв роззявивши рота від шоку.

***

// 7053
//__Aftermath: Harry Potter.__
__Наслідки: Гаррі Поттер.__

// 7054
//Harry trudged slowly toward the Ravenclaw dorm, eyes unseeing of walls,
//paintings, or other students; he went up stairs and down ramps without slowing,
//speeding, or noticing where he trod.
Гаррі повільно плентався до башти Рейвенклову, він не бачив ані стін, ані
картин, ані інших учнів. Він підіймався сходами й спускався пандусами не
сповільнюючись, не прискорюючись та не помічаючи, куди він іде.

// 7055
//It had taken him more than a minute after Professor Quirrell’s departure to
//realize that his only source of information about Dumbledore being involved was
//(a) Blaise Zabini, who he would have to be an absolute gaping idiot to trust
//again, and (b) Professor Quirrell, who could have easily faked a plot in
//Dumbledore’s style, and who might also think that a little student rivalry was
//a fine thing; and who had, if you stepped back and blurred out the details,
//just proposed turning the country into a magical dictatorship.
Знадобилося більше хвилини після того, як його залишив професор Квірел, щоб
Гаррі усвідомив, що єдиним джерелом інформації про причетність Дамблдора були
(а) Блез Забіні, що йому довіритися знову було б неперевершеним ідіотизмом, і (б)
професор Квірел, що легко міг сфабрикувати змову в стилі Дамблдора, і він також
міг вважати, що невеличке суперництво серед учнів було доречним, і хто,
якщо відійти на крок і забути про дрібниці, щойно запропонував перетворити цю
країну на чаклунську диктатуру.

// 7056
//And it was also possible that Dumbledore __was__ the one behind Zabini,
//and that Professor Quirrell had been sincerely trying to fight the Dark Mark in
//kind, and prevent the repetition of a performance he saw as pathetic. Trying to
//make sure that Harry didn’t end up fighting the Dark Lord alone, while everyone
//else hid, frightened, trying to stay out of the line of fire, waiting for Harry
//to save them.
Також було можливо, що Дамблдор __справді__ керував Забіні, і що професор
Квірел щиро намагався боротися з Чорною міткою дзеркальним методом і запобігти
повторенню ситуації, яку він вважав жалюгідною. Намагався зробити все, щоб
Гаррі не боровся з Темним Лордом наодинці, доки решта б перелякано заховалися й
намагалися триматися подалі від боротьби в очікуванні, доки Гаррі їх врятує.

// 7057
//But the truth was…
Але по правді...

// 7058
//Well…
Ну...

// 7059
//Harry was sort of okay with that.
Гаррі, взагалі-то, це влаштовувало.

// 7060
//It was, he knew, the kind of thing that was supposed to make heroes resentful
//and bitter.
Він знав, що через таке герої мають відчувати образу й гіркоту.

// 7061
//To heck with that. Harry was very much in favor of everyone else
//__staying out of danger__ while the Boy-Who-Lived took down the Dark Lord
//by himself, plus or minus a small number of companions. If the next conflict
//with the Dark Lord got to the point of a Second Wizarding War that killed lots
//of people and embroiled a whole country, that would mean Harry had
//__already failed__.
Але до дідька. Гаррі набагато більше подобався варіант, коли всі інші
__тримаються подалі від небезпеки__, доки Хлопчик-Що-Вижив упорається з Темним
Лордом власноруч плюс-мінус невеличке число супутників. Якщо наступний конфлікт
з Темним Лордом перетвориться на Другу Чаклунську Війну, що вбʼє безліч людей і
зачепить усю країну, то це означатиме, що Гаррі __вже програв__.

// 7062
//And if afterward a war broke out between wizards and Muggles, it didn’t matter
//who won, Harry would have already failed by letting it get that far. Besides,
//who said the societies couldn’t peacefully integrate when the secrecy
//inevitably broke down? (Though Harry could hear Professor Quirrell’s dry voice
//in his mind, asking him if he was a fool, and saying all the obvious things…)
//And if mages and Muggles couldn’t live in peace, then Harry would combine magic
//and science and figure out how to evacuate all the wizards to Mars or
//somewhere, instead of letting a war break out.
А якщо після цього розпочнеться війна між чарівниками й маґлами, то начхати,
хто виграє: Гаррі вже програє, допустивши це. Крім того, чому б цим двом
суспільствам не інтегруватися мирно, коли таємниця неминуче розкриється? (Хоча
Гаррі вже чув у розумі сухий голос професора Квірела, що питав його, чи не
дурень він, і надавав усі очевидні аргументи...) А якщо чарівники й маґли не
здатні жити в мирі, то Гаррі обʼєднає сили магії та науки й вигадає, як
евакуювати всіх чарівників на Марс чи кудись іще, замість того, щоб дати війні
розпочатися.

// 7063
//Because if it did come down to a war of extermination…
Бо якщо дійде до війни на знищення...

// 7064
//That was the thing Professor Quirrell hadn’t realized, the one most important
//question he’d forgotten to ask his young general.
Цього професор Квірел не усвідомлював, він забув поставити своєму молодому
генералові одне найважливіше питання.

// 7065
//The real reason why Harry had no intention of being argued into endorsing a
//Light Mark, no matter __how__ much it would help him in his fight against
//the Dark Lord.
Про справжню причину, чому Гаррі жодним чином не збирався приймати Світлу
мітку, __хай там як__ вона допоможе в його боротьбі проти Темного Лорда.

// 7066
//One Dark Lord and fifty Marked followers had been a peril to all of magical
//Britain.
Один темний лорд і пʼятдесят послідовників з міткою були страшною небезпекою
для всієї чаклунської Британії.

// 7067
//If all Britain took the Mark of a strong leader, they would be a peril to the
//whole magical world.
Якщо вся Британія прийме мітку сильного лідера, то вони стануть страшною
небезпекою для всього чаклунського світу.

// 7068
//And if the whole wizarding world took a single Mark, they would be a danger to
//the rest of humanity.
А якщо весь чаклунський світ прийме спільну мітку, то вони стануть небезпекою
для решти людства.

// 7069
//No one knew quite how many wizards there were in the world. He’d done a few
//estimates with Hermione and come up with numbers in the rough range of a
//million.
Ніхто не знав, скільки у світі чаклунів. Вони з Герміоною приблизно
розрахували, що десь мільйон.

// 7070
//But there were six billion Muggles.
Але маґлів -- шість мільярдів.

// 7071
//If it came down to a final war…
І якщо дійде до остаточної війни...

// 7072
//Professor Quirrell had forgotten to ask Harry which side he would protect.
Професор Квірел забув спитати Гаррі, кого він захищатиме.

// 7073
//A scientific civilization, reaching outward, looking upward, knowing that its
//destiny was to grasp the stars.
Наукову цивілізацію, що тягнулася назовні, дивилася вгору, знала, що їй судилося
досягти зірок.

// 7074
//And a magical civilization, slowly fading as knowledge was lost, still governed
//by a nobility that saw Muggles as not quite human.
Чи чаклунську цивілізацію, що з втратою знань повільно згасала та досі була під
владою знаті й вважала маґлів не зовсім людьми.

// 7075
//It was a terribly sad feeling, but not one that held any hint of doubt.
Це було страшенно сумно, але жодних сумнівів тут бути не могло.

***

// 7076
//__Aftermath: Blaise Zabini.__
__Наслідки: Блез Забіні.__

// 7077
//Blaise strolled through the hallways with careful, self-imposed slowness, his
//heart beating wildly as he tried to calm down -
Блез обережно й нарочито повільно йшов коридорами, його серце калатало в
грудях, хоч він і намагався заспокоїтися...

// 7078
//“Ahem,” said a dry, whispering voice from a shadowy alcove as he passed.
-- Кгем, -- почувся сухий шепіт із затіненої ніші, повз яку він проходив.

// 7079
//Blaise jumped, but he didn’t scream.
Блез підстрибнув, проте не закричав.

// 7080
//Slowly, he turned.
Він повільно обернувся.

// 7081
//In that small, shadowy corner was a black cloak so wide and billowing that it
//was impossible to determine whether the figure beneath was male or female, and
//atop the cloak a broad-brimmed black hat, and a black mist seemed to gather
//beneath it and obscure the face of whoever or whatever might lie beneath.
У тому невеличкому затіненому кутку був чорний плащ, такий великий і мінливий,
що було неможливо визначити навіть стать його власника, а над плащем був
капелюх з широкими крисами, і чорний туман ніби збирався під ним, щоб приховати
обличчя того, хто там був.

// 7082
//“Report,” whispered Mr. Hat and Cloak.
-- Доповідай, -- прошепотів містер Капелюх і Плащ.

// 7083
//“I said just what you told me to,” said Blaise. His voice was a little calmer
//now that he wasn’t lying to anyone. “And Professor Quirrell reacted just the
//way you expected.”
-- Я сказав саме те, що ви мені доручили, -- повідомив Блез. Його голос був
трохи спокійнішим, адже тепер він не брехав. -- А професор Квірел зреагував
саме так, як ви очікували.

// 7084
//The broad black hat tilted and straightened, as though the head below had
//nodded. “Excellent,” said the unidentifiable whisper. “The reward I promised
//you is already on its way to your mother, by owl.”
Широкий чорний капелюх нахилився, а потів вирівнявся, ніби голова під ним
кивнула.

-- Винагорода, яку я обіцяв, уже летить совою до вашої матері.

// 7085
//Blaise hesitated, but his curiosity was eating him alive. “Can I ask now why
//you want to cause trouble between Professor Quirrell and Dumbledore?” The
//Headmaster hadn’t had anything to do with the Gryffindor bullies that Blaise
//knew about, and besides helping Kimberly, the Headmaster had also offered to
//make Professor Binns give him excellent marks in History of Magic even if he
//turned in blank parchments for his homework, though he’d still have to attend
//class and pretend to hand them in. Actually Blaise would have betrayed all
//three generals for free, and never mind his cousin either, but he’d seen no
//need to say that.
Блез вагався, але він аж палав від цікавості.

-- Дозвольте запитати, чому ви хочете розсварити професора Квірела з Дамблдором?

Директор не мав жодного стосунку до ґрифіндорських хуліганів, наскільки було
відомо Блезові, і, крім допомоги Кімберлі, директор також запропонував відмінні
оцінки з історії магії від професора Бінса, навіть якщо він здаватиме порожні
пергаменти замість домашньої роботи, хоча йому все одно треба відвідувати
заняття та вдавати, ніби він їх здає. Насправді Блез зрадив би
усіх трьох генералів задарма, і начхати на двоюрідну сестру, але він не бачив
причин це оголошувати.

// 7086
//The broad black hat cocked to one side, as if to convey a quizzical stare.
//“Tell me, friend Blaise, did it occur to you that traitors who betray so many
//times over often meet with ill ends?”
Широкий чорний капелюх нахилився набік, ніби передавав питальний погляд.

-- Скажи мені, друже Блез, чи спадало тобі на думку, що зрадників, які так часто
зраджують, зазвичай спіткає сумна доля?

// 7087
//“Nope,” said Blaise, looking straight into the black mist under the hat.
//“Everyone knows that nothing __really__ bad ever happens to students in
//Hogwarts.”
-- Ні, -- сказав Забіні, він дивився прямо в чорний туман під капелюхом. --
Усі знають, що нічого __справді__ поганого не трапляється з учнями Гоґвортсу.

// 7088
//Mr. Hat and Cloak gave a whispery chuckle. “Indeed,” said the whisper. “With
//the murder of one student five decades ago being the exception that proves the
//rule, since Salazar Slytherin would have keyed his monster into the ancient
//wards at a higher level than the Headmaster himself.”
Містер Капелюх і Плащ тихо хихикнув.

// hedrok: "keyd into wards..." копія в 049:8953
-- Дійсно, -- прошепотів він. -- А вбивство однієї учениці пʼятдесят років тому
-- лише виняток, що доводить правило, бо Салазар Слизерин надав би своєму
монстру більше повноважень у давніх захисних чарах, ніж навіть директору.

// 7089
//Blaise stared at the black mist, now beginning to feel a little uneasy. But it
//ought to take a Hogwarts professor to do anything significant to him without
//setting off alarms. Quirrell and Snape were the only professors who’d do
//something like this, and Quirrell wouldn’t care about fooling __himself__,
//and Snape wouldn’t hurt one of his own Slytherins… would he?
Блез витріщався в чорний туман, тепер він відчував неспокій. Але лише професор
Гоґвортсу може зробити з ним щось серйозне, не зчинивши тривоги. Квірел та
Снейп були єдиними професорами, що можуть зробити щось таке, але Квірел би не
став обдурювати __самого себе__, а Снейп не нашкодить нікому зі слизеринців...
чи не так?

// 7090
//“No, friend Blaise,” whispered the black mist, “I only wished to advise you
//never to try anything like this in your adult life. So many betrayals would
//certainly lead to at least one vengeance.”
-- Ні, друже Блез, -- прошепотів чорний туман, -- я лише хотів порадити тобі
ніколи не робити нічого подібного в дорослому житті. Така кількість зрад
безсумнівно призведе до бодай однієї помсти.

// 7091
//“My __mother__ never got any vengeances,” said Blaise proudly. “Even
//though she married __seven__ husbands and every single one of them died
//mysteriously and left her lots of money.”
-- Моя __мати__ ніколи не зазнала помсти, -- пихато сказав Блез. -- Хоча вона
одружувалася __сім__ разів, і щоразу чоловік таємничо помирав і залишав їй
купу грошей.

// 7092
//“Really?” said the whisper. “However did she persuade the seventh to marry her
//after he heard what happened to the first six?”
-- Справді? -- запитав шепіт. -- Яким дивом вона переконала сьомого одружитися
з нею після того, як він дізнався, що сталося з шістьма попередниками?

// 7093
//“I asked Mum that,” said Blaise, “and she said I couldn’t know until I was old
//enough, and I asked her how old was old enough, and she said, older than her.”
-- Я питав про це матір, і вона сказала, що мені не можна цього знати, доки я не
буду достатньо дорослим, а коли я запитав, коли я стану достатньо дорослим, то
вона відповіла, що коли я стану дорослішим за неї.

// 7094
//Again the whispery chuckle. “Well then, friend Blaise, my congratulations on
//having followed in your mother’s footsteps. Go, and if you say nothing of this,
//we will not meet again.”
І знову тихе хихотіння.

-- Ну що ж, друже Блез, мої вітання, що ти береш приклад з матері. Йди, і якщо
ти про це не згадуватимеш, то ми більше не зустрінемося.

// 7095
//Blaise backed uneasily away, feeling an odd reluctance to turn his back.
Блез неспокійно позадкував, йому чомусь не хотілося повертатися спиною.

// 7096
//The hat tilted. “Oh, come now, little Slytherin. If you were truly the equal of
//Harry Potter or Draco Malfoy, you would have already realized that my hinted
//threats were just to ensure your silence before Albus. Had I intended to harm,
//I would not have hinted; had I said nothing, __then__ you should have
//worried.”
Капелюх нахилився.

-- Ой, ну ж бо, маленький слизеринцю. Якби ти справді був рівнею Гаррі
Поттерові чи Драко Мелфою, то вже зрозумів би, що мої погрози натяками потрібні
лише щоб ти нічого не сказав Албусові. Якби я планував завдати тобі шкоди, то
не натякав би. От якби я нічого не сказав, __тоді__ тобі треба було б
хвилюватися.

// 7097
//Blaise straightened, feeling a little insulted, and nodded to Mr. Hat and
//Cloak; then turned decisively and strode off toward his meeting with the
//Headmaster.
Блез випрямився, він відчував образу. Тоді кивнув містерові Капелюху й Плащу,
рішуче розвернувся й пішов на зустріч з директором.

// 7098
//He’d been hoping to the very end that someone __else__ would show up and
//give him a chance to sell out Mr. Hat and Cloak.
Він до останньої миті сподівався, що зʼявиться хтось __ще__ й дасть йому
можливість продати містера Капелюха й Плаща.

// 7099
//But then Mum hadn’t betrayed seven different husbands at the __same
//time.__ When you looked at it __that__ way, he was still doing better than
//her.
Але матір не зраджувала семи різних чоловіків __одночасно__. Якщо __так__ на це
подивитися, то він випереджає її.

// 7100
//And Blaise Zabini went on walking toward the Headmaster’s office, smiling,
//content to be a quintuple agent -
І Блез Забіні йшов до кабінету директора з усмішкою, задоволений, що він
пʼятирійний агент...

// 7101
//For a moment the boy stumbled, but then straightened, shaking off the odd
//feeling of disorientation.
На мить хлопець похитнувся, потім випрямився, струшуючи дивне відчуття
дезорієнтації.

// 7102
//And Blaise Zabini went on walking toward the Headmaster’s office, smiling,
//content to be a quadruple agent.
І Блез Забіні йшов до кабінету директора з усмішкою, задоволений, що він
почотирійний агент.

***

// 7103
//__Aftermath: Hermione Granger.__
__Наслідки: Герміона Ґрейнджер.__

// 7104
//The messenger didn’t approach her until she was alone.
Посланець не наближався до неї, доки вона була не сама.

// 7105
//Hermione was just leaving the girl’s bathroom where she sometimes hid to think,
//and a bright shining cat leaped out of nowhere and said, “Miss Granger?”
Герміона саме виходила з дівочого туалету, де вона подеколи ховалася, щоб
подумати, коли кіт з яскравого сяяння вистрибнув нізвідки й сказав: "`Міс
Ґрейнджер?`"

// 7106
//She let out a little shriek before she realized the cat had spoken in Professor
//McGonagall’s voice.
Вона тихенько скрикнула, а потім збагнула, що кіт розмовляв голосом професорки
Макґонеґел.

// 7107
//Even so she hadn’t been frightened, only startled; the cat was bright and
//brilliant and beautiful, glowing with a white silver radiance like moon-colored
//sunlight, and she couldn’t imagine being scared.
Вона все одно не була налякана -- лише здивована. Кіт був яскравим, блискучим
і гарним, випромінював біло-срібне сяяння, ніби сонячне проміння кольору місяця, і вона
просто не могла бути наляканою.

// 7108
//“What are you?” said Hermione.
-- Що ти таке? -- запитала Герміона.

// 7109
//“This is a message from Professor McGonagall,” said the cat, still in the
//Professor’s voice. “Can you come to my office, and not speak of this to
//anyone?”
-- Це повідомлення від професорки Макґонеґел, -- сказав кіт, досі голосом
професорки. -- Підійдіть, будь ласка, до мого кабінету, і не кажіть
про це нікому.

// 7110
//“I’ll be there right away,” said Hermione, still surprised, and the cat leaped
//and vanished; only it didn’t vanish, it traveled away somehow; or that was what
//her mind said, even though her eyes just saw it disappear.
-- Зараз буду, -- сказала досі здивована Герміона.

Кіт стрибнув і зник. Тільки він не зник, а ніби якимось чином перемістився
кудись. Чи так стверджував її розум, хоча її очі щойно побачили, як він
щезнув.

// 7111
//By the time Hermione had got to the office of her favorite professor, her mind
//was all a-whirl with speculations. Was there something wrong with her
//Transfiguration scores? But then why would Professor McGonagall say not to tell
//anyone? It was probably about Harry practicing his partial Transfiguration…
Коли Герміона підійшла до кабінету своєї улюбленої професорки, її розум
переповнювали здогади. Може щось було не так з її оцінками з трансфігурації?
Але тоді чому професорка Макґонеґел сказала їй нікому про це не розповідати?
Напевно щось про заняття Гаррі частковою трансфігурацією...

// 7112
//Professor McGonagall’s face looked worried, not stern, as Hermione seated
//herself in front of the desk - trying to keep her eyes from going to the nest
//of cubbyholes containing Professor McGonagall’s homework, she’d always wondered
//what sort of work grownups had to do to keep the school running and whether
//they could use any help from her…
Обличчя професорки Макґонеґел було стривоженим, а не суворим, коли Герміона
сіла навпроти її стола. Герміона старалася відірвати очі від гнізда
комірок-заглиблень, що містили домашнє завдання професорки Макґонеґел. Її
завжди цікавило, що саме треба робити дорослим, щоб школа працювала, і чи можна
їм чимось допомогти...

// 7113
//“Miss Granger,” said Professor McGonagall, “let me start by saying that I
//already know about the Headmaster asking you to make that wish -”
-- Міс Ґрейнджер, -- сказала професорка Макґонеґел, -- дозвольте почати з того,
що я вже знаю, що директор попросив вас висловити саме таке бажання...

// 7114
//“He __told__ you?” blurted Hermione in startlement. The Headmaster had
//said no one else was supposed to know!
-- Він __розповів__ вам? -- вражено випалила Герміона. Директор сказав був, що
ніхто більше не має знати!

// 7115
//Professor McGonagall paused, looked at Hermione, and gave a sad little chuckle.
//“It’s good to see Mr. Potter hasn’t corrupted you too much. Miss Granger, you
//aren’t supposed to __admit__ anything just because I say I know. As it
//happens, the Headmaster did __not__ tell me, I simply know him too well.”
Професорка Макґонеґел зробила паузу, поглянула на Герміону, а тоді з сумом
посміялася.

-- Я рада бачити, що містер Поттер не надто вас зіпсував. Міс Ґрейнджер, не
варто нічого __визнавати__ лише через те, що я стверджую, ніби знаю. Насправді
директор __не розповідав__ мені, я просто надто добре його знаю.

// 7116
//Hermione was blushing furiously now.
Тепер Герміона залилася румʼянцем.

// 7117
//“It’s fine, Miss Granger!” said Professor McGonagall hastily. “You’re a
//Ravenclaw in your first year, nobody expects you to be a Slytherin.”
-- Усе гаразд, міс Ґрейнджер! -- квапливо сказала професорка Макґонеґел.
-- Ви рейвенкловка в першому класі, ніхто не вимагає від вас бути
слизеринкою.

// 7118
//That __really__ stung.
Це було __справді__ боляче.

// 7119
//“Fine,” said Hermione with some acerbity, “I’ll go ask Harry Potter for
//Slytherin lessons, then.”
-- Гаразд, -- дещо різко сказала Герміона, -- я попрошу Гаррі Поттера дати мені
декілька уроків слизеринства.

// 7120
//“That __wasn’t__ what I wanted to…” said Professor McGonagall, and her
//voice trailed off. “Miss Granger, I’m worried about this __because__ young
//Ravenclaw girls shouldn’t have to be Slytherins! If the Headmaster asks you to
//get involved in something you’re not comfortable with, Miss Granger, it really
//is all right to say no. And if you’re feeling pressured, please tell the
//Headmaster that you would like me to be there, or that you would like to ask me
//first.”
-- Я __не це__ хотіла... -- голос професорки Макґонеґел затихнув. -- Міс
Ґрейнджер, я хвилююся __саме через те__, що юні рейвенкловки не мають бути
слизеринками! Якщо директор просить вас про щось, що вам не до вподоби, міс
Ґрейнджер, цілком правильно просто йому відмовити. А якщо ви відчуваєте тиск,
будь ласка, скажіть директорові, що бажаєте, щоб я була присутня, чи що хочете
спочатку зі мною порадитися.

// 7121
//Hermione’s eyes were very wide. “Does the Headmaster do things that are wrong?”
Очі Герміони розширилися від подиву.

-- Директор може робити щось неправильне?

// 7122
//Professor McGonagall looked a little sad at that. “Not on purpose, Miss
//Granger, but I think… well, it probably __is__ true that sometimes the
//Headmaster has trouble remembering what it’s like to be a child. Even when he
//was a child, I’m sure he must have been brilliant, and strong of mind and
//heart, with courage enough for three Gryffindors. Sometimes the Headmaster asks
//too much of his young students, Miss Granger, or isn’t careful enough not to
//hurt them. He is a good man, but sometimes his plotting can go too far.”
Професорка Макґонеґел дещо посумнішала.

-- Не навмисно, міс Ґрейнджер, але гадаю... ну, напевно, це __правда__, що
подеколи директорові важко пригадати, як це -- бути дитиною. Навіть коли він
був дитиною, я впевнена, що він був геніальним, з видатним розумом і серцем, зі
сміливістю, якої вистачило б на трьох ґрифіндорців. Інколи директор надто
багато просить від своїх молодих учнів, міс Ґрейнджер, чи буває недостатньо
обережним, щоб не завдати їм болю. Він добра людина, але подеколи його
планування перетинає межу.

// 7123
//“But it’s __good__ for students to be strong and have courage,” said
//Hermione. “That’s why you suggested Gryffindor for me, wasn’t it?”
-- Але ж це __добре__, якщо учні сильні й сміливі, -- сказала Герміона. --
Саме тому ви пропонували мені Ґрифіндор, чи не так?

// 7124
//Professor McGonagall smiled wryly. “Perhaps I was only being selfish, wanting
//you for my own House. Did the Sorting Hat offer you - no, I should not have
//asked.”
Професорка Макґонеґел криво посміхнулася.

-- Можливо, я лише була егоїсткою -- хотіла, щоб ви були в моєму гуртожитку. Чи
пропонував вам Сортувальний Капелюх... ні, я не мала питати.

// 7125
//“It told me I might go anywhere but Slytherin,” said Hermione. She’d
//__almost__ asked why she wasn’t good enough for Slytherin, before she’d
//managed to stop herself… “So I __have__ courage, Professor!”
-- Він сказав мені, що я можу піти куди завгодно, крім Слизерину, -- сказала
Герміона. Вона __ледь__ не спитала, чому вона не заслуговує на Слизерин, але
їй вдалося себе зупинити. -- Тобто я __смілива__, професорко!

// 7126
//Professor McGonagall leaned forward over her desk. The worry was showing
//plainer on her face now. “Miss Granger, it’s not about courage, it’s about
//what’s healthy for young girls! The Headmaster is drawing you into his plots,
//Harry Potter is giving you his secrets to keep, and now you’re making alliances
//with Draco Malfoy! And I promised your mother that you would be safe at
//Hogwarts!”
Професорка Макґонеґел схилилася над столом. Тепер на її обличчі була неприхована
стурбованість.

-- Міс Ґрейнджер, справа не в сміливості, а в тому, що личить юним дівчатам!
Директор затягує вас у свої змови, Гаррі Поттер довіряє вам таємниці, а тепер
ви стаєте союзницею Драко Мелфоя! А я обіцяла вашій матері, що в Гоґвортсі
вам буде безпечно!

// 7127
//Hermione just didn’t know what to say to that. But the thought was occurring to
//her that Professor McGonagall might not have been warning her if she’d been a
//boy in Gryffindor instead of a girl in Ravenclaw and __that__ was, well…
//“I’ll try to be good,” she said, “and I won’t let anyone tell me otherwise.”
Герміона просто не знала, що на це відповісти. Але їй спало на думку, що
професорка Макґонеґел напевно не попереджала б її, якби вона була хлопцем в
Ґрифіндорі, а не дівчиною в Рейвенклові, а __це__ вже було, ну...

-- Я старатимуся поводитися добре, -- сказала вона, -- і не дозволю нікому
переконати мене робити інакше.

// 7128
//Professor McGonagall pressed her hands over her eyes. When she took them away,
//her lined face looked very old. “Yes,” she said in a whisper, “you would have
//done well in my House. Stay safe, Miss Granger, and be careful. And if you are
//ever worried or uncomfortable about anything, please come to me at once. I
//won’t keep you any longer.”
Професорка Макґонеґел закрила лице руками. Коли вона забрала їх, її зморшкувате
обличчя здавалося дуже старим.

-- Так, -- сказала вона пошепки, -- ви б добре себе показали в моєму
гуртожитку. Не піддавайте себе небезпеці, міс Ґрейнджер, і будьте обережні. А якщо
ви колись хвилюватиметеся про щось, чи щось вам заважатиме, будь ласка, одразу
зверніться до мене. Я більше не відбиратиму ваш час.

***

// 7129
//__Aftermath, Draco Malfoy:__
__Наслідки, Драко Мелфой.__

// 7130
//Neither of them really wanted to do anything complicated that Saturday, not
//after fighting a battle earlier. So Draco was just sitting in an unused
//classroom and trying to read a book called __Thinking Physics.__ It was
//one of the most fascinating things that Draco had ever read in his life, at
//least the parts he could understand, at least when the __accursed idiot__
//who refused to let his books out of his sight could manage to __shut up__
//and let Draco __concentrate__ -
// hedrok @ Thinking Physics
Жодному з них насправді не хотілося робити нічого складного в ту суботу, не
після нещодавно завершеної битви. Тому Драко просто сидів у закинутому кабінеті
й намагався читати книжку "`Думай як фізик`". Нічого настільки цікавого він
раніше не читав, принаймні ті частини, які він розумів, принаймні, коли цей
__клятий ідіот__, що відмовлявся випускати свої книжки зі свого поля зору,
__замовкав__ і дозволяв Драко __зосередитися__...

// 7131
//“Hermione Granger is a __muuudbloood,__” sang Harry Potter from where he
//sat at a nearby desk, reading a far more advanced book of his own.
-- Герміона Ґрейнджер -- __бруууднокрооовка__, -- співав Гаррі Поттер, сидячи
за сусіднім столом і читаючи значно складнішу книжку.

// 7132
//“I know what you’re trying to do,” said Draco calmly without looking up from
//the pages. “It’s not going to work. We’re still ganging up and crushing you.”
-- Я знаю, що ти намагаєшся зробити, -- спокійно сказав Драко, не відриваючи
погляду від сторінок. -- Це не спрацює. Ми все одно обʼєднаємося й розтрощимо
тебе.

// 7133
//“A __Maaaalfoy__ is working with a __muuudbloood,__ what will all
//your father’s __frieeeends__ think -”
-- __Меееелфой__ працюватиме разом з __бруууднокрооовкою__, що подумають
усі __друууузі__ твого батька...

// 7134
//“They’ll think Malfoys aren’t as easily manipulated as __you__ seem to
//believe, __Potter!__”
-- Вони подумають, що Мелфоями не так легко маніпулювати, як __ти__, видається,
вважаєш, __Поттере__!

// 7135
//The Defense Professor was crazier than Dumbledore, no future saviour of the
//world could ever be this __childish__ and __undignified__ at any age.
Професор із захисту був скаженішим за Дамблдора. Жоден майбутній рятівник світу
ніколи не міг бути такою __дитиною__ й настільки __без почуття гідності__ в
будь-якому віці.

// 7136
//“Hey, Draco, you know what’s really going to suck? __You__ know that
//Hermione Granger has two copies of the magical allele, just like you and just
//like me, but all your classmates in Slytherin don’t know that and
//__yooouuu’re__ not allowed to __explaaaaain__ -”
-- Гей, Драко, а знаєш що особливо паскудно? __Ти__ знаєш, що Герміона Ґрейнджер
має дві копії магічних алелей, так само як і ти, так само, як і я, але твої
однокласники-слизеринці не знають цього, і __тооообі__ не можна про це
__розповідааати__...

// 7137
//Draco’s fingers were whitening where they gripped the book. Being beaten and
//spat upon couldn’t possibly require this much self-control, and if he didn’t
//get back at Harry soon, he was going to do something incriminating -
Пальці Драко стиснули книжку так, що побіліли. Навряд чи навіть коли тебе бʼють
і обпльовують, потрібно стільки ж самоконтролю, і якщо він невдовзі не зможе
відплатити Гаррі, то він скоїть щось жахливе...

// 7138
//“So what __did__ you wish the first time?” said Draco.
-- То чого ти забажав __першого разу__? -- запитав Драко.

// 7139
//Harry didn’t say anything, so Draco looked up from his book, and felt a twinge
//of malicious satisfaction at the sad look on Harry’s face.
Гаррі нічого не відповів, тому Драко відірвав погляд від книжки й не без
зловтіхи побачив сум на обличчі Гаррі.

// 7140
//“Um,” Harry said. “A lot of people asked me that, but I don’t think Professor
//Quirrell would have wanted me to talk about it.”
-- Ем, -- сказав Гаррі. -- Багато хто питав мене про це, але навряд чи
професорові Квірелу хочеться, щоб я про це розповідав.

// 7141
//Draco put a serious look on his own face. “You can talk about it with
//__me__. It’s probably not important compared to the other secrets you’ve
//told me, and what else are friends for?” __That’s right, I’m your friend!
//Feel guilty!__
Драко надав обличчю серйозного виразу.

-- Ти можеш розказати __мені__. Навряд чи це важливіше за інші таємниці, що ти
мені довірив, і крім того, хіба не для цього існують друзі? -- __Саме так, я
твій друг! Почувайся винним!__

// 7142
//“It wasn’t really all that interesting,” Harry said with obviously artificial
//lightness. “Just, __I wish Professor Quirrell would teach Battle Magic
//again next year.__”
-- Та насправді нічого цікавого, -- з явно вдаваною байдужістю сказав Гаррі.
-- Лише "`__Я хочу, щоб професор Квірел викладав бойову магію ще один рік__`".

// 7143
//Harry sighed, and looked back down at his book.
Гаррі зітхнув, і повернувся до своєї книжки.

// 7144
//And said, after another few seconds, “Your father’s probably going to be pretty
//upset with you this Christmas, but if you promise him that you’ll betray the
//mudblood girl and wipe out her army, everything will go back to being all
//right, and you’ll still get your Christmas presents.”
А ще за декілька секунд заговорив знову:

-- Твій батько, напевно, буде дуже незадоволений тобою цього Різдва, але якщо ти
пообіцяєш йому, що зрадиш дівчину-бруднокровку й розтрощиш її військо, то все
буде гаразд, і ти все одно отримаєш свої різдвяні подарунки.

// 7145
//Maybe if he and Granger asked Professor Quirrell extra politely and used some
//of their Quirrell points, the two of them would be allowed to do something more
//interesting to General Chaos than putting him to sleep.
Можливо, якщо вони з Ґрейнджер попросять професора Квірела надзвичайно ввічливо
й витратять частину своїх балів Квірела, то їм дозволять зробити з генералом
Хаосу щось цікавіше, ніж накласти прокльон сну.
