// 17060
//== Roles, Pt 8
== Розділ 97. Ролі, ч.8

// 17061
//For the second time that day, Harry’s eyes filled with tears. Heedless of the
//puzzled eyes of the Ravenclaws in the common room, he reached out to the silver
//creature which Draco Malfoy had sent, cradling it in his arms like a live
//thing; and stumbled off in the direction of his dorm room, heading half-blindly
//for the bottom of his trunk, as the silver snake waited silently in his arms.
Вдруге за день Гаррі на очі навернулися сльози. Не зважаючи на здивовані погляди з
боку інших рейвенкловців у вітальні, він простягнув руку до сріблястої істоти,
що її послав був Драко, та пригорнув її до себе, немов живу тваринку; наосліп він
почвалав в напрямку спальні, а там поткнувся до своєї валізи -- срібна змія
спокійно чекала у нього на руках.

***

// 17062
//__The fifth meeting: 10:12am, Sunday, April 19th.__
__П'ята зустріч: неділя, 19 квітня, 10:12.__

// 17063
//The debtor’s meeting which Lord Malfoy had demanded from Harry Potter, who owed
//Lucius Malfoy a debt of some 58,203 Galleons, was held within the Gringotts
//Central Bank, in accordance with the laws of Britain.
Зустріч між Луціусом Мелфоєм і Гаррі Поттером, що заборгував йому такі собі
58203 ґалеони, скликана на вимогу першого, відбувалася в центральному банку
"`Ґрінґотс`", відповідно до британського законодавства.


// 17064
//There had been some pushback from Chief Warlock Dumbledore, trying to prevent
//Harry Potter from leaving the security of Hogwarts (a phrase that caused Harry
//Potter to raise his fingers and silently make quote marks in the air). For his
//own part, the Boy-Who-Lived had seemingly pondered quietly, and then assented
//to the meeting, strangely compliant in the face of his enemy’s demand.
Ініціатива зустріла певний опір з боку головного мага Дамблдора, що він зробив
спробу завадити Гаррі Поттеру покинути безпечний простір Гоґвортсу (на цей
зворот Гаррі підняв пальці і показав лапки в повітрі). Щодо самого
Хлопчика-Що-Вижив -- він нібито спокійно щось обміркував, а тоді дав свою згоду
на зустріч. Його зовнішня готовність підкоритися своєму ворогові справляла
химерне враження.


// 17065
//The Headmaster of Hogwarts, who acted as Harry Potter’s legal guardian in the
//eyes of magical Britain, had overruled his ward’s assent.
Директор Гоґворсту, що представляв інтереси Гаррі Поттера як його офіційний
опікун в очах чаклунської Британії, своїм рішенням скасував згоду свого вихованця.

// 17066
//The Debts Committee of the Wizengamot had overruled the Headmaster of Hogwarts.
Комітет боргів Чарверсуду відкинув рішення директора Гоґвортсу.

// 17067
//The Chief Warlock had overruled the Debts Committee.
Головний маг заперечив вердикт комітету боргів.

// 17068
//The Wizengamot had overruled the Chief Warlock.
Чарверсуд скасував рішення головного мага.

// 17069
//And so the Boy-Who-Lived had departed under the heavy guard of Mad-Eye Moody
//and an Auror trio for the Gringotts Central Bank; with Moody’s bright-blue eye
//rotating wildly in every direction, as though to signal to any possible
//attacker that he was On Guard and Constantly Vigilant and would cheerfully
//incinerate the kidneys of anyone who sneezed in the general direction of the
//Boy-Who-Lived.
Тож Хлопчик-Що-Вижив, у супроводі важкої охорони в особі Дикозора та трійки
аврорів, вирушив до центрального банку "`Ґрінґотс`". Яскраво-блакитне око Дикозора
навіжено крутилося, ніби він хотів усім можливим нападникам
показати, що він Насторожі, Постійно Пильний і з радістю спопелить нирки
будь-кому, хто бодай чхне в напрямку Хлопчика-Що-Вижив.

// 17070
//Harry Potter watched more keenly than before, as they marched through the
//wide-open front doors of Gringotts, beneath the motto __Fortius Quo
//Fidelius__. On Harry’s last three visits to Gringotts he had merely admired the
//marble pillars, the gold-burning torchlights, the architecture not quite like
//the human parts of magical Britain. Since then had come the Incident at Azkaban
//and other things; and now, on his fourth visit, Harry was thinking about the
//Goblin Rebellions and goblins’ ongoing resentment at not being allowed to own
//wands and certain facts which hadn’t been in the first-year History textbook,
//which Harry had guessed at by pattern-matching and which Professor Flitwick had
//confirmed in a very quiet voice. Lord Voldemort had killed goblins as well as
//wizards - an incredibly stupid move on Lord Voldemort’s part, unless Harry was
//really missing something - but what goblins thought of the Boy-Who-Lived, Harry
//had no idea. Goblins had a reputation for paying what they owed and taking what
//they thought owed them, along with a reputation for interpreting those accounts
//in a somewhat prejudiced fashion.
Гаррі Поттер більш уважно, ніж зазвичай, роздивлявся навколо, коли вони
крокували крізь широко розчахнуті парадні ворота "`Ґрінґотсу`", попід офіційним
гаслом банку "`Fortius Quo Fidelius`". В попередні свої три візити до
"`Ґрінґотсу`"
він просто роздивлявся мармурові колони, золоті канделябри, розглядав
архітектурний стиль, не зовсім схожий на людську архітектуру чаклунської Британії.
Відтоді він вже пройшов пригоду в Азкабані, і багато чого ще трапилося.
У своє четверте відвідування Гаррі розмірковував про повстання ґоблінів, про
почуття образи, що його відчувають ґобліни через те, що їм не дозволено мати
палички, і через деякі ще факти, що їх чомусь не згадали в підручнику історії
для першого класу -- сам Гаррі здогадався про дещо за непрямими ознаками, і
професор Флитвік не без суму підтвердив його здогади. Лорд Волдеморт убивав ґоблінів
так само, як і чаклунів -- дуже тупо з його боку, якщо Гаррі не впустив чогось
важливого -- та якої ґобліни думки про Хлопчика-Що-Вижив, Гаррі й гадки не
мав. Ґобліни мали репутацію тих, хто платять за те, що мають, і беруть те, що
вважають своїм; а також тих, хто дещо упереджено трактують ці поняття.

// 17071
//Today, the guards standing upright in armor at regular intervals around the
//bank were staring at the Boy-Who-Lived with blank faces, and glaring at Moody
//and the Aurors with flashes of bitter contempt. At the stands and counters of
//the bank’s foyer, goblin tellers stared with equal contempt at the wizards
//whose hands they were filling with Galleons; one teller smiled a sharp-toothed
//grin at a witch who was looking angry and desperate.
Сьогодні вартові в обладунках, вишикувані ланцюгом навколо банку, дивилися на
Хлопчика-Цо-Вижив із непроникним виразом облич, а на Дикозора й аврорів --
із спалахами гіркого презирства. За банківськими лядами у холі, ґобліни-касири
так само презирливо дивилися на чаклунів, що вони їм видавали їхні статки; один
касир гострозубо посміхнувся-вишкірився на якусь відьму, що справляла враження
сердитої, а
може -- розпачливої чи ладної на все.

// 17072
//__If I understand human nature correctly - and if I’m right that all the
//humanoid magical species are genetically human plus a heritable magical effect
//- then you’re not likely to become friends with a wizard just because I’m
//polite to you, or say that I’m sympathetic. But__ __I wonder if you would
//back the Boy-Who-Lived in a bid to overthrow the Ministry, if I promised to
//revoke the Wand Law afterward… or if I quietly gave you wands, and spellbooks,
//in exchange for your support… is that why the secret of wand-making is
//restricted to people like Ollivander? Though if you really are human, just
//plain human, then the goblin nation probably has its own internal horrors, its
//own Azkabans, for that is also human nature; in which case sooner or later I
//must overthrow or reform your own government as well. Hm.__
__Якщо я правильно розумію людську природу... і якщо моя правда, і всі
гуманоїдні магічні види -- це генетично люди із домішкою спадкованого магічного
ефекту... тоді навряд чи ви полюбите мене за красиві очі, ввічливість і
обіцянку підтримки. Але чи не підтримаєте ви Хлопчика-Що-Вижив у його спробі
повалити Міністерство, якщо я пообіцяю потім скасувати закон про палички... а
радше, тихо роздам вам палички, підручники з магії в обмін на вашу
підтримку... Чи не в цьому причина, чому виробництво паличок замкнене на
небагатьох спеціалістів на кшталт Олівандера? Хоча, якщо ви такі гуманоїди,
себто такі ж люди, тоді ваша нація, либонь, має власні внутрішні жахіття,
власні Азкабани, бо це також елемент людської природи; в такому випадку рано чи
пізно мені доведеться повалити або реформувати і ваш уряд. Гм.__

// 17073
//An aged goblin appeared before them, and Harry inclined his head with careful
//courtesy, a gesture that the aged goblin returned with an abrupt half-nod.
//There was no wild train ride; instead the aged goblin ushered them into a short
//hallway that terminated in a small waiting room, with three goblin-sized
//benches and one wizard-sized chair, within which nobody sat.
Їм на зустріч вийшов підстаркуватий ґоблін, і Гаррі схилив голову в обережному
ввічливому жесті -- підстаркуватий ґоблін відповів коротким півкивком. Цього разу
не було безумної поїздки рейками; натомість підстаркуватий ґоблін провів їх
коротким коридором до маленького холу, де стояло три лави, розраховані на
ґоблінів, і один фотель, розміром як для чаклуна. В кімнаті ніхто не сидів.

// 17074
//“Do not sign anything that Lucius Malfoy gives you,” Mad-Eye Moody said.
//“__Nothing,__ do you understand me, lad? If Malfoy hands you a copy of
//__The Wonderful Adventures of the Boy-Who-Lived__ and asks you for an
//autograph, tell him that you’ve sprained a finger. Don’t pick up a quill for a
//single second while you’re in Gringotts. If someone hands you a quill, break
//the quill and then break your own fingers. Do I need to explain further, son?”
-- Не підписуй нічого, що б тобі не підсунув Луціус Мелфой, -- сказав Дикозор.
-- __Нічого__, ти мене чуєш, хлопче? Якщо Мелфой дасть тобі збірку
чарівних пригод Хлопчика-Що-Вижив і попросить надписати на ньому автограф
-- скажи, що пальця вивихнув. Каламар до рук не бери, доки перебуваєш в межах
"`Ґрінґотсу`". Якщо хтось передасть тобі перо, зламай перо, а потім власні
пальці. Чи треба пояснювати далі, синку?

// 17075
//“Not particularly,” Harry said. “We also have lawyers in Muggle Britain, and
//they’d think your lawyers are cute.”
-- Не варто, -- сказав Гаррі. -- У нас в маґлівській Британії теж є юристи, і
вони б вирішили, що ваші юристи такі собі гарнюсінькі лапунчики.

// 17076
//A short time later Harry Potter handed his wand over to an armored goblin guard
//who frisked him with all manner of interesting-looking probes, and gave his
//pouch to Moody to keep.
Невдовзі Гаррі Поттер передав паличку ґобліну в обладунках варти "`Ґрінґотсу`",
почекав, доки той дуже винахідливо й різноманітно його обшукував, і передав
капшучок на збереження Дикозорові.

// 17077
//And then Harry stepped through another door, and a brief waterfall of Thief’s
//Downfall, which evaporated from his skin as soon as he stepped out.
А тоді Гаррі пройшов ще одні двері та короткий водоспад -- злодієпад, що
випарувався з його шкіри, щойно він вийшов з-під водної завіси.

// 17078
//On the other side of the door was a larger room, richly paneled and appointed,
//with a great golden table stretching across it; two huge leather chairs on one
//side of the table, and a small wooden stool on the other, the debtor’s perch.
//Two goblins in full armor, wearing ornate earpieces and glasses, stood watch
//around the room. Neither side would have wands or any other device of magic,
//and the goblin guards would attack immediately if anyone dared to use wandless
//magic within this peaceable meeting supervised by Gringotts Bank. The ornate
//earpieces would prevent the goblin guards from hearing the conversation unless
//directly addressed, the eyepieces would leave the wizards’ faces as blurs. It
//was, in short, something along the lines of __actual__ security, at least
//if you were an Occlumens.
По інший бік дверей була більша кімната, оформлена дорогими панелями, з
величезним золотим столом по центру; по одній стороні столу стояло два шкіряних
крісла, по іншій -- маленький дерев'яний стільчик, лава боржника. Два ґобліни в
повному обладунку, з вибагливими прикрасами у вухах та в окулярах, спостерігали
за кімнатою. Жодна сторона не матиме при собі ані паличок, ані інших магічних
предметів, а ґоблінська варта атакує миттєво, якщо хтось наважиться на
безпаличкову магію під час миролюбної зустрічі за посередництва банку
"`Ґрінґотс`".
Вибагливі вушні прикраси не дозволять варті підслухати розмову, хіба що хтось
звернеться до них безпосередньо, а окуляри приховають від них деталі зовнішності
чарівників. Коротше, це було щось на кшталт __справжньої__ системи безпеки,
принаймні, якщо ти -- блоколог.

// 17079
//Harry climbed up onto his uncomfortable wooden stool, thinking __Subtle__
//in a tone of some mental sarcasm, and awaited his creditors.
Гаррі всівся на незручний дерев'яний стілець. __Тонкий__ натяк, подумав він
саркастичним тоном, і почав чекати на своїх кредиторів.

// 17080
//It was only a brief interval later, much shorter than the time a debtor could
//legally be made to wait, when Lucius Malfoy entered into the room, taking up
//his leather chair with motions worn smooth by practice. His snake-headed cane
//was missing from his hands, his long white mane drifted behind him the same as
//ever, his face could not be read.
Вже дуже скоро -- скоріше, ніж за законами можна було змусити боржника чекати,
до кімнати
зайшов Луціус Мелфой. Він сів на шкіряне крісло -- одним елегантним рухом, що
видавав постійну практику. Він був без свого змієголового ціпка, зі звичною
білою шевелюрою, що струменіла йому на плечі, з непроникним обличчям.

// 17081
//Quietly following behind him was a young boy with white-blonde hair, now
//wearing black robes far finer than any Hogwarts uniform, who followed in his
//father’s footsteps with a controlled face. A boy who was also Harry’s creditor
//to the tune of forty Galleons, and also of House Malfoy, and therefore,
//technically, covered by the Wizengamot resolution enabling this meeting.
За ним тихо увійшов молодий хлопець з білявим волоссям, у чорній мантії, більш
елегантній, ніж будь-яка гоґвортська уніформа. Він пройшов за батьком, старанно
контролюючи вираз обличчя. Хлопець теж був кредитором Гаррі -- той був
винен йому близько сорока ґалеонів, -- і теж належав до роду Мелфоїв, тож
формально підпадав під дозвіл Чарверсуду щодо зустрічі.

// 17082
//__Draco.__ Harry didn’t say it aloud, didn’t let his own expression
//change. He could not think of what to say. Not even __I’m sorry__ seemed
//appropriate. Harry hadn’t dared say any of that to Draco’s Patronus either,
//when they had set up this meeting in a few brief exchanges; and not only
//because Lucius might be listening. It had been enough to know that Draco’s
//happy thought was still happy, and that he had still been able to want Harry to
//know it.
__Драко.__ Гаррі не сказав цього вголос, і не дозволив своїй реакції
відобразитися на обличчі. Він не знав, що сказати. Навіть "`вибач`" не
прозвучало би доречно. Гаррі й патронусові Драко не наважився нічого такого
сказати, під час коротких перемовин щодо цієї зустрічі; і
не тільки тому, що Луціус міг слухати. Гаррі достатньо було й того, що тепер він
знав -- щаслива думка Драко й досі щаслива, і він досі хоче, щоб Гаррі це
знав.

// 17083
//Lucius Malfoy spoke first, his voice level, his face set. “I do not understand
//what is happening at Hogwarts, Harry Potter. Would you care to explain it to
//me?”
Луціус Мелфой заговорив перший, рівним голосом, з рішучим обличчям.

-- Я не розумію, що відбувається в Гоґвортсі, Гаррі Поттере. Не воліли б ви мені
щось пояснити?


// 17084
//“I don’t know,” Harry said. “If I understood these events I would not have let
//them happen, Lord Malfoy.”
-- Я не знаю, -- сказав Гаррі. -- якби я розумів щось в цих подіях, я б не
дозволив їм відбутися, лорде Мелфой.


// 17085
//“Then answer me this question. __Who__ are you?”
-- Тоді дайте мені відповідь на наступне питання. __Хто__ ви?

// 17086
//Harry gazed evenly at the face of his creditor. “I’m not You-Know-Who, like you
//thought I was,” Harry said. Not being a __complete__ idiot, he’d
//eventually worked out who Lucius Malfoy had thought he was talking to in front
//of the Wizengamot. “Obviously I’m not a normal boy. Equally obviously, that
//probably has __something__ to do with the Boy-Who-Lived business. But I
//don’t know what, or why, any more than you do. I asked the Sorting Hat and it
//didn’t know either.”
Гаррі рівно вдивився в обличчя свого кредитора.

-- Я не Відомо-Хто як вам здавалося було, -- сказав Гаррі. Він не __геть__
дурний, допетрав таки, ким уявляв його собі Луціус Мелфой під час його промови
у Чарверсуді. -- Очевидно, що я не звичайний хлопчик. Також очевидно, що моя
незвичайність __якось__ пов'язана з цією епопеєю Хлопчика-Що-Вижив. Та я не
більше ніж ви знаю, у чому саме справа. Я спитав у Сортувального Капелюха --
він також не в курсі.

// 17087
//Lucius Malfoy nodded distantly. “I could not think of any reason why you would
//pay a hundred thousand Galleons to save a mudblood’s life. No reason save one,
//which would account for her power and bloodthirst alike; but then she died at
//the hands of a troll, and yet you lived. And also my __son__ has told me
//__much__ of you, Harry Potter, which __did not make the tiniest bit
//of sense,__ I have heard the ravings of the mad in St. Mungo’s and they were
//more sensible by far than the events which my __son__ told me under
//__Veritaserum__ that you enacted, and that portion of this __raving
//lunacy,__ which you __personally carried out,__ I would have you explain to
//me, and now.”
Луціус Мелфой відсторонено кивнув.

-- Я не міг придумати жодної причини, нащо б тобі було платити сотню тисяч
ґалеонів за життя бруднокровки. Жодної причини, крім однієї -- і це пояснило б
і її силу, і жагу крові; аж тоді вона загинула від руки троля, а ти вижив. Також
і мій __син__ __багато__ що розповів мені про тебе, Гаррі Поттер, багато
такого, що __не має анікрихти сенсу__, я чув белькотіння божевільних в лікарні
святого Мунґо, і воно мало більше сенсу, ніж ті події, що, як мій __син__
засвідчив мені під дією __сироватки правди__, ти спричинив. Так ось, щодо тієї
частини цього __безумства__, що ти __організував власноруч__, я вимагаю
пояснень, і негайно.

// 17088
//Harry turned to look at Draco, who looked back at him with a face that was
//screwing up, being controlled, and then tensing up again.
Гаррі подивився на Драко -- Драко дивився на нього, обличчя його кривилося під
маскою незворушності.

// 17089
//“I’d also,” Draco Malfoy said in a high and wavering voice, “like, to know,
//why, Potter.”
-- Я теж, -- додав Драко Мелфой високим, тремтливим голосом, -- хочу, знати,
чому, Поттере.

// 17090
//Harry closed his eyes, and spoke without looking. “A boy raised by Muggles who
//thought he was clever. You saw me, Draco, and you thought of how very useful it
//would be if the Boy-Who-Lived, out of all the other children in your year,
//could be shown the truth of things, if we could be friends. And I thought the
//same thing about you. Only, you and I believed different things were true. Not
//that I’m saying that there are different truths, I mean, there’s different
//beliefs but there’s only one reality, only one universe that can make those
//beliefs true or false -”
Гаррі заплющив очі, і почав говорити, не дивлячись.

-- Хлопець, що його виховали маґли, який вважає себе дуже розумним. Ти побачив
мене, Драко, і подумав, що було б дуже корисно, якби, з усіх твоїх
однокласників, саме Хлопчик-Що-Вижив побачить, який світ насправді; якби ми
стали друзями. А я теж саме подумав про тебе. Тільки в мене були інші
переконання. Я не кажу, що існує декілька істин, я хочу сказати, що є різні
переконання, але лише одна дійсність, лише один всесвіт, що може підтвердити
або спростувати ті переконання...

// 17091
//“You lied to me.”
-- Ти збрехав мені.

// 17092
//Harry opened his eyes and looked at Draco. “I would prefer to say,” Harry said,
//not quite with a steady voice, “that the things I told you were true from a
//certain point of view.”
Гаррі розплющив очі і подивився на Драко.

-- Радше, -- заперечив Гаррі, трохи хвилюючись, -- те, що я сказав було правдою
з певної точки зору.

// 17093
//__“A certain point of view?”__ Draco Malfoy looked every bit as angry as
//Luke Skywalker’d had the right to be, and not in a mood to accept Kenobi’s
//excuses, either. “There’s a word for things that are true from a certain point
//of view. They’re called __lies!__”
-- __З певної точки зору?__ -- Драко Мелфой був обурений, як будь-який Люк
Скайвокер, і зовсім не налаштований приймати відмовки від свого Кенобі. -- Є
таке слово, що позначає те, що є правдою з певної точки зору, і слово це --
__брехня__!

// 17094
//“Or tricks,” Harry said evenly. “Statements which are technically true but
//which deceive the listener into forming further beliefs which are false. I
//think it’s worth making that distinction. What I told you was a self-fulfilling
//prophecy; you believed that you couldn’t deceive yourself, so you didn’t try.
//The skills you’ve learned are real, and it would have been very bad for you to
//start fighting against them internally. People can’t make themselves believe
//that blue is green by an act of will, but they __think__ they can, and
//that can be almost as bad.”
-- Чи фокус, -- рівно відказав Гаррі. -- Твердження, які є формально
істинними, але змушують слухача прийти до подальших хибних висновків. Я гадаю,
варто розрізняти такі речі. Те, що я тобі сказав, було самозбутнім
пророцтвом: ти повірив, що не можеш обманути себе, тож і не намагався. Навички,
що ти їх надбав, цілком справжні, і тобі б дуже зашкодило, якби ти почав
внутрішньо їм опиратися. Люди не можуть змусити себе повірити, що блакитний --
це зелений, самим зусиллям волі, але вони __думають__ що можуть, що майже так
само погано.

// 17095
//“You __used__ me,” said Draco Malfoy.
-- Ти __використав__ мене, -- сказав Драко Мелфой.

// 17096
//“I only used you in ways that made you stronger. That’s what it means to be
//used by a friend.”
-- Лише щоб зробити тебе сильнішим. Саме так використовують одне одного друзі.

// 17097
//__“Even I know that’s not what friendship is!”__
-- __Навіть я знаю, що не в цьому полягає дружба!__

// 17098
//Now Lucius Malfoy spoke again. “For what purpose? To what end?” Even the elder
//Malfoy’s voice was not quite steady. “__Why?”__
Знову вступив Луціус Мелфой:

-- Для чого? З якою метою? -- голос Мелфою-старшому й собі урвався. --
__Нащо?__

// 17099
//Harry regarded him for a moment, and then turned to Draco. “Your father’s
//probably not going to believe this,” Harry said. “But you, Draco, should be
//able to see that everything which has happened is compatible with this
//hypothesis. And that any more cynical hypothesis wouldn’t explain why I didn’t
//press you harder when you thought I had leverage, or why I taught you so much.
//I thought that the heir of House Malfoy, who’d been publicly seen to grab a
//Muggleborn girl to stop her falling off the roof of Hogwarts, would be a good
//compromise candidate to lead magical Britain after the reformation.”
Гаррі секунду дивився на нього, а тоді повернувся назад до Драко.

-- Твій батько, імовірно, не повірить, -- сказав Гаррі, -- але ти, Драко, мусиш
розуміти, що все, що сталося, сумісне з цією гіпотезою. І що жодна більш
цинічна гіпотеза не пояснить, чому я не тиснув сильніше, коли гадав, що маю
важіль впливу, чи чому я забагато вчив тебе. Я гадав, що нащадок роду Мелфоїв,
що його бачили, коли він рятував маґлородку від падіння з даху, стане годящим
компромісним кандидатом на посаду лідера чаклунської Британії після реформації.

// 17100
//“So you would have me believe,” Lucius Malfoy said in a thin voice, “that you
//are claiming to be mad. Well, let us leave all that aside. Tell me who set that
//troll on Hogwarts.”
-- Себто, ти хочеш, щоб я повірив, -- сказав Луціус Мелфой тонким голосом, --
що ти з ґлузду з'їхав. Гаразд, облишмо це. Скажи мені, хто нацькував того троля на
Гоґвортс.

// 17101
//“I don’t know,” Harry said.
-- Я не знаю, -- сказав Гаррі.

// 17102
//“Tell me who you __suspect,__ Harry Potter.”
-- Скажи мені, кого ти __підозрюєш__, Гаррі Поттер.


// 17103
//“I have four suspects. One of them is Professor Snape -”
-- Маю чотири підозрюваних. Один із них -- професор Снейп...

// 17104
//“__Snape?__” Draco burst out.
-- __Снейп?__ -- вигукнув Драко.

// 17105
//“The second, of course, is the Defense Professor of Hogwarts, just because he’s
//the Defense Professor.” Harry would have left him out, not wanting to bring
//Professor Quirrell to the Malfoys’ attention if he was innocent, but Draco
//might have called him on that. “The third, you wouldn’t believe me about. The
//fourth is a catchall category called Everything Else.” __And the fifth,
//Lord Voldemort, I do not think I should name to you.__
-- Другий, зрозуміло, професор із захисту, позаяк він -- професор із захисту. --
Гаррі радо б виключив його зі списку, щоб не привертати до професора Квірела
уваги Мелфоїв, якщо він нічого не зробив, проте Драко, либонь, помітив би цей
маневр. -- Щодо третього, ви мені не повірите. Четвертий -- це загальна
категорія, себто, всі решта.

__А п'ятий -- лорд Волдеморт, і, гадаю, не варто про нього вам казати.__

// 17106
//Lucius Malfoy’s face contorted in a snarl. “Do you think I cannot recognize
//bait upon your hook? Tell me about this third possibility, Potter, the one you
//wish me to believe is the __true__ answer, and leave aside games.”
Луціус Мелфой вишкірився.

-- Гадаєш, я не помічу приманку в тебе на гачку? Розкажи мені про свого третього
підозрюваного, Поттере, що ти його хочеш мені підсунути як __справжню__
відповідь.

// 17107
//Harry regarded Lord Malfoy steadily. “I once read a book I wasn’t supposed to
//read, and it told me this: Communication is an event that takes place between
//equals. Employees lie to their bosses, who, in turn, expect to be lied to. I’m
//not playing coy, I’m observing that it’s simply not possible, in our present
//situation, for me to tell you about the third suspect, and have you believe
//that my story was anything but a lure.”
Гаррі спокійно подивився на лорда Мелфоя.

-- Читав я одну книжку, що не мав би читати, і там було написане таке:
комунікація -- це те, що відбувається між рівними. Службовці брешуть своїм
босам, а ті, в свою чергу, очікують на брехню у відповідь. Я не заграю, я лише
хочу передати абсолютну неможливість, за поточних умов, щоб я сказав вам про
третього підозрюваного, а ви повірили мені, що це не якась там приманка.

// 17108
//Draco spoke then. “It’s Father, isn’t it?”
Тоді вступив Драко.

-- Це ж батько, чи не так?

// 17109
//Harry gave Draco a startled look.
Гаррі спантеличено подивився на Драко.

// 17110
//Draco spoke evenly. “You suspect that Father sent the troll into Hogwarts to
//get at Granger, don’t you? That’s what you’re thinking, isn’t it!”
Драко продовжив рівним голосом.

-- Ти підозрюєш, що троля в Гоґвортс відправив батько, щоб він вбив Ґрейнджер,
чи не так? Ось як ти думаєш!

// 17111
//Harry opened his mouth to say, __Actually, no,__ and then managed to think
//ahead and stop himself for once in his life.
Гаррі відкрив рота, що сказати: "`взагалі-то, ні`", але вперше в житті встиг
подумати й стулити пельку.

// 17112
//“I see…” Harry said slowly. “__That’s__ what this is about. Lucius Malfoy
//publicly says that Hermione won’t get away with what she’s done, and lo and
//behold, a troll kills her.” Harry smiled then, in a way that bared his teeth.
//“And if I deny that here, then Draco, who isn’t an Occlumens, can then testify
//under Veritaserum that the Boy-Who-Lived does __not__ suspect Lucius
//Malfoy of having sent a troll into Hogwarts to kill Hermione Granger, sworn to
//the Noble House of Potter, whose blood debt was recently purchased for a
//hundred thousand Galleons et cetera.” Harry leaned back slightly, though his
//wooden stool had no back with which to do it properly. “But now that it’s been
//pointed out, I see that it’s very reasonable. Obviously __you__ killed
//Hermione Granger, just like you threatened to do in front of the whole
//Wizengamot.”
-- Ось воно що, -- повільно протягнув Гаррі. -- __Ось__ що відбувається.
Луціус Мелфой публічно оголошує, що Герміона не уникне покарання за те, що вона
скоїла, і дивіться -- її  вбиває троль, -- Гаррі посміхнувся, показавши зуби. -- А
якщо я заперечуватиму це, тоді Драко, бо він не блоколог, зможе дати свідчення
під дією сироватки правди, мовляв, Хлопчик-Що-Вижив __не__ підозрює Луціуса
Мелфоя в тому, що той надіслав був троля до Гоґвортсу з метою вбити Герміону
Ґрейнджер, підданку шляхетного роду Поттерів, що її кров нещодавно було
викуплено за сотню тисяч ґалеонів бла-бла-бла, -- Гаррі злегка відкинувся назад,
хоча відсутність у його стільчика спинки заважала зробити це як слід. -- Але
тепер, коли ви про це кажете, мені здається, що ідея дуже слушна. Зрозуміло, що
__ви__ вбили Герміону Ґрейнджер, саме так, як і погрожували перед очі усього
Чарверсуду.

// 17113
//“I did not,” Lucius Malfoy said, expressionless once more.
-- Я не вбивав, -- сказав Луціус Мелфой, знову рівний і безвиразний.

// 17114
//Harry bared his teeth again in that non-smile. “Well then, in __that__
//case, there must be someone __else__ out there who killed Hermione and
//messed with the Hogwarts wards, the same person who__ earlier __tried
//to__ frame Hermione for Draco Malfoy’s murder.__ Either you killed
//Hermione Granger after being paid for her life, or you blamed your son’s
//attempted murder on an innocent girl and took all my family’s money under false
//pretenses, one of those two things must be true.”
Гаррі знову оголив зуби у тій своїй не-посмішці.

-- Ну, в __такому__ випадку, має бути хтось __інший__, хто вбив Герміону і
порушив охоронні закляття Гоґвортсу, і це та сама людина, що __раніше__
намагалася __хибно звинуватити Герміону у вбивстві Драко Мелфоя.__ Себто, або ви
вбили Герміону Ґрейнджер після того, як отримали викуп за її життя, або ви
звинуватили безневинне дівча у замаху на життя вашого сина й забрали весь мій
родинний статок на хибних підставах. Одне з двох припущень мусить бути
справедливе.

// 17115
//“Perhaps __you__ killed her in hopes of your money being returned.” Lucius
//Malfoy had leaned forward, and was staring hard at Harry.
-- Можливо, __ви__ вбили її в сподіванні повернути свої гроші, -- Луціус Мелфой
нахилився вперед і важко подивився на Гаррі.

// 17116
//“Then __I__ would not have given away my money for her in the first place.
//As you already know. Don’t insult my intelligence, Lord Malfoy - no, wait,
//sorry, you just had to __say__ that in case Draco had to testify to it,
//never mind.”
-- Тоді __я__ б взагалі не віддавав за неї грошей. Як ви чудово розумієте. Не
зневажайте мій інтелектуальний потенціал, лорде Мелфой... ні, чекайте,
перепрошую, ви просто мали це __сказати__ на випадок, якщо Драко доведеться про
це свідчити, забудьте.

// 17117
//Lucius Malfoy sat back in his chair and stared.
Луціус Мелфой відкинувся назад у кріслі і змірив Гаррі важким поглядом.

// 17118
//“I tried to tell you, Father,” Draco said under his breath, “but nobody can
//imagine Harry Potter until they’ve actually __met__ him…”
-- Я намагався тобі розповісти, батьку, -- тихо звернувся до нього Драко, --
але ніхто не може належно уявити собі Гаррі Поттера, доки не __зустріне__
його...

// 17119
//Harry tapped a finger on his cheek. “So people are starting to figure out the
//blatantly obvious? I’m surprised, actually. I wouldn’t have predicted that
//would happen.” Harry had by now caught the general rhythm of Professor
//Quirrell’s cynicism and was able to generate it independently. “I wouldn’t
//think a newspaper would be able to report on a concept like ‘Either X or Y must
//be true, but we don’t know which.’ I would only expect journalists to report
//stories consisting of series of atomic propositions, like ‘X is true’, ‘Y is
//false’, or ‘X is true and Y is false’. Not more complex logical connectors like
//‘If X is true then Y is true, but we don’t know whether X is true’. And all
//your supporters ought to be rapidly switching between ‘You can’t prove that
//Lord Malfoy killed Granger, it could’ve been someone else’ and ‘You can’t prove
//there was someone else to frame Granger’, so long as it’s uncertain they should
//be trying to have it both ways at once… wait, don’t you __own__ the Daily
//Prophet?”
Гаррі постукав себе пальцем по щоці.

-- Тож до людей почали доходити очевидні речі? Насправді, я здивований. Я
такого не очікував, -- Гаррі вже ввійшов у ритм цинізму по-Квірелівськи й
тепер міг генерувати його самостійно. -- Я вважав абсолютно неможливим, щоб
якась газета була спроможна передати таку концепцію, що, мовляв: "`або А, або Б,
але котрий з цих двох варіантів -- ми не знаємо`". Натомість я очікував, що
журналісти публікуватимуть лише сюжети з атомарними припущеннями, наприклад, "`А
-- це правда`", "Б -- це неправда", чи то "`А -- правда, а Б -- неправда`". Жодних
сподівань на більш складні логічні зв'язки на кшталт "`Якщо А -- правда, то і Б
-- правда, втім, ми не знаємо, чи А -- правда`". І всі ваші прибічники
мають блискавично переключатися між "`Ви жодним чином не доведете, що лорд
Мелфой вбив Ґрейнджер, це міг бути хтось інший`" та "`Ви жодним чином не
доведете, що хтось інший міг підставити Ґрейнджер`", доки не будуть впевнені, що
мусять намагатися робити це одночасно... до речі, ви ж __власник__ "`Щоденного
віщуна`"?

// 17120
//“The Daily Prophet,” Lucius Malfoy said thinly, “which I certainly do not own,
//is far too respectable to publish any such scurrilous nonsense. Unfortunately,
//not all wizards of influence are so reasonable.”
-- "`Щоденний віщун`", -- тонким голосом заперечив Луціус Мелфой, -- що його
власником я у жодному випадку не є, занадто авторитетний часопис, щоб
публікувати таку очевидну нісенітницю. На жаль, не всі впливові чарівники мають
достатньо здорового ґлузду.

// 17121
//“Ah. Got it.” Harry nodded.
-- А. Ось воно як, -- тут Гаррі кивнув.

// 17122
//Lucius glanced at Draco. “The rest of what he said - was any of it important?”
Луціус звернувся до Драко.
-- Решта з того, що він казав, -- було там щось важливе?

// 17123
//“No, Father, it was not.”
-- Ні, батьку, не було.

// 17124
//“Thank you, son.” Lucius returned his gaze to Harry. His voice, when he spoke,
//was something closer to his usual drawl, cool and confident. “It is possible
//that I could be persuaded to show you some favor, if you admitted before the
//Wizengamot what you clearly know, that I was not responsible for this deed. I
//would be willing to reduce your remaining debt to House Malfoy quite
//significantly, or even adjust the terms to allow later repayment.”
-- Дякую, синку, -- Луціус повернув свій погляд назад, до Гаррі. Коли він
заговорив, його голос був дещо ближчий до своєї звичної інтонації, холодної та
впевненої. -- Можливо, мене можна буде переконати піти вам назустріч, якщо ви
визнаєте перед Чарверсудом те, що, вочевидь, прекрасно знаєте -- що я не
несу відповідальності за цей вчинок. В такому випадку я міг би значно
зменшити ваш борг родові Мелфоїв, чи навіть переглянути його умови, додавши
опцію відстроченої виплати.

// 17125
//Harry regarded Lucius Malfoy steadily. “Lucius Malfoy. You are now perfectly
//aware that Hermione Granger was, in fact, framed using your son as bait, that
//she was False-Memory-Charmed or worse, and that House Potter held nothing
//against you before that. My counterproposal is that you return my family’s
//money, I announce before the Wizengamot that House Potter holds House Malfoy no
//animus, and we present a united front against whoever’s doing this. We decide
//to screw the roles we’re supposed to play, and ally with each other instead of
//fighting. It could be the one thing the enemy doesn’t expect us to do.”
Гаррі дивився на Луціуса Мелфоя рівно й впевнено.

-- Луціусе Мелфой. Наразі ви чудово усвідомлюєте, що, по факту, Герміону
Ґрейнджер підставили, використавши вашого сина як наживку, що його було
щонайменше піддано чарам хибної пам'яті, і що рід Поттерів до цих подій не мав
до вас жодних претензій. Я маю зустрічну пропозицію. Ви повертаєте гроші моєї
родини, я оголошую перед Чарверсудом, що рід Поттерів не має претензій до роду
Мелфоїв, і ми виступаємо об'єднаним фронтом проти того, хто все це замислив.
Вирішуємо покинути приписані нам ролі й вступити в союз один з одним, замість
суперництва. Це може стати саме тим кроком, на який не очікує ворог.

// 17126
//There was a brief silence in the room, except for the two goblin guards who
//went on breathing regardless.
В кімнаті запала коротка мовчанка -- лише два вартових ґобліни й далі
сопіли, як і раніше.

// 17127
//“You __are__ mad,” Lucius Malfoy said coldly.
-- Ти __точно__ божевільний, -- холодно відказав Луціус Мелфой.

// 17128
//“It’s called justice, Lord Malfoy. You cannot possibly expect me to cooperate
//with you while you are holding the wealth of House Potter under what you now
//know to be false pretenses. I understand how it looked to you at the time, but
//you know better now.”
-- Це називається справедливість, лорде Мелфой. Ви не можете очікувати на моє
співробітництво, утримуючи багатство роду Поттерів на, як вам відомо, хибних
підставах. Я розумію, як це все виглядало було, але тепер ви освідомленіші.

// 17129
//“You have nothing to offer me worth a hundred thousand Galleons.”
-- Тобі нема чого мені запропонувати на сто тисяч ґалеонів.

// 17130
//“Don’t I?” Harry said distantly. “I wonder. I think it quite probable that you
//care more about the long-term welfare of House Malfoy than about whichever
//political issue the last generation’s failed Dark Lord made his personal
//hobbyhorse.” Harry glanced significantly at Draco. “The next generation is
//drawing its own battle lines and forming new alliances. Your son can be frozen
//out of that, or he can go straight to the top. Is that worth more to you than
//forty thousand Galleons you weren’t particularly expecting and don’t
//particularly need?” Harry smiled thinly. “Forty thousand Galleons. Two million
//Muggle pounds sterling. Your son knows some things about the size of the Muggle
//economy that might surprise you. They’d find it amusing, that the fate of a
//country was revolving around two million pounds sterling. They’d think it was
//cute. And I think much the same, Lord Malfoy. This isn’t about me being
//desperate. This is about you getting a fair chance to be fair.”
-- Хіба? -- відсторонено відгукнувся Гаррі. -- Та невже. Я гадаю, цілком
імовірно, вам значно важливіший довготривалий добробут роду Мелфоїв, аніж
будь-яка ідеологія, що нею пробавлявся переможений темний лорд останнього
покоління. Наступне покоління окреслює власні фронти й формує нові
альянси. Ваш син може бути або виключений з цих процесів, або потрапити одразу
на верхівку. Невже це не варте для вас більшого, ніж сорок тисяч ґалеонів, на
які ви особливо не сподівалися, і які вам не надто й потрібні? -- Гаррі видав
скупу посмішку. -- Сорок тисяч ґалеонів. Два мільйони маґлівських фунтів
стерлінгів. Ваш син знає дещо про розмір маґлівської економіки, що має вас
здивувати. Маґли б сміялися, якби  дізналися про країну, що її доля
визначається якимись двома мільйонами фунтів стерлінгів. Вони б вирішили,
що це навіть мило. І я з ними згоден, лорде Мелфой. Справа не в тому, що я в
розпачі. Справа в тому, що ви маєте справедливий шанс повестися справедливо.

// 17131
//“Oh?” said Lord Malfoy. “And if I refuse your fair chance, what then?”
-- Он як? -- відгукнувся лорд Мелфой. -- А якщо я відмовлюсь від вашого
справедливого шансу, що тоді?

// 17132
//Harry shrugged. “Depends what sort of coalition government gets put together
//without the Malfoys. If the government can be reformed peacefully and it would
//disturb the peace to do otherwise, I’ll pay you the money out of petty cash. Or
//maybe the Death Eaters will be retried for past crimes and executed as a matter
//of justice, as a result of due legal process, of course.”
Гаррі знизав плечима.

-- Залежно від того, який коаліційний уряд можна сформувати без участі Мелфоїв.
Якщо уряд можна реформувати мирним шляхом, а інші дії призведуть до
громадського неспокою, я просто заплачу вам гроші з кишенькової готівки. А
може доведеться повторно судити смертежерів за їхні минулі злочини та стратити
їх в ім'я справедливості -- в результаті належного юридичного процесу, звісно.

// 17133
//“You truly are mad,” Lucius Malfoy said quietly. “You have no power, no wealth,
//and yet you say such things to me.”
-- Ти справді божевільний, -- тихо сказав Луціус Мелфой. -- Ти не маєш ані
влади, ані багатства, і кажеш мені таке.

// 17134
//“Yes, it’s silly to think I could scare you. After all, you’re not a Dementor.”
-- Так, нерозумно вважати, що я можу вас налякати. Зрештою, ви ж не дементор.

// 17135
//And Harry went on smiling. He’d looked it up, and apparently a bezoar
//__would__ heal almost any poison if you shoved it into someone’s mouth
//fast enough. Maybe that wouldn’t repair radiation damage from Transfigured
//polonium, but then again, maybe it would. So Harry had looked up the freezing
//points of various acids, and it turned out that sulfuric acid would freeze at
//just ten degrees Celsius, which meant Harry could buy a liter of acid on the
//Muggle market, freeze it solid, and Transfigure it down to a tiny little
//unnoticable water-ice chip to be flipped into someone’s mouth and ingested. No
//bezoar would compensate for that, once the Transfiguration wore off. Harry had
//no intention of saying it out loud, of course, but now that he’d failed
//decisively to prevent any deaths during his quest, he had no further intention
//of being restrained by the law or even the code of Batman.
І Гаррі посміхався собі. Гаррі перевірив був, і підтвердив, що безоар
__справді__ здатний зцілити від будь-якого отруєння, якщо запхати його жертві в
рота достатньо швидко. Можливо, це не усуне негативні ефекти радіації
трансфігурованого полонію, а може і їх усуне. Тож Гаррі ще подивився
температури замерзання різноманітних кислот, і з'ясував, що сірчана кислота
замерзає за десяти градусів за Цельсієм. Відповідно, Гаррі міг
купити літр цієї кислоти в маґлів, заморозити, трансфігурувати у крихітний
шматочок льоду, який легко потрапить комусь до рота й перетравиться. Жоден
безоар не допоможе від цього, коли ефект трансфігурації закінчиться. Гаррі не
збирався оголошувати це вголос, звичайно, але тепер, коли йому вже не вдалося
попередити будь-які жертви під час свого походу, він не мав подальшого бажання
обмежувати себе законом, чи навіть кодексом Бетмена.

// 17136
//__Last chance to live, Lucius. Ethically speaking, your life was bought
//and paid for the day you committed your first atrocity for the Death Eaters.
//You’re still human and your life still has intrinsic value, but you no longer
//have the deontological protection of an innocent. Any good person is licensed
//to kill you now, if they think it’ll save net lives in the long run; and I will
//conclude as much of you, if you begin to get in my way. Whoever sent the troll
//after Granger must have targeted you too and hit you with some curse that makes
//former Death Eaters melt into a pile of goo. Very sad.__
__Останній шанс вижити, Луціусе. З точки зору етики, ти запродав своє життя,
коли скоїв перший смертежерський злочин. Ти все одно людина, і твоє життя
досі має невід'ємну цінність, але ти позбавлений деонтологічного захисту
невинності. Будь-яка хороша людина має право тебе вбити, якщо гадає, що це
зрештою врятує інші життя згодом; і саме так я й гадатиму, якщо ти почнеш
плутатися під ногами. Хай хто відправив троля по Ґрейнджер, імовірно, напав і
на тебе, поцілив якимось закляттям, що перетворює колишніх смертежерів на купу
лайна. Яка прикрість.__

// 17137
//“Father,” Draco said in a small voice. “I think you should consider it,
//father.”
-- Батьку, -- тихо сказав Драко. -- Я вважаю, тобі варто розглянути
цю пропозицію, батьку.

// 17138
//Lucius Malfoy looked at his son. “You jest.”
Луціус Мелфой подивився на свого сина.

-- Ти жартуєш.

// 17139
//“It’s true. I don’t think Potter just made up his books, nobody could have
//written all that and there were things in them that I could check for myself.
//And if even half of all that is true, he’s right, a hundred thousand Galleons
//won’t mean much. If we give it to him he really will be friends with House
//Malfoy again - the way __he__ thinks of being friends, anyway. And if we
//don’t, he’ll be your enemy, whether it’s in his own interests or not, he’ll
//just go after you. Harry Potter really does think like that. It’s not about
//money to him, it’s about what he thinks is honor.”
-- Це правда. Не думаю, що Поттер сам написав ті свої книжки, ніхто б не міг
стільки написати. І до того ж дещо в них я міг перевірити. І навіть якщо
половина з цього правда -- він має рацію, і сто тисяч ґалеонів небагато
важитимуть. Якщо ми віддамо їх -- він знову буде другом роду Мелфоїв -- таким,
як __він__ бачить друзів, принаймні. Та якщо ні, він стане ворогом, навіть якщо
це не в його інтересах -- він завжди намагатиметься тобі напаскудити. Гаррі
Поттер так мислить.
Для нього справа не в грошах, а в тому, що він вважає честю.

// 17140
//Harry Potter inclined his head, still smiling.
Гаррі Поттер схилив голову, посмішка не полишала його лиця.

// 17141
//“But let’s get one part of it straight,” Draco said, now staring directly at
//him. There was a fierce light in his eyes. “__You wronged me. __And
//__you owe me.__”
-- Втім, варто нам дещо прояснити, -- сказав Драко, дивлячись просто на нього.
Очі його палали. -- __Ти скривдив мене.__ Тож __ти мій боржник__.

// 17142
//“Acknowledged,” Harry said quietly. “Conditional on the rest of it, of course.”
-- Прийнято, -- тихо сказав Гаррі. -- За умови укладення основної угоди,
зрозуміло.

// 17143
//Lucius Malfoy opened his mouth to say who-knew-what and then closed it again.
//“Mad,” he said again.
Луціус Мелфой відкрив рота, щоб сказати хтозна-що, а потім знову його закрив.

-- Псих, -- повторився поважний пан.

// 17144
//There was a long father-and-son argument during which Harry managed to keep his
//mouth shut.
Потім почалася довга суперечка між батьком і сином, в яку Гаррі впорався не
влізати.

// 17145
//When it seemed that even Draco wouldn’t be able to persuade his father, Harry
//spoke up again, and proposed his intended next steps, if the Houses of Potter
//and Malfoy could cooperate.
Коли здалося, що навіть Драко не зможе переконати свого батька, Гаррі знову
заговорив, і розповів, які кроки він планує, якщо роди Поттерів і Мелфоїв
домовляться про співробітицтво.

// 17146
//Then came more argument between Lucius and Draco, during which Harry again
//stayed silent.
Після цього було ще одне коло суперечки між Луціусом і Драко, а Гаррі знову
мовчав.

// 17147
//Finally Lucius Malfoy’s eyes turned to gaze at Harry. “And you believe,” Lucius
//Malfoy said, “that you can persuade Longbottom and Bones to go along with this
//notion, even if Dumbledore opposes it.”
Нарешті Луціус Мелфой подивився на Гаррі.

-- І ти віриш, -- уточнив Луціус Мелфой, -- що здатен переконати Лонґботом і
Боунз підтримати тебе, навіть якщо Дамблдор виступить проти.

// 17148
//Harry nodded. “They’ll be suspicious of your involvement, of course. But I’ll
//tell them that it was my plan to start with, and that should help.”
Гаррі кивнув.

-- Звісно, вони не будуть в захваті від вашої участі. Але я їм скажу, що це був
мій оригінальний план із самого початку, це має допомогти.

// 17149
//“I suppose,” Lucius Malfoy said after a pause, “that I could have a contract
//drawn up, absolving you of __almost__ all the remaining debt, if by some
//chance I do go along with this mad idea. It shall need more guarantees, of
//course -”
-- Гадаю, -- сказав Луціус Мелфой після паузи, -- я міг би запропонувати
контракт, що звільнив би тебе від __більшої частини__ боргу, якщо я чомусь
піддамся на це божевілля. Звісно, що потрібно більше гарантій...

// 17150
//Harry promptly reached into his robes and drew out a parchment, unfolding it
//and spreading it across the golden table. “I’ve taken the liberty myself,
//actually,” Harry said. He’d spent some careful hours in the Hogwarts library
//with the law books available. Thankfully, so far as Harry could tell, the laws
//of magical Britain were charmingly simple by Muggle standards. Writing that the
//original blood debt and payment was cancelled, the Potters’ wealth and all
//other vault items would be returned, and the remaining debt annulled, all with
//no fault to the Malfoys, was only a few more lines than it took to say out
//loud. “I had to promise my keepers not to sign anything you gave me. So I made
//sure to compose this myself, and sign it before I left.”
Гаррі швидко витяг з мантії сувій пергаменту й розгорнув його на золотому
столі.

-- Я не посоромився й зробив це сам, -- сказав Гаррі.

Він
провів був якийсь час уважно працюючи з бібліотечними книжками з юриспруденції. На
щастя, як виявив Гаррі, закони чаклунської Британії були чарівно прості відносно
маґлівських стандартів. Щоб написати, що оригінальний кровний борг і
оплата скасовуються, що статки Поттерів та всі інші предмети, що зберігалися в
їхньому сховищі, будуть повернуті, решта боргу анулюється, а Мелфоїв ні в чому
не звинувачують, треба було лише кілька додаткових рядків відносно того, щоб це
все сказати.

-- Я мав пообіцяти своїм опікунам не підписувати нічого, що ви мені дасте.
Відповідно, я сам склав цей документ і підписав його заздалегідь.

// 17151
//Draco emitted a choked laugh.
Драко не стримався й пирхнув.

// 17152
//Lucius read through the contract, smiling humorlessly. “How charmingly
//straightforward.”
Луціус прочитав контракт, безрадісно посміхнувся:

-- Як все... до чарівного просто.


// 17153
//“I also promised not to touch a quill while I was in Gringotts,” Harry said. He
//reached into his robes again and drew out a Muggle pen, along with a sheet of
//normal paper. “Will this wording be all right?” Harry rapidly scribbled down a
//legal-sounding statement to the effect that House Potter didn’t hold House
//Malfoy responsible in any way for Hermione Granger’s murder and didn’t believe
//they had anything to do with it, then held up the paper in the air for Lord
//Malfoy’s inspection.
-- Я також обіцяв не торкатися каламаря в межах "`Ґрінґотсу`", -- сказав Гаррі.
Він знову поліз собі у мантію і дістав звідти маґлівську ручку та стос
нормального паперу. -- Таке формулювання прийнятне?

Гаррі швидко нашкрябав
пункт угоди, згідно якої рід Поттерів не звинувачує рід Мелфоїв у вбивстві
Герміони Ґрейнджер і не вірить, що вони якось пов'язані з цією подією; тоді
передав аркуш на огляд лорду Мелфою.

// 17154
//Lord Malfoy looked at the paper, rolled his eyes slightly, and said, “Good
//enough, I suppose. Though to have the proper meaning, you should use the legal
//term __indemnify__ rather than __exonerate__ -”
Лорд Мелфой продивився папір, закотив очі під лоба й сказав:

// hedrok @ можливо, можна зробити щось ліпше, можливо, юридичне...
// https://www.reddit.com/r/HPMOR/comments/1ke723/exonerate_indemnify_spoilers_chapter_97/
-- Гадаю, цього достатньо. Хоча для кращого відтінку змісту, ліпше використати
"`звільняє від будь-якої відповідальності`" замість "`знімає провину`"...

// 17155
//“Nice try, but no. I know exactly what that word means, Lord Malfoy.” Harry
//took his parchment and began copying down his original wording more carefully.
-- Гарна спроба, але ні. Я точно знаю, який термін має тут стояти, лорде Мелфой.
-- Гаррі взяв пергамент і почав охайніше переписувати своє оригінальне
формулювання.

// 17156
//When Harry was done, Lord Malfoy reached across the golden table and took the
//pen, looking at it thoughtfully. “One of your Muggle artefacts, I suppose? What
//does this do, son?”
Коли Гаррі закінчив, лорд Мелфой потягнувся через стіл, взяв ручку, подивився
на неї задумливо:

-- Імовірно, один із твоїх маґлівських артефактів? Що воно робить, синку?


// 17157
//“It writes without needing an inkwell,” Draco answered.
-- Пише без чорнильниці, -- відповів Драко.

// 17158
//“I can see that. I suppose some might find it an amusing trinket.” Lucius
//smoothed the parchment contract over the table, then set his hand by the line
//for signatures, tapping the pen thoughtfully on the starting spot.
-- Це я бачу. Гадаю, когось би зацікавив такий багатель. -- Луціус розправив
контракт на столі, знайшов місце для підпису, задумливо постукав ручкою по цій
точці.

// 17159
//Harry wrenched his eyes away, up to Lucius Malfoy’s face, forcing himself to
//breathe regularly, not quite able to stop his muscles from tensing.
Гаррі відірвався від цього видовища, змусив себе дивитися в обличчя Луціуса
Мелфоя, змусив м'язи розслабитися.

// 17160
//“Our good friend, Severus Snape,” said Lucius Malfoy, still tapping the pen on
//the line awaiting his signature. “The Defense Professor, calling himself
//Quirrell. Now I ask again, who is your third suspect, Harry Potter?”
-- Наш добрий друг, Северус Снейп, -- сказав Луціус Мелфой, постукуючи ручкою
по папірцю, що все чекав його підпису. -- Професор із захисту, що називає себе
Квірелом. Я знову питаю тебе, хто твій третій підозрюваний, Гаррі Поттер?

// 17161
//“I would strongly advise that you sign first, Lord Malfoy, if you’re going to
//do so anyway. You will benefit from this information more if you do not think I
//am trying to persuade you of something.”
-- Я рекомендую вам спочатку підписати, лорде Мелфой, якщо вже ви так і так
вирішили це зробити. Ви отримаєте більше користі від цієї інформації, якщо не
будете думати, що це я намагаюся переконати вас у цьому.

// 17162
//Another humorless smile. “I shall take my chances. Speak, if you wish this to
//continue.”
Ще одна безрадісна посмішка.

-- Я ризикну. Говори, якщо хочеш, щоб це пішло далі.

// 17163
//Harry hesitated, then said evenly, “My third suspect is Albus Dumbledore.”
Гаррі повагався, і промовив рівно:

-- Мій третій підозрюваний -- Албус Дамблдор.

// 17164
//The tapping pen stilled on the parchment. “A strange allegation,” Lucius
//drawled. “Dumbledore lost much face when a Hogwarts student died within his
//tenure. Do you suppose that I will believe anything of him, only because he is
//my enemy?”
Ручка на пергаменті завмерла.

-- Дивне звинувачення, -- протягнув Луціус. -- Репутація Дамблдора сильно
постраждала, коли за його директорства загинув учень. Гадаєш, я повірю
будь-яким звинуваченням на його адресу, лише тому, що він -- мій ворог?


// 17165
//“He is one suspect among several, Lord Malfoy, and not necessarily the most
//plausible. But the reason I was able to kill a full-grown mountain troll was
//that I had a weapon which Dumbledore gave to me, at the start of the school
//year. It’s not strong evidence, but it’s suspicious. And if you’re thinking
//that murdering one of his students is not Dumbledore’s style, well, the same
//thought had occurred to me.”
-- Він -- один підозрюваний з багатьох, лорде Мелфой, і не обов'язково найбільш
підходящий. Але причина, з якої мені вдалося вбити дорослого троля, полягає в
тому, що Дамблдор дав був мені відповідну зброю ще на початку шкільного року. Це
не сильне свідчення, але це дуже підозріло. Якщо ви вважаєте, що вбивати учнів --
не його стиль, ну, так, мені це теж спадало на думку.

// 17166
//“It’s __not__ his style?” Draco Malfoy said.
-- Це __не__ його стиль? -- вигукнув Драко Мелфой.

// 17167
//Lucius Malfoy shook his head in a measured, careful movement. “Not quite, my
//son. Dumbledore is particular in his evils.” Lord Malfoy leaned back into his
//chair, and then sat quite still. “Tell me of this weapon.”
Луціус Мелфой дуже обережно похитав головою.

-- Не зовсім, сину. Дамблдор спричиняє лише певне зло, -- лорд Мелфой
відкинувся в кріслі, а тоді завмер. -- Розкажи мені про цю зброю.

// 17168
//“I am not yet certain I should go into details about that in your presence,
//Lord Malfoy.” Harry took a breath. “Let __me__ be clear on this. I am not
//trying to sell you on the idea that Dumbledore is behind this, just raising the
//possibility -”
-- Я ще не певний, що варто вдаватися в подробиці у вашій присутності, лорде
Мелфой. -- Гаррі вдихнув. -- Дозвольте __мені__ сформулювати все дуже чітко. Я
не намагаюся переконати вас, що за цим стоїть Дамблдор, лише вказую, що існує
така ймовірність....

// 17169
//Then Draco Malfoy spoke. “The device Dumbledore gave you - was it something to
//kill trolls? I mean, __just__ trolls? Can you tell us that?”
Тоді заговорив Драко Мелфой:

-- Артефакт, що тобі дав Дамблдор -- це було щось, щоб вбивати тролів? Себто,
__лише__ тролів? Можеш нам це сказати?


// 17170
//Lucius turned his head to look at his son with some surprise.
Луціус повернувся до сина, подивився на нього з подивом.

// 17171
//“No…” Harry said slowly. “It wasn’t specifically a sword of anti-troll slaying,
//or anything like that.”
-- Ні, -- повільно запровадив Гаррі. -- Не те щоб це був спеціалізований
антитрольский меч абощо.

// 17172
//Draco’s eyes were intent. “Would the device have worked against an assassin?”
Драко дивився на нього дуже уважно.

-- Цей артефакт спрацював би проти найманого вбивці?

// 17173
//__Not if they had shields raised.__ “No.”
__Ні, якщо б він був обачний.__ 

-- Ні.

// 17174
//“A fight in school?”
-- У випадку бійки в школі?

// 17175
//__An expanding rock in the throat is inherently lethal.__ “No. I don’t
//think it was meant for use against humans.”
__Розширити каменюку в чиємусь горлі -- це ж смертельно.__

-- Ні. Я не думаю, що ця штука була призначена для використання проти людей.

// 17176
//Draco nodded. “So just magical creatures. Would it have been a good weapon
//against an angry Hippogriff, or something like that?”
Драко кивнув.

-- Тож, лише магічні створіння. Це б допомогло проти розлюченого гіпогрифа, чи
чогось на цей кшталт?

// 17177
//“Does the Stunning Hex work on Hippogriffs?” Harry said slowly.
-- А приголомшливий прокльон діє на гіпогрифів? -- уточнив Гаррі.

// 17178
//“I don’t know,” said Draco.
-- Я не знаю, -- сказав Драко.

// 17179
//“Yes,” said Lucius Malfoy.
-- Так, -- сказав Луціус Мелфой.

// 17180
//__Compared to trying to target a Wingardium Leviosa and Finite Incantatem
//- __“Then a Stunning Hex would be a better way of dealing with a Hippogriff.”
//Put that way, it did seem increasingly like a Transfigured rock was an optimal
//weapon __only__ against a flesh-and-blood magical creature with
//spell-resistant skin. “But… I mean, it might not have __been__ intended as
//a weapon at all, I used it in a strange way, it could have just been a crazy
//whim -”
__Порівняно із "`__Вінґардіум Левіоза__`" та "`__Фініте Інкантатем__`"...__

-- Тоді приголомшливий прокльон -- значно ліпше рішення для гіпогрифа, -- після
таких питань починало видаватися, що трансфігурований камінь -- оптимальна зброя
лише проти магічного створіння з плоті й крові, що має шкіру з високим опором до
заклять. -- Але... Ну, можливо, це __взагалі__ не мало використовуватися як
зброя, я зробив з цим дещо дивне, можливо це була просто божевільна примха...

// 17181
//“No,” Lucius Malfoy said lowly. “__Not__ a whim. Not coincidence. Not
//Dumbledore.”
-- Ні, -- повільно сказав Луціус Мелфой. -- __Не__ примха. Не збіг. Тільки Не з
Дамблдором.

// 17182
//“Then it’s him,” Draco said. Slowly Draco’s eyes narrowed, and he gave a
//vicious nod. “It’s been him __since the beginning.__ The court Legilimens
//__said__ that someone had used Legilimency on Granger. Dumbledore
//__admitted__ that it was him. And I bet the wards __did__ go off when
//Granger cursed me and Dumbledore just __ignored__ them.”
-- Тоді це він, -- сказав Драко. Драко повільно примружив очі й різко кивнув. --
Це був він __з самого початку__. Судовий виманолог __повідомив__, що хтось
використав на Ґрейнджер виманологію. Дамблдор __визнав__, що це був він.
Закладаюся, захисні чари Гоґвортсу __працювали__, коли Ґрейнджер прокляла мене,
а Дамблдор просто __проігнорував__ їх.

// 17183
//“But -” Harry said. He looked at Lucius, wondering if it was really to his
//advantage to question this idea. “What would be his __motive?__ Are we
//going to say he’s evil and leave it at that?”
-- Але... -- сказав Гаррі. Він поглянув на Луціуса, і не міг вирішити, чи
справді в його інтересах ставити цю ідею під питання. -- Який в нього __мотив__?
Ми що, просто скажемо, що він лихий та й по всьому?

// 17184
//Draco Malfoy jumped out of his chair and began pacing around the room, black
//robes swishing behind the young boy, the goblin guards staring at him in some
//surprise through their enchanted goggles. “To figure out a strange plot, look
//at what happens, then ask who benefits. Except that Dumbledore didn’t plan on
//you trying to save Granger at her trial, he tried to stop you from doing that.
//What would’ve happened if Granger __had__ gone to Azkaban? House Malfoy
//and House Potter would’ve hated each other forever. Of all the suspects, the
//only one who wants __that__ is Dumbledore. So it fits. It __all__
//fits. The one who really committed the murder is - Albus Dumbledore!”
Драко Мелфой вистрибнув з крісла й почав крокувати кімнатою туди-сюди, чорна
мантія розвивалася за юним хлопцем, а ґобліни-охоронці з деяким подивом
витріщалися на нього крізь зачакловані окуляри. -- Щоб розібратися в
хитромудрому плані, треба подивитися, що сталося, і хто отримав від цього
переваги. Тільки от Дамблдор не планував, що ти спробуєш врятувати її в суді,
він спробував тебе спинити. Що сталося б, якби Ґрейнджер __потрапила__ в
Азкабан? Рід Мелфоїв і рід Поттерів зненавиділи б один одного навіки. З усіх
підозрюваних __цього__ бажає лише Дамблдор. Тож це має сенс. __Усе__ збігається.
Насправді вбивцею є... Албус Дамблдор!

// 17185
//“Um,” Harry said. “But why give__ me__ an anti-troll weapon? I said it was
//suspicious, I didn’t say that it made any sense.”
-- Ем... -- сказав Гаррі. -- Але навіщо давати __мені__ протитрольну зброю? Я
сказав, що це підозріло, я не казав, що бачу в цьому бодай крихту логіки.

// 17186
//Draco nodded thoughtfully. “Maybe Dumbledore thought you’d stop the troll
//before it got Granger and then he could blame Father for sending it. A lot of
//people would be very angry if they thought Father had even __tried__ to do
//something like that, in Hogwarts. Like Father said, Dumbledore must’ve lost
//face when people found out that a student had actually died in Hogwarts, being
//safe is what Hogwarts is famous for. So that part probably wasn’t supposed to
//happen.”
Драко задумливо кивнув.

-- Можливо, Дамблдор вважав, що ти зупиниш троля перед тим, як троль вбʼє
Ґрейнджер, і тоді він зможе звинуватити батька в тому, що той надіслав троля.
Багато хто б дуже розізлився, якби вважав, що батько бодай __спробував__ зробити
щось таке в Гоґвортсі. Як тато й казав, репутація Дамблдора сильно постраждала,
коли в школі справді помер учень, бо Гоґвортс відомий саме своєю безпекою. Тож
напевно це не мало статися.

// 17187
//Harry’s mind involuntarily flashed back to the horror in Dumbledore’s eyes when
//he’d seen Hermione Granger’s body.
Гаррі згадався жах в очах Дамблдора, коли той побачив тіло Герміони Ґрейнджер.

// 17188
//__Would I have gotten there in time, if the Weasley twins hadn’t had
//their magic map stolen? Could that have been the plan? And then, though
//Dumbledore didn’t know it, somebody stole their map, and I was too late… but
//no, that doesn’t make much sense, I found out too late, how could Dumbledore
//have guessed that I’d use a broomstick… well, he did know I had one…__
__Чи дістався б я туди вчасно, якби ніхто не вкрав у близнюків Візлі їхню карту?
Чи могло це бути планом? А тоді, хоч Дамблдор про це й не знав, хтось вкрав цю
карту, і я запізнився... але ні, це не клеїться, я дізнався запізно, як Дамблдор
міг здогадатися, що він використає мітлу... хоча, Дамблдор знав, що в нього є
мітла...__

// 17189
//There was no way a plan like that could work.
Такий план аж ніяк не міг спрацювати.

// 17190
//And it hadn’t.
І не спрацював.

// 17191
//But someone going a little bit senile might __expect__ it to work, and a
//phoenix might not know the difference.
Але хтось з невеличким старечим маразмом може __очікувати__, що план спрацює, а
фенікс може не розуміти різниці.

// 17192
//“Or,” Draco Malfoy continued, still pacing energetically, “maybe Dumbledore had
//an enchanted troll around, and he expected you to defeat it some other time,
//for some other plot, and then he used the troll on Granger instead. I can’t
//imagine Dumbledore had this __all__ planned since the first week of
//lessons -”
-- Чи, -- вів далі Драко Мелфой, досі енергійно крокуючи, -- можливо, Дамблдор
мав зачаклованого троля й збирався влаштувати, щоб ти переміг його іншим разом
для якогось іншого плану, але потім натомість використав троля для Ґрейнджер. Не
уявляю, щоб Дамблдор розпланував це __все__ першого ж тижня наших занять...

// 17193
//“I can imagine,” Lucius Malfoy said in low tones. “I have seen such, from
//Dumbledore.”
-- Я можу таке уявити, -- низьким тоном сказав Луціус Мелфой. -- Я був свідком
такого від Дамблдора.

// 17194
//Draco nodded decisively. “Then I was never __supposed__ to die in the
//first plot. Dumbledore knew Professor Quirrell was checking on me, or
//Dumbledore planned to have someone else find me in time - I couldn’t have
//testified against Granger if I was dead, and he’d have lost face if I’d died.
//But my leaving Hogwarts and not being around to lead Slytherin would be just
//right for him. And then the next time Harry was supposed to stop the troll
//before it got Granger and everyone was supposed to blame you, Father, only that
//time it didn’t go the way Dumbledore planned.”
Драко рішуче кивнув.

-- Тоді я й __не мав__ померти в першому плані. Дамблдор знав, що професор
Квірел перевіряє мене, чи Дамблдор запланував, щоб хтось інший знайшов мене
вчасно -- я не міг би свідчити проти Ґрейнджер, якби помер, і він би втратив
репутацію через смерть учня. Але те, що я піду з Гоґвортсу й не зможу очолювати
Слизерин було в його інтересах. А тоді наступного разу Гаррі мав би спинити
троля перед тим, як той вбив Ґрейнджер, і всі мали б звинувачувати тебе, батьку,
тільки цього разу не все пішло за планом Дамблдора.

// 17195
//Lucius Malfoy lifted his grey eyes, from where he’d been gazing with open
//surprise at his son. “If this is true - but I wonder if Harry Potter is only
//playing at being reluctant to believe it.”
Луціус відвів свої сірі очі від сина, якого він споглядав з явним подивом.

-- Якщо це правда... та сумніваюся, можливо Гаррі Поттер лише грає небажання
вірити в це.

// 17196
//“Maybe,” Draco said. “But I’m pretty sure he isn’t.”
-- Можливо, -- сказав Драко. -- Але я майже певен, що ні.

// 17197
//“Then, if it is true…” Lucius Malfoy’s voice trailed off. A slow fury was
//lighting in his eyes.
-- Тоді, якщо це правда... -- Луціус затнувся. В його очах повільно займалася
лють.

// 17198
//“What __would__ we do, exactly?” Harry said.
-- Що __саме__ ми робитимемо? -- спитав Гаррі.

// 17199
//“That, too, is clear to me,” Draco said. He whirled on them and raised a finger
//high in the air. “We shall find the proof to convict Dumbledore of this crime,
//and bring him to justice!”
-- Це теж для мене очевидно, -- сказав Драко. Він крутнувся до них, підвів
палець високо в повітря. -- Ми знайдемо докази, щоб Дамблдора визнали винним у
його злочині, і віддамо його правосуддю!

// 17200
//Harry Potter and Lucius Malfoy looked at each other.
Гаррі Поттер і Луціус Мелфой перезирнулися.

// 17201
//Neither of them quite knew what to say.
Ніхто з них не знав, що сказати.

// 17202
//“My son,” Lucius Malfoy said after a time, “truly, you have done very well this
//day.”
-- Синку, -- по деякому часі сказав Луціус Мелфой, -- ти справді сьогодні
справив на мене враження.

// 17203
//“Thank you, Father!”
-- Дякую, батьку!

// 17204
//“However, this is not a play, we are not Aurors, and we do not put our trust in
//trials.”
-- Втім, це не пʼєса, ми не аврори, і ми не віримо в суди.

// 17205
//Some of the light went out of Draco’s eyes. “Oh.”
Вогник дещо полишив очі Драко.

-- Ох.

// 17206
//“I, ah, do have a sentimental fondness for trials,” Harry interjected.
//__I cannot believe I am having this conversation.__ He needed to go home
//and take a sheet of paper and a pencil and try to figure out whether Draco’s
//reasoning __actually__ made sense. “And evidence.”
-- Ем, у мене є сентиментальна прихильність до судів, -- вставив Гаррі. __Не
вірю, що беру участь у цій розмові__. Треба піти додому, взяти аркуш паперу й
олівець, і спробувати зрозуміти, чи хід думок Драко __справді__ має якийсь сенс.
-- І до доказів.

// 17207
//Lucius Malfoy turned his gaze to Harry Potter then, and his eyes simmered in
//pure grey fury.
Луціус Мелфой поглянув на Гаррі Поттера, його очі кипіли щирою сірою люттю.

// 17208
//“If you have deceived me,” Lucius Malfoy said in tones of low anger, “if all
//this is a lie, then I will not forgive. But if this is not deception… Bring me
//the proof to convict Dumbledore of this murder before the Wizengamot, or
//evidence enough to have him cast down, and there is nothing that House Malfoy
//will not do for you, Harry Potter. Nothing.”
-- Якщо ти обманув мене, -- зі злістю сказав Луціус Мелфой, -- якщо все це
брехня, я не пробачу. Та якщо це не обман... Дай мені якісь свідчення, щоб
засудити Дамблдора за це вбивство перед Чарверсудом, чи достатньо свідчень, щоб
прибрати його, і тоді не буде нічого, що не зробив би для тебе рід Мелфоїв.
Нічого.

// 17209
//Harry took a deep breath. He needed to sort all this out and figure out the
//actual probabilities, but he didn’t have __time__. “If it __is__
//Dumbledore, then removing him from the gameboard leaves a huge hole in
//Britain’s power structure.”
Гаррі глибоко вдихнув. Треба було з усім цим розібратися, оцінити імовірності,
але в нього не було __часу__.

-- Якщо це __справді__ Дамблдор, то варто прибрати його з дошки, і лишиться
величезна порожнеча в структурі влади Британії.

// 17210
//“So it does,” Lucius Malfoy said with a grim smile. “Did you have ambitions of
//filling it yourself, Harry Potter?”
-- Так і є, -- сказав Луціус Мелфой з нещадною посмішкою. -- Ти бажаєш заповнити
її сам, Гаррі Поттер?

// 17211
//“Some of your opposition might not like that. They could fight.”
-- Частині вашої опозиції це не сподобається. Вони можуть почати боротьбу.

// 17212
//“They will lose,” Lucius Malfoy said, now with a face hard like iron.
-- Вони програють, -- сказав Луціус Мелфой, тепер його лице було мов із заліза.

// 17213
//“So this is what I’d want House Malfoy to do for me, Lord Malfoy, if Dumbledore
//gets removed because of me. When the opposition is most frightened - that’s
//when they’ll be offered a last-minute arrangement to avoid a civil war. Some of
//your allies might not prefer it, but there’ll be a lot of neutrals who’ll be
//glad to see stability. The bargain will be that instead of you taking over
//right away, Draco Malfoy will take power when he comes of age.”
-- Тоді ось чого я хочу від роду Мелфоїв, лорде Мерфой, якщо Дамблдора через
мене приберуть. Коли опозиція буде найпереляканішою -- саме тоді їм запропонують
останню спробу угоди для уникнення громадянської війни. Комусь з ваших союзників
це не сподобається, але буде багато нейтрально налаштованих, що лише зрадіють
від можливої стабільності. Ви запропонуєте, що замість того, щоб ви захопили всю
владу, Драко Мелфой правитиме замість вас, коли стане повнолітнім.

// 17214
//“__What?__” Draco said.
-- __Що?__ -- вигукнув Драко.

// 17215
//“Draco has testified under Veritaserum that he tried to help Hermione Granger.
//I bet there’d be a lot of people in the opposition who’d take a chance on him
//rather than fight. I’m not sure how exactly you’d enforce it - Unbreakable Vows
//or Gringotts contracts or what - but there’ll be some sort of enforceable
//compact about power going to Draco after he graduates Hogwarts. I’ll throw any
//support the Boy-Who-Lived has behind that bargain. Try to persuade Longbottom
//and Bones and so on. Our first plan paves the way for that later, if you’re
//careful to act honorable when you deal with Longbottom and Bones this time
//around.”
-- Драко засвідчив під дією сироватки правди, що старався допомогти Герміоні
Ґрейджер. Закладаюся, чимало людей з опозиції погодилося б дати йому шанс
замість того, щоб битися. Не знаю, як саме ви дасте гарантії -- незламні
обітниці, угоди "`Ґрінґотс`" абощо -- але має бути якийсь забезпечений
гарантіями пакт про те, що влада перейде до Драко, щойно він завершить Гоґвортс.
Я віддам всю можливу підтримку від Хлопчика-Що-Вижив для цієї угоди. Спробую
переконати Лонґботом, Боунз тощо. Наш перший план в цьому допоможе, якщо ви
будете обережними й ставитиметеся шляхетно до Лонґботом та Боунз цього разу.

// 17216
//“Father, I __swear__ I didn’t -”
-- Батьку, __присягаюся__, я не...

// 17217
//Lucius’s face twisted into a grim smile. “I know you didn’t, son. Well.” The
//white-haired man stared across the mighty golden table at Harry Potter. “Those
//terms are acceptable to me. But fail in any part of our agreement, whether our
//first bargain, or the second, and there shall be consequences for you, Harry
//Potter. Clever words will not halt that.”
Обличчя Луціуса скривилося в посмішку.

-- Знаю, синку. Що ж, -- біловолосий чоловік втупився понад золотий стіл у Гаррі
Поттера. -- Такі умови для мене прийнятні. Але поруш будь-яку частину нашої
угоди -- першої чи другої -- і на тебе очікують наслідки, Гаррі Поттере. Розумні
слова тоді нічим не зарадять.

// 17218
//And Lucius Malfoy signed the parchment.
І Луціус Мелфой підписав пергамент.

***

// 17219
//Mad-Eye Moody had been staring at the bronze door of the Gringotts meeting room
//for what seemed like hours, insofar as a man could stare at any one thing when
//his gaze always saw in all directions.
Дикозор Муді витріщався був на бронзові двері до кімнати перемовин "`Ґрінґотсу`"
ніби годинами, ну, наскільки міг витріщатися чоловік, що бачить водночас у всіх
напрямках.

// 17220
//The trouble with trying to be suspicious of a man like Lucius Malfoy, Moody
//thought, was that you could spend an entire day thinking of everything he might
//be up to, and still not have finished.
Проблема з тим, щоб підозрювати когось на кшталт Луціуса Мелфоя, думав Муді,
полягала в тому, що можна цілісінький день вигадувати, що той міг замислити, і
все одно не встигнути перелічити все.

// 17221
//The door cracked open and Harry Potter trudged out, small beads of sweat still
//on his forehead.
Двері прочинилися, і звідти стомливо вийшов Гаррі Поттер, невеличкі краплини
поту досі виднілися на його чолі.

// 17222
//“Did you sign anything?” Mad-Eye demanded upon the instant.
-- Ти щось підписав? -- одразу забажав знати Дикозор.

// 17223
//Harry Potter looked at him silently, then reached into his robes and drew out a
//folded parchment. “The goblins are already executing this,” said Harry Potter.
//“They made three copies before I left.”
Гаррі Поттер безмовно на нього подивився, дістав з мантії згорнутий пергамент та
сказав:

-- Ґобліни вже виконують це. Вони зробили три копії перед тим, як я пішов.

// 17224
//“MERLIN DAMN IT SON -” Moody paused as his Eye caught sight of the second half
//of the document as Harry Potter slowly, as though reluctantly, began to unfold
//the top upward. A glance sufficed to take in the paragraphs drawn in careful
//handwriting, Lucius Malfoy’s elegant signature below Harry Potter’s. And then
//Moody exploded, even as the top half of the document also began to enter his
//Sight. “You __exonerate House Malfoy__ of __any involvement in
//Hermione Granger’s death? __Do you have any idea what you’ve done, you little
//fool? Why in Merlin’s name would you do something like WHAT -”
-- ЗАРАДИ МЕРЛІНА, СИНКУ... -- Муді затнувся, коли його око побачило другу
половину угоди, яку Гаррі Поттер повільно, ніби неохоче, почав розгортати
догори. Одного погляду вистачило, щоб побачити охайно написані абзаци та
елегантний підпис Луціуса Мелфоя під підписом Гаррі Поттера. І тоді Муді
вибухнув гнівом, коли верхня половина документу також почала виднітися: -- Ти
__знімаєш провину__ за __будь-яку участь у смерті Герміони Ґрейнджер__? Ти хоч
уявляєш, що ти накоїв, маленький йолопе? Імʼям Мерліна, навіщо ти зробив щось
таке ЩО...
