// 18993
//== Failure, Pt 2
== Розділ 112. Невдача, ч.2

// 18994
//Even as Harry had raised the gun, he’d __known__ he was making a mistake,
//his forebrain saw it and tried to stop his hand, but somehow the sick certainty
//didn’t propagate fast enough to prevent his finger from pulling the trigger -
Гаррі ще тільки почав підіймати пістолет, а вже __знав__, що коїть помилку, та
його передній мозок розумів це та намагався спинити руку, та чомусь ця огидна
певність недостатньо швидко ширилася, щоб спинити палець від натискання на
гачок...

// 18995
//The echo of the shots died away within the graveyard.
Луна від пострілів стихла на цвинтарі.

// 18996
//A fraction of a second before Harry had pulled the trigger, Voldemort had
//jabbed his wand downward, and a wide wall of dirt had shot up between them from
//the graveyard earth, intercepting all three bullets.
Менш ніж за секунду до того, як Гаррі натиснув на гачок, Волдеморт смикнув
паличку вниз та між ними виникла широка стіна із землі цвинтаря, що перехопила всі
три кулі.

// 18997
//An instant after that, pain flared in Harry’s scar, a crawling feeling came
//close to his skin; and then Harry’s pouch, clothes, gun, everything except his
//wand disappeared, leaving him naked but for the wand still in his right hand,
//and the glasses he’d Charmed to stick to his nose. The steel ring upon his left
//pinky finger was yanked off hard enough to scrape skin, taking the Transfigured
//jewel with it.
Ще за мить в шрамі Гаррі спалахнув біль, поряд зі шкірою він щось відчув, а тоді
капшучок, одяг, зброя -- усе, крім палички зникло. Він лишився голий, але з
паличкою в правиці та з окулярами, які він зачаклував, щоб ті не спадали з носа.
Сталевий перстень з лівого мізинця з такою силою зірвало з нього, що той
подряпав шкіру, з ним Гаррі втратив і трансфігурований самоцвіт.

// 18998
//“That,” said the voice of Voldemort from behind the dirt wall, “was
//__absolutely__ predictable. Do you really think I would shout it aloud for
//you to hear, if my immortality were disrupted? Really, stupid child? Lower your
//wand, do not raise it up again at any time, or you die upon the spot.”
-- Це, -- пролунав з-за земляної стіни голос Волдеморта, -- було __цілковито__
передбачувано. Ти справді гадаєш, що я б уголос кричав, щоб ти це почув, якби
моєму безсмертю щось загрожувало? Справді, дурне дитя? Опусти паличку й не
підіймай її в жодному разі, або помреш на місці.

// 18999
//Harry swallowed, and pointed his wand downward. “You would have been
//disappointed in me,” Harry said, his own voice now unusually high, “if I’d
//missed an opportunity like that, I mean.” There was no time to think, and
//Harry’s mouth was operating on autopilot for trying to placate evil overlords
//that might have paternal feelings for you and whom you’d just failed to
//assassinate.
Гаррі ковтнув слину й опустив паличку.

-- Ви були б мною розчаровані, -- незвично високим голосом сказав Гаррі, -- я
маю на увазі, якби я впустив таку можливість.

Не було часу на роздуми, тож рот Гаррі працював на автопілоті, намагався
заспокоїти лихого володаря світу, що міг мати батьківські відчуття до нього, і
кого йому щойно не вдалося вбити.

// 19000
//Voldemort stepped around from behind the dirt wall, smiling that horrible smile
//that seemed to contain too many teeth. “I promised not to raise my hand or wand
//against you, child, if you did not raise your hand or wand against me.”
Волдеморт обійшов земляну стіну, він знову жахливо посміхався, в нього було
забагато зубів.


// hedrok "raise my hand or wand" йдеться про 105:18143
-- Я обіцяв не підіймати на тебе ані руки, ані палички, дитино, якщо ти не
підіймеш ані руки, ані палички проти мене.

// 19001
//“I used bullets,” Harry said, his voice still high. “That’s not a fist or a
//spell.”
-- Я використав кулі, -- усе цим високим голосом. -- Це не кулак і не закляття.

// 19002
//“My curse thinks differently. That is the puzzle piece that you missed. Did you
//think I would leave the peace between us to mere fortune? Before I created you,
//I invoked a curse upon myself and all other Tom Riddles who would descend from
//me. A curse to enforce that none of us would threaten the others’ immortality,
//so long as the other made no attempt upon our own. Typical of that ridiculous
//fiasco, the curse seems to have ended up binding me, but taking no hold upon
//the infant with his self so lost.” A low, lethal chuckle. “__But you
//tried to end my true life jusst then, sstupid child. Now cursse iss lifted, and
//I may kill you any time I wissh.__”
-- Моє прокляття не погоджується. Ось якої частини головоломки тобі бракувало.
Ти справді вважав, що я залишу мир між нами на щасливий випадок? Перед тим, як
створити тебе, я наклав прокляття на себе й на всіх Томів Редлів, що виникнуть
від мене. Прокляття, що змушувало всіх нас не загрожувати безсмертю один одного,
доки інший не зробить такої спроби. Типово для такого неймовірного фіаско,
прокляття стримувало мене, та жодним чином не впливало на дитину, що настільки
загубила власне я, -- низький, смертоносний смішок. -- __Але ти сспробував
забрати моє життя шщойно, дурне дитя. Тепер ефект прокляття знято, і я можу
вбити тебе коли забажаю.__

// 19003
//“I see,” Harry said. He did see; __that__ was why Voldemort had told him
//about his horcrux system in the first place, just to set up the moment when
//Harry knowingly tried to violate his immortality. Harry’s mind was frantically
//churning through options, none of which seemed helpful. His pouch, his clothes,
//Harry saw by the moonlight that they all now lay in another heap by the altar,
//out of reach. “And now you kill me?” Harry still had his wand, presumably the
//Dark Lord couldn’t cast his own magic on that, or his glasses, because of the
//disharmony. __Cast my own spell first? No, Voldemort just jabs his wand
//downward to make another shield, then shoots me - what else is there? WHAT
//ELSE?__
-- Розумію, -- сказав Гаррі.

І він справді розумів. __Ось чому__ Волдеморт розповідав йому про свою систему
горокраксів -- щоб підготувати мить, коли Гаррі свідомо спробує знищити його
безсмертя. Розум Гаррі копирсався в різноманітних варіантах, та нічого корисного
не міг знайти. Капшучок, одяг, як бачив Гаррі у місячному світлі, тепер лежали в
іншій купі біля вівтаря, недосяжні.

-- А тепер ви мене вбʼєте? -- Гаррі досі мав паличку, напевно через те, що
Темний Лорд не міг використовувати на ній закляття, як і на окулярах, через
резонанс.

__Застосувати якесь закляття першому? Та ні, Волдеморт просто смикне паличку
вниз та створить інший щит, а тоді пристрелить мене... що ще в мене є? ЩО ЩЕ?__

// 19004
//“Still a fool. If no further matters remained between us, I would already have
//killed you.” The dirt wall crumbled at another gesture of the wand, and
//Voldemort moved smoothly back toward the heap of items by the altar. The Dark
//Lord stretched out a hand, and the diary of Roger Bacon flew to him.
//“__Thiss iss, indeed, horcrux of girl-child, my ssuperior verssion.__” In
//his other hand appeared a parchment. ”__Thiss iss ritual for
//ressurrecting her, if it musst be done again. Insstructionss are honesst, no
//trapss. Remember that girl-child’ss sspirit cannot float free like ghosst,
//Ressurrection Sstone iss my horcrux, not herss. Do not losse her horcrux, or
//her sspirit may be trapped within it.__” Voldemort reached down, picked up
//Harry’s pouch, fed both the diary and the parchment into it. ”__Remember
//that, in casse something goess wrong with next movess.__”
-- Досі дурень. Якби між нами більше не було справ, я би вже тебе вбив, --
земляна стіна розсипалася від чергового жесту паличкою, і Волдеморт плавно
повернувся до купи предметів біля вівтаря. Темний Лорд простягнув руку й
щоденник Роджера Бекона підлетів до нього. -- __Це й ссправді горокраксс
дівчини, моя поліпшшена верссія,__ -- у його руці зʼявився пергамент. -- __Це
ритуал восскрессіння, якшщо доведеться це робити знову. Інсструкції ссправжні,
жодних пассток. Памʼятай, шщо дух дівчини не може шширяти вільно, мов привид, бо
восскрессальний камінь -- це мій горокраксс, а не її. Не загуби її горокраксс,
інакше її дух в ньому й буде замкнено,__ -- Волдеморт нахилився, підняв капшучок
Гаррі й згодував йому щоденник та пергамент. -- __Памʼятай про це на випадок,
якшщо з моїми подальшшими планами шщось піде не так.__

// 19005
//“I don’t understand what is happening,” Harry said. There was nothing else
//left. “Please explain to me.”
-- Я не розумію, що коїться, -- сказав Гаррі. Йому більше нічого не лишалося. --
Будь ласка, поясніть мені.

// 19006
//The Dark Lord was now regarding Harry with a grim look. “__When
//girl-child died, wass in company of sschool’ss Sseer, heard prophecy sspoken
//that you would become force of vasst desstruction. You would become threat
//beyond imagination, beyond apocalypsse. That iss why I went to ssuch lengthss
//to undo my killing of girl-child, keep it undone.”__
//! 53%
Тепер Темний Лорд суворо розглядав Гаррі.

-- __Коли померла дівчина, я був разом з провидицею шшколи, почув пророцтво про
те, шщо ти станешш ссилою величезної руйнації. Ти сстанешш такою загрозою, шщо
годі й уявити, сстрашшнішшою за апокаліпссисс. Оссь чому я вдавсся до таких
заходів, шщоб сскассувати насслідки того, шщо я вбив дівчину, і шщоб вона
лишшаласся живою.__

// 19007
//“Are,” what “are you sure,” what.
-- Ви, ви певні?.. -- що?

// 19008
//“__Dare not ssay sspecificss to you. Prophecy I heard of mysself led me
//to fulfill it. Have not forgotten that dissasster.__” Voldemort backed further
//away from Harry, red slitted eyes fixed upon the Boy-Who-Lived, gun unwavering
//in the left hand. ”__All thiss, all I have done, iss to ssmassh that
//desstiny at every point of intervention. If ssome fate makess me fail in what
//comess next, idiot-child of foretold desstruction, then you musst kill
//yoursself to ssave girl-child. Elsse all you claim to value diess by your own
//hand.__”
// hedrok "every point of intervension" копія з 092:16591
-- __Не ризикну розповіссти тобі докладно. Пророцтво, яке я почув був про ссебе,
призвело до того, шщо я його здійсснив. Я шще не забув тієї катастрофи,__ --
Волдеморт відійшов далі від Гаррі, червоні очі-щілини ані на мить не полишали
Хлопчика-Що-Вижив, пістолет без жодного тремтіння був направленим на нього. --
__Уссе це, уссе, шщо я зробив, направлено на те, шщоб сспинити цю долю за кожної
можливої нагоди. Якшщо якассь доля не дозволить мені зробити те, шщо треба
зробити далі, ідіотська дитино пророкованої руйнації, ти муссиш убити ссебе,
шщоб врятувати дівчину. Інакшше вссе, шщо за твоїми ж ссловами ти цінуєшш помре
від твоєї ж руки.__

// 19009
//“I,” Harry’s voice went up an octave, “I,” another octave, “I __really
//really wouldn’t do that, seriously!”__
-- Я, -- голос Гаррі піднявся ще на октаву, -- я, -- ще октава, -- я
__чесно-чесно не зроблю такого, серйозно__!

// 19010
//“__Ssilence, fool. Remain ssilent unlesss given leave by me to sspeak.
//Keep your wand pointed down and do not raisse it unlesss told. Elsse you die
//upon the sspot, and mark that I ssaid that in Parsseltongue.”__ Voldemort
//reached into the altar again.
-- __Тихо, дурню. Мовчи, доки я не дозволю тобі розмовляти. Тримай паличку
направленою вниз та не підіймай її, хіба шщо я накажу. Інакшше ти помреш на
міссці, і памʼятай, шщо я ссказав це парселмовою.__

Волдеморт знову занурився у вівтар.

// 19011
//For a second Harry’s mind couldn’t process what he was seeing, and then he saw
//that Voldemort was holding a human arm, severed near the shoulder; it seemed
//too thin, that arm.
Деякий час мозок Гаррі не міг обробити, що він бачить, а тоді він зрозумів, що
Волдеморт тримає людську руку, що була відірвана коло плеча. Ця рука видавалася
надто худою.

// 19012
//The Dark Lord pressed his wand to the flesh above the severed arm’s elbow, and
//the fingers twitched, twitched like they were alive; by dim moonlight Harry saw
//a darker mark appear on that flesh, just above the elbow.
Темний Лорд натиснув паличкою на плоть коло ліктя відірваної руки, пальці
смикнулися, смикнулися, ніби були живими. У тьмяному місячному світлі Гаррі
побачив, що на руці зʼявилася темніша мітка, прямо над ліктем.

// 19013
//Seconds later the first hooded figure appeared inside the graveyard with the
//popping sound of an Apparition. A moment after that came another pop, and then
//another.
За кілька секунд на цвинтарі зʼявилася перша людина в каптурі -- зʼявилася з
ляскотом явлення. За мить пролунав другий ляскіт, а потім ще.

// 19014
//The hooded figures wore silver skull masks, and moonlight fled from the robes
//beneath them.
// hedrok @ що розумію це речення.
Люди в каптурах були в масках-черепах, місячне сяйво не торкалося їхніх мантій.

// 19015
//“Master!” cried one of the black robes, the third to arrive. The voice was of
//peculiar timbre, from behind the silver skull mask. “Master - it has been so
//long - we had lost hope -”
-- Володарю! -- скрикнула одна з чорних мантій, та, що прибула третьою. Голос
з-за срібної маски-черепа мав дуже специфічний тембр. -- Володарю... Як же
довго... Ми вже втратили останню надію...

// 19016
//“Silence!” shouted the high voice of the Dark Lord Voldemort. Every trace of
//Professor Quirrell was now gone from the too-tall figure. “Train your wand upon
//the Boy-Who-Lived, and watch him! Do not be distracted, not by anything! Stun
//him at once if he moves, if he begins to speak!”
-- Тихо! -- закричав високий голос Темного Лорда Волдеморта. Останні сліди
професора Квірела покинули надто високу людину. -- Націльте палички на
Хлопчика-Що-Вижив та стежте за ним! Не відволікайтеся ні на що! Оглушуйте його,
якщо він ворухнеться, якщо почне розмовляти!

// 19017
//More pops. Between graves, behind a tree, in all the shadowy spaces, more black
//robes were Apparating, all hooded and masked. Some of them voiced exclamations
//of joy, many of those sounding rather forced; others moved forwards as though
//to greet their Master. Voldemort gave them all the same instruction, except
//that some were commanded to Cruciate Harry Potter if he moved, others to
//restrain the Boy-Who-Lived if he moved, others told to fire hexes and curses,
//others told to cancel his magic.
Ще ляскоти. Між могилами, за деревом, в усіх темних місцях, зʼявлялися чорні
мантії, усі в каптурах і з масками. Дехто вигукував слова радості, більшість з
цих слів видавалися вкрай вимушеними. Інші підходили, щоб привітати свого
володаря. Волдеморт давав усім однакові накази, хіба що хтось мав насилати на
Гаррі Поттера "`Круціатус`", якщо він ворухнеться, інші мали стримати
Хлопчика-Що-Вижив, якщо він ворухнеться, інші мали насилати прокльони й
прокляття, інші мали скасовувати його магію.

// 19018
//Thirty-seven pops, Harry counted before the black robes and skull masks seemed
//to stop arriving.
Гаррі налічив тридцять сім ляскотів до того, як чорні мантії та маски-черепи не
припинили прибувати.

// 19019
//All of them were now holding their wands pointed at Harry, aligned in a
//semicircle before him, where they wouldn’t get into each other’s lines of fire.
Тепер усі вони тримали палички націленими на Гаррі, утворивши перед ним
напівколо, щоб їхні лінії вогню не перетиналися.

// 19020
//Harry continued pointing his wand downward, insofar as he had been told that,
//if he tried to raise it, he would die. He remained silent, insofar as he had
//been told that if he tried to speak, he would die. He tried not to shiver in
//the falling night temperatures, for he was naked, and it was getting colder.
Гаррі тримав паличку направленою донизу, як йому й сказали, бо якщо він спробує
її підвести, то помре. Він мовчав, бо йому сказали, що якщо він спробує
заговорити, то помре. Він намагався не тремтіти від низької температури ночі,
хоч він і був голим, і ставало холодніше.

// 19021
//__You know,__ said the last voice within Harry, the voice of hope,
//__I think this is getting pretty bad even by my standards.__
__Знаєш,__ сказав останній голос всередині Гаррі, голос надії, __Гадаю, справи
кепські навіть за моїми стандартами.__

// 19022
//__The next chapter will post on__ **February 28th, 2015** __at__
//**12PM Pacific / 8PM UTC**__.__
